data-source/28-10-21/ALL0027/F0027CH2.CSV

Record Length,2.500000e+03,,   1.793680000000,  -3.20000,
Sample Interval,4.000000e-06,,   1.793684000000,  -3.20000,
Trigger Point,-4.484200000000e+05,,   1.793688000000,  -3.20000,
,,,   1.793692000000,  -3.20000,
,,,   1.793696000000,  -3.20000,
,,,   1.793700000000,  -3.20000,
Source,CH2,,   1.793704000000,  -3.20000,
Vertical Units,V,,   1.793708000000,  -3.20000,
Vertical Scale,5.000000e-01,,   1.793712000000,  -3.20000,
Vertical Offset,1.500000e+00,,   1.793716000000,  -3.20000,
Horizontal Units,s,,   1.793720000000,  -3.20000,
Horizontal Scale,1.000000e-03,,   1.793724000000,  -3.20000,
Pt Fmt,Y,,   1.793728000000,  -3.20000,
Yzero,0.000000e+00,,   1.793732000000,  -3.20000,
Probe Atten,1.000000e+01,,   1.793736000000,  -3.20000,
Model Number,TBS1104,,   1.793740000000,  -3.20000,
Serial Number,C014641,,   1.793744000000,  -3.20000,
Firmware Version,FV:v26.05,,   1.793748000000,  -3.20000,
,,,1.793752000000,  -3.20000,
,,,1.793756000000,  -3.20000,
,,,1.793760000000,  -3.20000,
,,,1.793764000000,  -3.18000,
,,,1.793768000000,  -3.20000,
,,,1.793772000000,  -3.20000,
,,,1.793776000000,  -3.20000,
,,,1.793780000000,  -3.20000,
,,,1.793784000000,  -3.18000,
,,,1.793788000000,  -3.20000,
,,,1.793792000000,  -3.20000,
,,,1.793796000000,  -3.20000,
,,,1.793800000000,  -3.18000,
,,,1.793804000000,  -3.20000,
,,,1.793808000000,  -3.20000,
,,,1.793812000000,  -3.20000,
,,,1.793816000000,  -3.20000,
,,,1.793820000000,  -3.20000,
,,,1.793824000000,  -3.20000,
,,,1.793828000000,  -3.18000,
,,,1.793832000000,  -3.20000,
,,,1.793836000000,  -3.18000,
,,,1.793840000000,  -3.20000,
,,,1.793844000000,  -3.20000,
,,,1.793848000000,  -3.20000,
,,,1.793852000000,  -3.20000,
,,,1.793856000000,  -3.18000,
,,,1.793860000000,  -3.20000,
,,,1.793864000000,  -3.18000,
,,,1.793868000000,  -3.18000,
,,,1.793872000000,  -3.18000,
,,,1.793876000000,  -3.18000,
,,,1.793880000000,  -3.20000,
,,,1.793884000000,  -3.20000,
,,,1.793888000000,  -3.20000,
,,,1.793892000000,  -3.20000,
,,,1.793896000000,  -3.18000,
,,,1.793900000000,  -3.20000,
,,,1.793904000000,  -3.20000,
,,,1.793908000000,  -3.18000,
,,,1.793912000000,  -3.18000,
,,,1.793916000000,  -3.18000,
,,,1.793920000000,  -3.18000,
,,,1.793924000000,  -3.18000,
,,,1.793928000000,  -3.18000,
,,,1.793932000000,  -3.18000,
,,,1.793936000000,  -3.20000,
,,,1.793940000000,  -3.18000,
,,,1.793944000000,  -3.18000,
,,,1.793948000000,  -3.18000,
,,,1.793952000000,  -3.20000,
,,,1.793956000000,  -3.20000,
,,,1.793960000000,  -3.18000,
,,,1.793964000000,  -3.18000,
,,,1.793968000000,  -3.20000,
,,,1.793972000000,  -3.20000,
,,,1.793976000000,  -3.20000,
,,,1.793980000000,  -3.18000,
,,,1.793984000000,  -3.20000,
,,,1.793988000000,  -3.20000,
,,,1.793992000000,  -3.20000,
,,,1.793996000000,  -3.18000,
,,,1.794000000000,  -3.18000,
,,,1.794004000000,  -3.18000,
,,,1.794008000000,  -3.18000,
,,,1.794012000000,  -3.18000,
,,,1.794016000000,  -3.18000,
,,,1.794020000000,  -3.18000,
,,,1.794024000000,  -3.18000,
,,,1.794028000000,  -3.20000,
,,,1.794032000000,  -3.18000,
,,,1.794036000000,  -3.16000,
,,,1.794040000000,  -3.18000,
,,,1.794044000000,  -3.18000,
,,,1.794048000000,  -3.18000,
,,,1.794052000000,  -3.18000,
,,,1.794056000000,  -3.24000,
,,,1.794060000000,  -3.20000,
,,,1.794064000000,  -3.18000,
,,,1.794068000000,  -3.18000,
,,,1.794072000000,  -3.18000,
,,,1.794076000000,  -3.18000,
,,,1.794080000000,  -3.18000,
,,,1.794084000000,  -3.18000,
,,,1.794088000000,  -3.18000,
,,,1.794092000000,  -3.18000,
,,,1.794096000000,  -3.18000,
,,,1.794100000000,  -3.18000,
,,,1.794104000000,  -3.18000,
,,,1.794108000000,  -3.18000,
,,,1.794112000000,  -3.18000,
,,,1.794116000000,  -3.18000,
,,,1.794120000000,  -3.18000,
,,,1.794124000000,  -3.18000,
,,,1.794128000000,  -3.16000,
,,,1.794132000000,  -3.18000,
,,,1.794136000000,  -3.18000,
,,,1.794140000000,  -3.18000,
,,,1.794144000000,  -3.18000,
,,,1.794148000000,  -3.18000,
,,,1.794152000000,  -3.18000,
,,,1.794156000000,  -3.16000,
,,,1.794160000000,  -3.16000,
,,,1.794164000000,  -3.16000,
,,,1.794168000000,  -3.18000,
,,,1.794172000000,  -3.16000,
,,,1.794176000000,  -3.16000,
,,,1.794180000000,  -3.16000,
,,,1.794184000000,  -3.16000,
,,,1.794188000000,  -3.16000,
,,,1.794192000000,  -3.16000,
,,,1.794196000000,  -3.16000,
,,,1.794200000000,  -3.16000,
,,,1.794204000000,  -3.16000,
,,,1.794208000000,  -3.14000,
,,,1.794212000000,  -3.16000,
,,,1.794216000000,  -3.16000,
,,,1.794220000000,  -3.16000,
,,,1.794224000000,  -3.14000,
,,,1.794228000000,  -3.18000,
,,,1.794232000000,  -3.16000,
,,,1.794236000000,  -3.16000,
,,,1.794240000000,  -3.14000,
,,,1.794244000000,  -3.16000,
,,,1.794248000000,  -3.14000,
,,,1.794252000000,  -3.16000,
,,,1.794256000000,  -3.16000,
,,,1.794260000000,  -3.10000,
,,,1.794264000000,  -3.16000,
,,,1.794268000000,  -3.16000,
,,,1.794272000000,  -3.16000,
,,,1.794276000000,  -3.14000,
,,,1.794280000000,  -3.14000,
,,,1.794284000000,  -3.16000,
,,,1.794288000000,  -3.14000,
,,,1.794292000000,  -3.14000,
,,,1.794296000000,  -3.14000,
,,,1.794300000000,  -3.14000,
,,,1.794304000000,  -3.16000,
,,,1.794308000000,  -3.16000,
,,,1.794312000000,  -3.14000,
,,,1.794316000000,  -3.14000,
,,,1.794320000000,  -3.14000,
,,,1.794324000000,  -3.16000,
,,,1.794328000000,  -3.14000,
,,,1.794332000000,  -3.14000,
,,,1.794336000000,  -3.14000,
,,,1.794340000000,  -3.14000,
,,,1.794344000000,  -3.14000,
,,,1.794348000000,  -3.14000,
,,,1.794352000000,  -3.14000,
,,,1.794356000000,  -3.14000,
,,,1.794360000000,  -3.14000,
,,,1.794364000000,  -3.14000,
,,,1.794368000000,  -3.14000,
,,,1.794372000000,  -3.14000,
,,,1.794376000000,  -3.14000,
,,,1.794380000000,  -3.14000,
,,,1.794384000000,  -3.14000,
,,,1.794388000000,  -3.14000,
,,,1.794392000000,  -3.14000,
,,,1.794396000000,  -3.14000,
,,,1.794400000000,  -3.14000,
,,,1.794404000000,  -3.14000,
,,,1.794408000000,  -3.14000,
,,,1.794412000000,  -3.12000,
,,,1.794416000000,  -3.14000,
,,,1.794420000000,  -3.12000,
,,,1.794424000000,  -3.14000,
,,,1.794428000000,  -3.14000,
,,,1.794432000000,  -3.12000,
,,,1.794436000000,  -3.12000,
,,,1.794440000000,  -3.12000,
,,,1.794444000000,  -3.12000,
,,,1.794448000000,  -3.12000,
,,,1.794452000000,  -3.14000,
,,,1.794456000000,  -3.14000,
,,,1.794460000000,  -3.12000,
,,,1.794464000000,  -3.14000,
,,,1.794468000000,  -3.12000,
,,,1.794472000000,  -3.12000,
,,,1.794476000000,  -3.12000,
,,,1.794480000000,  -3.10000,
,,,1.794484000000,  -3.18000,
,,,1.794488000000,  -3.10000,
,,,1.794492000000,  -3.14000,
,,,1.794496000000,  -3.12000,
,,,1.794500000000,  -3.12000,
,,,1.794504000000,  -3.12000,
,,,1.794508000000,  -3.12000,
,,,1.794512000000,  -3.12000,
,,,1.794516000000,  -3.12000,
,,,1.794520000000,  -3.12000,
,,,1.794524000000,  -3.12000,
,,,1.794528000000,  -3.14000,
,,,1.794532000000,  -3.10000,
,,,1.794536000000,  -3.12000,
,,,1.794540000000,  -3.12000,
,,,1.794544000000,  -3.12000,
,,,1.794548000000,  -3.12000,
,,,1.794552000000,  -3.10000,
,,,1.794556000000,  -3.10000,
,,,1.794560000000,  -3.12000,
,,,1.794564000000,  -3.10000,
,,,1.794568000000,  -3.12000,
,,,1.794572000000,  -3.12000,
,,,1.794576000000,  -3.10000,
,,,1.794580000000,  -3.10000,
,,,1.794584000000,  -3.10000,
,,,1.794588000000,  -3.10000,
,,,1.794592000000,  -3.10000,
,,,1.794596000000,  -3.12000,
,,,1.794600000000,  -3.12000,
,,,1.794604000000,  -3.10000,
,,,1.794608000000,  -3.10000,
,,,1.794612000000,  -3.08000,
,,,1.794616000000,  -3.10000,
,,,1.794620000000,  -3.08000,
,,,1.794624000000,  -3.10000,
,,,1.794628000000,  -3.08000,
,,,1.794632000000,  -3.08000,
,,,1.794636000000,  -3.10000,
,,,1.794640000000,  -3.10000,
,,,1.794644000000,  -3.10000,
,,,1.794648000000,  -3.08000,
,,,1.794652000000,  -3.10000,
,,,1.794656000000,  -3.08000,
,,,1.794660000000,  -3.10000,
,,,1.794664000000,  -3.08000,
,,,1.794668000000,  -3.08000,
,,,1.794672000000,  -3.08000,
,,,1.794676000000,  -3.08000,
,,,1.794680000000,  -3.10000,
,,,1.794684000000,  -3.08000,
,,,1.794688000000,  -3.08000,
,,,1.794692000000,  -3.08000,
,,,1.794696000000,  -3.08000,
,,,1.794700000000,  -3.08000,
,,,1.794704000000,  -3.08000,
,,,1.794708000000,  -3.06000,
,,,1.794712000000,  -3.08000,
,,,1.794716000000,  -3.08000,
,,,1.794720000000,  -3.08000,
,,,1.794724000000,  -3.08000,
,,,1.794728000000,  -3.08000,
,,,1.794732000000,  -3.08000,
,,,1.794736000000,  -3.08000,
,,,1.794740000000,  -3.06000,
,,,1.794744000000,  -3.08000,
,,,1.794748000000,  -3.08000,
,,,1.794752000000,  -3.08000,
,,,1.794756000000,  -3.08000,
,,,1.794760000000,  -3.08000,
,,,1.794764000000,  -3.08000,
,,,1.794768000000,  -3.08000,
,,,1.794772000000,  -3.06000,
,,,1.794776000000,  -3.06000,
,,,1.794780000000,  -3.06000,
,,,1.794784000000,  -3.06000,
,,,1.794788000000,  -3.06000,
,,,1.794792000000,  -3.06000,
,,,1.794796000000,  -3.06000,
,,,1.794800000000,  -3.06000,
,,,1.794804000000,  -3.06000,
,,,1.794808000000,  -3.06000,
,,,1.794812000000,  -3.08000,
,,,1.794816000000,  -3.04000,
,,,1.794820000000,  -3.06000,
,,,1.794824000000,  -3.06000,
,,,1.794828000000,  -3.04000,
,,,1.794832000000,  -3.06000,
,,,1.794836000000,  -3.06000,
,,,1.794840000000,  -3.06000,
,,,1.794844000000,  -3.04000,
,,,1.794848000000,  -3.04000,
,,,1.794852000000,  -3.06000,
,,,1.794856000000,  -3.06000,
,,,1.794860000000,  -3.04000,
,,,1.794864000000,  -3.04000,
,,,1.794868000000,  -3.04000,
,,,1.794872000000,  -3.04000,
,,,1.794876000000,  -3.06000,
,,,1.794880000000,  -3.02000,
,,,1.794884000000,  -3.04000,
,,,1.794888000000,  -3.04000,
,,,1.794892000000,  -3.04000,
,,,1.794896000000,  -3.04000,
,,,1.794900000000,  -3.00000,
,,,1.794904000000,  -3.04000,
,,,1.794908000000,  -3.04000,
,,,1.794912000000,  -3.04000,
,,,1.794916000000,  -3.04000,
,,,1.794920000000,  -3.04000,
,,,1.794924000000,  -3.04000,
,,,1.794928000000,  -3.04000,
,,,1.794932000000,  -3.04000,
,,,1.794936000000,  -3.04000,
,,,1.794940000000,  -3.04000,
,,,1.794944000000,  -3.04000,
,,,1.794948000000,  -3.04000,
,,,1.794952000000,  -3.02000,
,,,1.794956000000,  -3.04000,
,,,1.794960000000,  -3.02000,
,,,1.794964000000,  -3.04000,
,,,1.794968000000,  -3.04000,
,,,1.794972000000,  -3.02000,
,,,1.794976000000,  -3.02000,
,,,1.794980000000,  -3.04000,
,,,1.794984000000,  -3.02000,
,,,1.794988000000,  -3.02000,
,,,1.794992000000,  -3.04000,
,,,1.794996000000,  -3.02000,
,,,1.795000000000,  -3.02000,
,,,1.795004000000,  -3.04000,
,,,1.795008000000,  -3.02000,
,,,1.795012000000,  -3.02000,
,,,1.795016000000,  -3.02000,
,,,1.795020000000,  -3.02000,
,,,1.795024000000,  -3.00000,
,,,1.795028000000,  -3.02000,
,,,1.795032000000,  -3.02000,
,,,1.795036000000,  -3.02000,
,,,1.795040000000,  -3.02000,
,,,1.795044000000,  -3.00000,
,,,1.795048000000,  -3.00000,
,,,1.795052000000,  -3.02000,
,,,1.795056000000,  -3.02000,
,,,1.795060000000,  -3.02000,
,,,1.795064000000,  -3.02000,
,,,1.795068000000,  -3.00000,
,,,1.795072000000,  -3.00000,
,,,1.795076000000,  -3.02000,
,,,1.795080000000,  -3.00000,
,,,1.795084000000,  -3.02000,
,,,1.795088000000,  -3.02000,
,,,1.795092000000,  -3.00000,
,,,1.795096000000,  -3.00000,
,,,1.795100000000,  -2.98000,
,,,1.795104000000,  -3.00000,
,,,1.795108000000,  -3.00000,
,,,1.795112000000,  -3.00000,
,,,1.795116000000,  -3.00000,
,,,1.795120000000,  -3.00000,
,,,1.795124000000,  -2.98000,
,,,1.795128000000,  -2.98000,
,,,1.795132000000,  -3.00000,
,,,1.795136000000,  -2.98000,
,,,1.795140000000,  -3.04000,
,,,1.795144000000,  -2.98000,
,,,1.795148000000,  -3.00000,
,,,1.795152000000,  -2.98000,
,,,1.795156000000,  -2.98000,
,,,1.795160000000,  -2.98000,
,,,1.795164000000,  -2.98000,
,,,1.795168000000,  -2.98000,
,,,1.795172000000,  -2.98000,
,,,1.795176000000,  -2.98000,
,,,1.795180000000,  -2.98000,
,,,1.795184000000,  -2.98000,
,,,1.795188000000,  -2.98000,
,,,1.795192000000,  -2.98000,
,,,1.795196000000,  -2.98000,
,,,1.795200000000,  -2.98000,
,,,1.795204000000,  -2.98000,
,,,1.795208000000,  -2.96000,
,,,1.795212000000,  -2.96000,
,,,1.795216000000,  -2.98000,
,,,1.795220000000,  -2.96000,
,,,1.795224000000,  -2.96000,
,,,1.795228000000,  -2.96000,
,,,1.795232000000,  -2.96000,
,,,1.795236000000,  -2.96000,
,,,1.795240000000,  -2.98000,
,,,1.795244000000,  -2.96000,
,,,1.795248000000,  -2.98000,
,,,1.795252000000,  -2.96000,
,,,1.795256000000,  -2.96000,
,,,1.795260000000,  -2.96000,
,,,1.795264000000,  -2.96000,
,,,1.795268000000,  -2.96000,
,,,1.795272000000,  -2.96000,
,,,1.795276000000,  -2.96000,
,,,1.795280000000,  -2.96000,
,,,1.795284000000,  -2.94000,
,,,1.795288000000,  -2.94000,
,,,1.795292000000,  -2.94000,
,,,1.795296000000,  -2.94000,
,,,1.795300000000,  -2.94000,
,,,1.795304000000,  -2.94000,
,,,1.795308000000,  -2.94000,
,,,1.795312000000,  -2.94000,
,,,1.795316000000,  -2.94000,
,,,1.795320000000,  -2.94000,
,,,1.795324000000,  -2.94000,
,,,1.795328000000,  -2.94000,
,,,1.795332000000,  -2.94000,
,,,1.795336000000,  -2.94000,
,,,1.795340000000,  -2.96000,
,,,1.795344000000,  -2.94000,
,,,1.795348000000,  -2.94000,
,,,1.795352000000,  -2.92000,
,,,1.795356000000,  -2.94000,
,,,1.795360000000,  -2.92000,
,,,1.795364000000,  -2.96000,
,,,1.795368000000,  -2.92000,
,,,1.795372000000,  -2.92000,
,,,1.795376000000,  -2.92000,
,,,1.795380000000,  -2.92000,
,,,1.795384000000,  -2.92000,
,,,1.795388000000,  -2.92000,
,,,1.795392000000,  -2.92000,
,,,1.795396000000,  -2.92000,
,,,1.795400000000,  -2.92000,
,,,1.795404000000,  -2.92000,
,,,1.795408000000,  -2.92000,
,,,1.795412000000,  -2.92000,
,,,1.795416000000,  -2.90000,
,,,1.795420000000,  -2.92000,
,,,1.795424000000,  -2.90000,
,,,1.795428000000,  -2.92000,
,,,1.795432000000,  -2.90000,
,,,1.795436000000,  -2.88000,
,,,1.795440000000,  -2.90000,
,,,1.795444000000,  -2.92000,
,,,1.795448000000,  -2.92000,
,,,1.795452000000,  -2.90000,
,,,1.795456000000,  -2.90000,
,,,1.795460000000,  -2.92000,
,,,1.795464000000,  -2.90000,
,,,1.795468000000,  -2.88000,
,,,1.795472000000,  -2.88000,
,,,1.795476000000,  -2.90000,
,,,1.795480000000,  -2.90000,
,,,1.795484000000,  -2.90000,
,,,1.795488000000,  -2.88000,
,,,1.795492000000,  -2.88000,
,,,1.795496000000,  -2.90000,
,,,1.795500000000,  -2.90000,
,,,1.795504000000,  -2.90000,
,,,1.795508000000,  -2.88000,
,,,1.795512000000,  -2.88000,
,,,1.795516000000,  -2.88000,
,,,1.795520000000,  -2.88000,
,,,1.795524000000,  -2.88000,
,,,1.795528000000,  -2.88000,
,,,1.795532000000,  -2.88000,
,,,1.795536000000,  -2.88000,
,,,1.795540000000,  -2.88000,
,,,1.795544000000,  -2.86000,
,,,1.795548000000,  -2.90000,
,,,1.795552000000,  -2.88000,
,,,1.795556000000,  -2.88000,
,,,1.795560000000,  -2.88000,
,,,1.795564000000,  -2.88000,
,,,1.795568000000,  -2.86000,
,,,1.795572000000,  -2.86000,
,,,1.795576000000,  -2.86000,
,,,1.795580000000,  -2.88000,
,,,1.795584000000,  -2.86000,
,,,1.795588000000,  -2.86000,
,,,1.795592000000,  -2.86000,
,,,1.795596000000,  -2.86000,
,,,1.795600000000,  -2.86000,
,,,1.795604000000,  -2.84000,
,,,1.795608000000,  -2.86000,
,,,1.795612000000,  -2.86000,
,,,1.795616000000,  -2.86000,
,,,1.795620000000,  -2.84000,
,,,1.795624000000,  -2.84000,
,,,1.795628000000,  -2.86000,
,,,1.795632000000,  -2.86000,
,,,1.795636000000,  -2.84000,
,,,1.795640000000,  -2.84000,
,,,1.795644000000,  -2.86000,
,,,1.795648000000,  -2.86000,
,,,1.795652000000,  -2.86000,
,,,1.795656000000,  -2.82000,
,,,1.795660000000,  -2.84000,
,,,1.795664000000,  -2.84000,
,,,1.795668000000,  -2.84000,
,,,1.795672000000,  -2.84000,
,,,1.795676000000,  -2.84000,
,,,1.795680000000,  -2.82000,
,,,1.795684000000,  -2.84000,
,,,1.795688000000,  -2.84000,
,,,1.795692000000,  -2.84000,
,,,1.795696000000,  -2.82000,
,,,1.795700000000,  -2.82000,
,,,1.795704000000,  -2.82000,
,,,1.795708000000,  -2.82000,
,,,1.795712000000,  -2.82000,
,,,1.795716000000,  -2.82000,
,,,1.795720000000,  -2.82000,
,,,1.795724000000,  -2.82000,
,,,1.795728000000,  -2.82000,
,,,1.795732000000,  -2.80000,
,,,1.795736000000,  -2.82000,
,,,1.795740000000,  -2.80000,
,,,1.795744000000,  -2.82000,
,,,1.795748000000,  -2.82000,
,,,1.795752000000,  -2.82000,
,,,1.795756000000,  -2.82000,
,,,1.795760000000,  -2.82000,
,,,1.795764000000,  -2.82000,
,,,1.795768000000,  -2.80000,
,,,1.795772000000,  -2.80000,
,,,1.795776000000,  -2.80000,
,,,1.795780000000,  -2.80000,
,,,1.795784000000,  -2.80000,
,,,1.795788000000,  -2.80000,
,,,1.795792000000,  -2.80000,
,,,1.795796000000,  -2.80000,
,,,1.795800000000,  -2.80000,
,,,1.795804000000,  -2.80000,
,,,1.795808000000,  -2.78000,
,,,1.795812000000,  -2.80000,
,,,1.795816000000,  -2.80000,
,,,1.795820000000,  -2.80000,
,,,1.795824000000,  -2.80000,
,,,1.795828000000,  -2.80000,
,,,1.795832000000,  -2.80000,
,,,1.795836000000,  -2.78000,
,,,1.795840000000,  -2.78000,
,,,1.795844000000,  -2.76000,
,,,1.795848000000,  -2.78000,
,,,1.795852000000,  -2.78000,
,,,1.795856000000,  -2.78000,
,,,1.795860000000,  -2.80000,
,,,1.795864000000,  -2.78000,
,,,1.795868000000,  -2.76000,
,,,1.795872000000,  -2.76000,
,,,1.795876000000,  -2.78000,
,,,1.795880000000,  -2.76000,
,,,1.795884000000,  -2.76000,
,,,1.795888000000,  -2.78000,
,,,1.795892000000,  -2.74000,
,,,1.795896000000,  -2.76000,
,,,1.795900000000,  -2.76000,
,,,1.795904000000,  -2.76000,
,,,1.795908000000,  -2.74000,
,,,1.795912000000,  -2.76000,
,,,1.795916000000,  -2.74000,
,,,1.795920000000,  -2.76000,
,,,1.795924000000,  -2.74000,
,,,1.795928000000,  -2.76000,
,,,1.795932000000,  -2.74000,
,,,1.795936000000,  -2.74000,
,,,1.795940000000,  -2.74000,
,,,1.795944000000,  -2.74000,
,,,1.795948000000,  -2.74000,
,,,1.795952000000,  -2.74000,
,,,1.795956000000,  -2.74000,
,,,1.795960000000,  -2.72000,
,,,1.795964000000,  -2.72000,
,,,1.795968000000,  -2.74000,
,,,1.795972000000,  -2.72000,
,,,1.795976000000,  -2.72000,
,,,1.795980000000,  -2.74000,
,,,1.795984000000,  -2.72000,
,,,1.795988000000,  -2.72000,
,,,1.795992000000,  -2.74000,
,,,1.795996000000,  -2.74000,
,,,1.796000000000,  -2.74000,
,,,1.796004000000,  -2.72000,
,,,1.796008000000,  -2.72000,
,,,1.796012000000,  -2.70000,
,,,1.796016000000,  -2.72000,
,,,1.796020000000,  -2.70000,
,,,1.796024000000,  -2.70000,
,,,1.796028000000,  -2.70000,
,,,1.796032000000,  -2.72000,
,,,1.796036000000,  -2.72000,
,,,1.796040000000,  -2.70000,
,,,1.796044000000,  -2.72000,
,,,1.796048000000,  -2.72000,
,,,1.796052000000,  -2.70000,
,,,1.796056000000,  -2.70000,
,,,1.796060000000,  -2.70000,
,,,1.796064000000,  -2.72000,
,,,1.796068000000,  -2.68000,
,,,1.796072000000,  -2.70000,
,,,1.796076000000,  -2.70000,
,,,1.796080000000,  -2.70000,
,,,1.796084000000,  -2.70000,
,,,1.796088000000,  -2.68000,
,,,1.796092000000,  -2.70000,
,,,1.796096000000,  -2.68000,
,,,1.796100000000,  -2.68000,
,,,1.796104000000,  -2.68000,
,,,1.796108000000,  -2.68000,
,,,1.796112000000,  -2.68000,
,,,1.796116000000,  -2.68000,
,,,1.796120000000,  -2.68000,
,,,1.796124000000,  -2.68000,
,,,1.796128000000,  -2.66000,
,,,1.796132000000,  -2.68000,
,,,1.796136000000,  -2.68000,
,,,1.796140000000,  -2.68000,
,,,1.796144000000,  -2.68000,
,,,1.796148000000,  -2.68000,
,,,1.796152000000,  -2.66000,
,,,1.796156000000,  -2.66000,
,,,1.796160000000,  -2.66000,
,,,1.796164000000,  -2.66000,
,,,1.796168000000,  -2.66000,
,,,1.796172000000,  -2.66000,
,,,1.796176000000,  -2.64000,
,,,1.796180000000,  -2.66000,
,,,1.796184000000,  -2.64000,
,,,1.796188000000,  -2.64000,
,,,1.796192000000,  -2.64000,
,,,1.796196000000,  -2.64000,
,,,1.796200000000,  -2.64000,
,,,1.796204000000,  -2.66000,
,,,1.796208000000,  -2.64000,
,,,1.796212000000,  -2.64000,
,,,1.796216000000,  -2.64000,
,,,1.796220000000,  -2.64000,
,,,1.796224000000,  -2.64000,
,,,1.796228000000,  -2.64000,
,,,1.796232000000,  -2.64000,
,,,1.796236000000,  -2.64000,
,,,1.796240000000,  -2.62000,
,,,1.796244000000,  -2.64000,
,,,1.796248000000,  -2.62000,
,,,1.796252000000,  -2.62000,
,,,1.796256000000,  -2.64000,
,,,1.796260000000,  -2.62000,
,,,1.796264000000,  -2.62000,
,,,1.796268000000,  -2.62000,
,,,1.796272000000,  -2.62000,
,,,1.796276000000,  -2.62000,
,,,1.796280000000,  -2.60000,
,,,1.796284000000,  -2.62000,
,,,1.796288000000,  -2.60000,
,,,1.796292000000,  -2.60000,
