data-source/11-10-21/DL_L_shorted_quarter/F0020CH2.CSV

Record Length,2.500000e+03,,  -0.000000220400,   0.28000,
Sample Interval,4.000000e-10,,  -0.000000220000,   0.32000,
Trigger Point,5.510000000000e+02,,  -0.000000219600,   0.34000,
,,,  -0.000000219200,   0.38000,
,,,  -0.000000218800,   0.42000,
,,,  -0.000000218400,   0.44000,
Source,CH2,,  -0.000000218000,   0.48000,
Vertical Units,V,,  -0.000000217600,   0.50000,
Vertical Scale,5.000000e-01,,  -0.000000217200,   0.54000,
Vertical Offset,0.000000e+00,,  -0.000000216800,   0.58000,
Horizontal Units,s,,  -0.000000216400,   0.60000,
Horizontal Scale,1.000000e-07,,  -0.000000216000,   0.64000,
Pt Fmt,Y,,  -0.000000215600,   0.66000,
Yzero,0.000000e+00,,  -0.000000215200,   0.70000,
Probe Atten,1.000000e+00,,  -0.000000214800,   0.74000,
Model Number,TBS1104,,  -0.000000214400,   0.76000,
Serial Number,C014641,,  -0.000000214000,   0.80000,
Firmware Version,FV:v26.05,,  -0.000000213600,   0.82000,
,,,-00.000000213200,   0.86000,
,,,-00.000000212800,   0.90000,
,,,-00.000000212400,   0.92000,
,,,-00.000000212000,   0.94000,
,,,-00.000000211600,   0.96000,
,,,-00.000000211200,   1.00000,
,,,-00.000000210800,   1.04000,
,,,-00.000000210400,   1.06000,
,,,-00.000000210000,   1.08000,
,,,-00.000000209600,   1.10000,
,,,-00.000000209200,   1.12000,
,,,-00.000000208800,   1.16000,
,,,-00.000000208400,   1.18000,
,,,-00.000000208000,   1.22000,
,,,-00.000000207600,   1.24000,
,,,-00.000000207200,   1.26000,
,,,-00.000000206800,   1.28000,
,,,-00.000000206400,   1.30000,
,,,-00.000000206000,   1.32000,
,,,-00.000000205600,   1.34000,
,,,-00.000000205200,   1.36000,
,,,-00.000000204800,   1.40000,
,,,-00.000000204400,   1.40000,
,,,-00.000000204000,   1.42000,
,,,-00.000000203600,   1.44000,
,,,-00.000000203200,   1.46000,
,,,-00.000000202800,   1.50000,
,,,-00.000000202400,   1.50000,
,,,-00.000000202000,   1.52000,
,,,-00.000000201600,   1.54000,
,,,-00.000000201200,   1.56000,
,,,-00.000000200800,   1.60000,
,,,-00.000000200400,   1.62000,
,,,-00.000000200000,   1.62000,
,,,-00.000000199600,   1.64000,
,,,-00.000000199200,   1.64000,
,,,-00.000000198800,   1.64000,
,,,-00.000000198400,   1.64000,
,,,-00.000000198000,   1.66000,
,,,-00.000000197600,   1.68000,
,,,-00.000000197200,   1.70000,
,,,-00.000000196800,   1.72000,
,,,-00.000000196400,   1.72000,
,,,-00.000000196000,   1.72000,
,,,-00.000000195600,   1.72000,
,,,-00.000000195200,   1.72000,
,,,-00.000000194800,   1.74000,
,,,-00.000000194400,   1.74000,
,,,-00.000000194000,   1.76000,
,,,-00.000000193600,   1.78000,
,,,-00.000000193200,   1.78000,
,,,-00.000000192800,   1.78000,
,,,-00.000000192400,   1.78000,
,,,-00.000000192000,   1.78000,
,,,-00.000000191600,   1.78000,
,,,-00.000000191200,   1.78000,
,,,-00.000000190800,   1.78000,
,,,-00.000000190400,   1.76000,
,,,-00.000000190000,   1.76000,
,,,-00.000000189600,   1.76000,
,,,-00.000000189200,   1.76000,
,,,-00.000000188800,   1.78000,
,,,-00.000000188400,   1.76000,
,,,-00.000000188000,   1.76000,
,,,-00.000000187600,   1.76000,
,,,-00.000000187200,   1.74000,
,,,-00.000000186800,   1.76000,
,,,-00.000000186400,   1.76000,
,,,-00.000000186000,   1.76000,
,,,-00.000000185600,   1.78000,
,,,-00.000000185200,   1.76000,
,,,-00.000000184800,   1.76000,
,,,-00.000000184400,   1.74000,
,,,-00.000000184000,   1.72000,
,,,-00.000000183600,   1.70000,
,,,-00.000000183200,   1.68000,
,,,-00.000000182800,   1.68000,
,,,-00.000000182400,   1.68000,
,,,-00.000000182000,   1.68000,
,,,-00.000000181600,   1.66000,
,,,-00.000000181200,   1.64000,
,,,-00.000000180800,   1.62000,
,,,-00.000000180400,   1.60000,
,,,-00.000000180000,   1.58000,
,,,-00.000000179600,   1.56000,
,,,-00.000000179200,   1.54000,
,,,-00.000000178800,   1.54000,
,,,-00.000000178400,   1.52000,
,,,-00.000000178000,   1.50000,
,,,-00.000000177600,   1.48000,
,,,-00.000000177200,   1.46000,
,,,-00.000000176800,   1.44000,
,,,-00.000000176400,   1.40000,
,,,-00.000000176000,   1.38000,
,,,-00.000000175600,   1.36000,
,,,-00.000000175200,   1.34000,
,,,-00.000000174800,   1.32000,
,,,-00.000000174400,   1.28000,
,,,-00.000000174000,   1.26000,
,,,-00.000000173600,   1.24000,
,,,-00.000000173200,   1.22000,
,,,-00.000000172800,   1.20000,
,,,-00.000000172400,   1.16000,
,,,-00.000000172000,   1.14000,
,,,-00.000000171600,   1.12000,
,,,-00.000000171200,   1.10000,
,,,-00.000000170800,   1.08000,
,,,-00.000000170400,   1.04000,
,,,-00.000000170000,   1.00000,
,,,-00.000000169600,   0.98000,
,,,-00.000000169200,   0.94000,
,,,-00.000000168800,   0.92000,
,,,-00.000000168400,   0.88000,
,,,-00.000000168000,   0.86000,
,,,-00.000000167600,   0.84000,
,,,-00.000000167200,   0.80000,
,,,-00.000000166800,   0.78000,
,,,-00.000000166400,   0.74000,
,,,-00.000000166000,   0.70000,
,,,-00.000000165600,   0.68000,
,,,-00.000000165200,   0.66000,
,,,-00.000000164800,   0.64000,
,,,-00.000000164400,   0.60000,
,,,-00.000000164000,   0.58000,
,,,-00.000000163600,   0.54000,
,,,-00.000000163200,   0.50000,
,,,-00.000000162800,   0.46000,
,,,-00.000000162400,   0.42000,
,,,-00.000000162000,   0.38000,
,,,-00.000000161600,   0.36000,
,,,-00.000000161200,   0.32000,
,,,-00.000000160800,   0.30000,
,,,-00.000000160400,   0.26000,
,,,-00.000000160000,   0.24000,
,,,-00.000000159600,   0.22000,
,,,-00.000000159200,   0.18000,
,,,-00.000000158800,   0.14000,
,,,-00.000000158400,   0.10000,
,,,-00.000000158000,   0.06000,
,,,-00.000000157600,   0.04000,
,,,-00.000000157200,   0.00000,
,,,-00.000000156800,  -0.02000,
,,,-00.000000156400,  -0.08000,
,,,-00.000000156000,  -0.12000,
,,,-00.000000155600,  -0.16000,
,,,-00.000000155200,  -0.22000,
,,,-00.000000154800,  -0.24000,
,,,-00.000000154400,  -0.28000,
,,,-00.000000154000,  -0.30000,
,,,-00.000000153600,  -0.32000,
,,,-00.000000153200,  -0.34000,
,,,-00.000000152800,  -0.36000,
,,,-00.000000152400,  -0.40000,
,,,-00.000000152000,  -0.42000,
,,,-00.000000151600,  -0.46000,
,,,-00.000000151200,  -0.50000,
,,,-00.000000150800,  -0.54000,
,,,-00.000000150400,  -0.58000,
,,,-00.000000150000,  -0.62000,
,,,-00.000000149600,  -0.64000,
,,,-00.000000149200,  -0.68000,
,,,-00.000000148800,  -0.72000,
,,,-00.000000148400,  -0.76000,
,,,-00.000000148000,  -0.80000,
,,,-00.000000147600,  -0.82000,
,,,-00.000000147200,  -0.84000,
,,,-00.000000146800,  -0.86000,
,,,-00.000000146400,  -0.90000,
,,,-00.000000146000,  -0.92000,
,,,-00.000000145600,  -0.94000,
,,,-00.000000145200,  -0.96000,
,,,-00.000000144800,  -0.96000,
,,,-00.000000144400,  -0.98000,
,,,-00.000000144000,  -1.02000,
,,,-00.000000143600,  -1.04000,
,,,-00.000000143200,  -1.08000,
,,,-00.000000142800,  -1.10000,
,,,-00.000000142400,  -1.14000,
,,,-00.000000142000,  -1.18000,
,,,-00.000000141600,  -1.20000,
,,,-00.000000141200,  -1.22000,
,,,-00.000000140800,  -1.24000,
,,,-00.000000140400,  -1.28000,
,,,-00.000000140000,  -1.30000,
,,,-00.000000139600,  -1.32000,
,,,-00.000000139200,  -1.34000,
,,,-00.000000138800,  -1.36000,
,,,-00.000000138400,  -1.38000,
,,,-00.000000138000,  -1.40000,
,,,-00.000000137600,  -1.42000,
,,,-00.000000137200,  -1.44000,
,,,-00.000000136800,  -1.46000,
,,,-00.000000136400,  -1.50000,
,,,-00.000000136000,  -1.52000,
,,,-00.000000135600,  -1.54000,
,,,-00.000000135200,  -1.56000,
,,,-00.000000134800,  -1.56000,
,,,-00.000000134400,  -1.58000,
,,,-00.000000134000,  -1.60000,
,,,-00.000000133600,  -1.62000,
,,,-00.000000133200,  -1.62000,
,,,-00.000000132800,  -1.62000,
,,,-00.000000132400,  -1.64000,
,,,-00.000000132000,  -1.66000,
,,,-00.000000131600,  -1.68000,
,,,-00.000000131200,  -1.70000,
,,,-00.000000130800,  -1.70000,
,,,-00.000000130400,  -1.72000,
,,,-00.000000130000,  -1.74000,
,,,-00.000000129600,  -1.76000,
,,,-00.000000129200,  -1.76000,
,,,-00.000000128800,  -1.76000,
,,,-00.000000128400,  -1.76000,
,,,-00.000000128000,  -1.76000,
,,,-00.000000127600,  -1.78000,
,,,-00.000000127200,  -1.78000,
,,,-00.000000126800,  -1.78000,
,,,-00.000000126400,  -1.80000,
,,,-00.000000126000,  -1.80000,
,,,-00.000000125600,  -1.80000,
,,,-00.000000125200,  -1.80000,
,,,-00.000000124800,  -1.78000,
,,,-00.000000124400,  -1.80000,
,,,-00.000000124000,  -1.80000,
,,,-00.000000123600,  -1.80000,
,,,-00.000000123200,  -1.80000,
,,,-00.000000122800,  -1.78000,
,,,-00.000000122400,  -1.78000,
,,,-00.000000122000,  -1.78000,
,,,-00.000000121600,  -1.78000,
,,,-00.000000121200,  -1.78000,
,,,-00.000000120800,  -1.78000,
,,,-00.000000120400,  -1.78000,
,,,-00.000000120000,  -1.78000,
,,,-00.000000119600,  -1.78000,
,,,-00.000000119200,  -1.78000,
,,,-00.000000118800,  -1.76000,
,,,-00.000000118400,  -1.76000,
,,,-00.000000118000,  -1.74000,
,,,-00.000000117600,  -1.72000,
,,,-00.000000117200,  -1.72000,
,,,-00.000000116800,  -1.72000,
,,,-00.000000116400,  -1.70000,
,,,-00.000000116000,  -1.68000,
,,,-00.000000115600,  -1.66000,
,,,-00.000000115200,  -1.64000,
,,,-00.000000114800,  -1.62000,
,,,-00.000000114400,  -1.62000,
,,,-00.000000114000,  -1.62000,
,,,-00.000000113600,  -1.60000,
,,,-00.000000113200,  -1.58000,
,,,-00.000000112800,  -1.54000,
,,,-00.000000112400,  -1.54000,
,,,-00.000000112000,  -1.52000,
,,,-00.000000111600,  -1.50000,
,,,-00.000000111200,  -1.48000,
,,,-00.000000110800,  -1.46000,
,,,-00.000000110400,  -1.46000,
,,,-00.000000110000,  -1.44000,
,,,-00.000000109600,  -1.42000,
,,,-00.000000109200,  -1.40000,
,,,-00.000000108800,  -1.36000,
,,,-00.000000108400,  -1.36000,
,,,-00.000000108000,  -1.34000,
,,,-00.000000107600,  -1.32000,
,,,-00.000000107200,  -1.30000,
,,,-00.000000106800,  -1.26000,
,,,-00.000000106400,  -1.24000,
,,,-00.000000106000,  -1.20000,
,,,-00.000000105600,  -1.18000,
,,,-00.000000105200,  -1.16000,
,,,-00.000000104800,  -1.12000,
,,,-00.000000104400,  -1.10000,
,,,-00.000000104000,  -1.08000,
,,,-00.000000103600,  -1.06000,
,,,-00.000000103200,  -1.04000,
,,,-00.000000102800,  -1.02000,
,,,-00.000000102400,  -1.00000,
,,,-00.000000102000,  -0.96000,
,,,-00.000000101600,  -0.94000,
,,,-00.000000101200,  -0.90000,
,,,-00.000000100800,  -0.86000,
,,,-00.000000100400,  -0.84000,
,,,-00.000000100000,  -0.82000,
,,,-00.000000099600,  -0.80000,
,,,-00.000000099200,  -0.76000,
,,,-00.000000098800,  -0.72000,
,,,-00.000000098400,  -0.68000,
,,,-00.000000098000,  -0.64000,
,,,-00.000000097600,  -0.60000,
,,,-00.000000097200,  -0.58000,
,,,-00.000000096800,  -0.54000,
,,,-00.000000096400,  -0.52000,
,,,-00.000000096000,  -0.50000,
,,,-00.000000095600,  -0.46000,
,,,-00.000000095200,  -0.42000,
,,,-00.000000094800,  -0.38000,
,,,-00.000000094400,  -0.34000,
,,,-00.000000094000,  -0.30000,
,,,-00.000000093600,  -0.28000,
,,,-00.000000093200,  -0.26000,
,,,-00.000000092800,  -0.22000,
,,,-00.000000092400,  -0.18000,
,,,-00.000000092000,  -0.14000,
,,,-00.000000091600,  -0.10000,
,,,-00.000000091200,  -0.08000,
,,,-00.000000090800,  -0.04000,
,,,-00.000000090400,  -0.02000,
,,,-00.000000090000,   0.00000,
,,,-00.000000089600,   0.04000,
,,,-00.000000089200,   0.08000,
,,,-00.000000088800,   0.12000,
,,,-00.000000088400,   0.14000,
,,,-00.000000088000,   0.18000,
,,,-00.000000087600,   0.22000,
,,,-00.000000087200,   0.26000,
,,,-00.000000086800,   0.30000,
,,,-00.000000086400,   0.32000,
,,,-00.000000086000,   0.36000,
,,,-00.000000085600,   0.38000,
,,,-00.000000085200,   0.42000,
,,,-00.000000084800,   0.46000,
,,,-00.000000084400,   0.48000,
,,,-00.000000084000,   0.52000,
,,,-00.000000083600,   0.54000,
,,,-00.000000083200,   0.58000,
,,,-00.000000082800,   0.62000,
,,,-00.000000082400,   0.64000,
,,,-00.000000082000,   0.68000,
,,,-00.000000081600,   0.70000,
,,,-00.000000081200,   0.74000,
,,,-00.000000080800,   0.78000,
,,,-00.000000080400,   0.80000,
,,,-00.000000080000,   0.84000,
,,,-00.000000079600,   0.86000,
,,,-00.000000079200,   0.90000,
,,,-00.000000078800,   0.94000,
,,,-00.000000078400,   0.96000,
,,,-00.000000078000,   0.98000,
,,,-00.000000077600,   1.00000,
,,,-00.000000077200,   1.04000,
,,,-00.000000076800,   1.08000,
,,,-00.000000076400,   1.08000,
,,,-00.000000076000,   1.10000,
,,,-00.000000075600,   1.12000,
,,,-00.000000075200,   1.14000,
,,,-00.000000074800,   1.18000,
,,,-00.000000074400,   1.20000,
,,,-00.000000074000,   1.22000,
,,,-00.000000073600,   1.24000,
,,,-00.000000073200,   1.28000,
,,,-00.000000072800,   1.32000,
,,,-00.000000072400,   1.32000,
,,,-00.000000072000,   1.34000,
,,,-00.000000071600,   1.36000,
,,,-00.000000071200,   1.38000,
,,,-00.000000070800,   1.42000,
,,,-00.000000070400,   1.44000,
,,,-00.000000070000,   1.46000,
,,,-00.000000069600,   1.48000,
,,,-00.000000069200,   1.50000,
,,,-00.000000068800,   1.52000,
,,,-00.000000068400,   1.52000,
,,,-00.000000068000,   1.54000,
,,,-00.000000067600,   1.56000,
,,,-00.000000067200,   1.58000,
,,,-00.000000066800,   1.60000,
,,,-00.000000066400,   1.60000,
,,,-00.000000066000,   1.62000,
,,,-00.000000065600,   1.64000,
,,,-00.000000065200,   1.64000,
,,,-00.000000064800,   1.66000,
,,,-00.000000064400,   1.66000,
,,,-00.000000064000,   1.66000,
,,,-00.000000063600,   1.68000,
,,,-00.000000063200,   1.66000,
,,,-00.000000062800,   1.68000,
,,,-00.000000062400,   1.70000,
,,,-00.000000062000,   1.72000,
,,,-00.000000061600,   1.74000,
,,,-00.000000061200,   1.74000,
,,,-00.000000060800,   1.76000,
,,,-00.000000060400,   1.76000,
,,,-00.000000060000,   1.76000,
,,,-00.000000059600,   1.78000,
,,,-00.000000059200,   1.78000,
,,,-00.000000058800,   1.80000,
,,,-00.000000058400,   1.80000,
,,,-00.000000058000,   1.80000,
,,,-00.000000057600,   1.78000,
,,,-00.000000057200,   1.78000,
,,,-00.000000056800,   1.78000,
,,,-00.000000056400,   1.78000,
,,,-00.000000056000,   1.78000,
,,,-00.000000055600,   1.78000,
,,,-00.000000055200,   1.78000,
,,,-00.000000054800,   1.78000,
,,,-00.000000054400,   1.76000,
,,,-00.000000054000,   1.74000,
,,,-00.000000053600,   1.74000,
,,,-00.000000053200,   1.74000,
,,,-00.000000052800,   1.74000,
,,,-00.000000052400,   1.74000,
,,,-00.000000052000,   1.74000,
,,,-00.000000051600,   1.74000,
,,,-00.000000051200,   1.72000,
,,,-00.000000050800,   1.72000,
,,,-00.000000050400,   1.70000,
,,,-00.000000050000,   1.68000,
,,,-00.000000049600,   1.66000,
,,,-00.000000049200,   1.66000,
,,,-00.000000048800,   1.66000,
,,,-00.000000048400,   1.64000,
,,,-00.000000048000,   1.64000,
,,,-00.000000047600,   1.62000,
,,,-00.000000047200,   1.62000,
,,,-00.000000046800,   1.60000,
,,,-00.000000046400,   1.56000,
,,,-00.000000046000,   1.54000,
,,,-00.000000045600,   1.52000,
,,,-00.000000045200,   1.52000,
,,,-00.000000044800,   1.52000,
,,,-00.000000044400,   1.48000,
,,,-00.000000044000,   1.46000,
,,,-00.000000043600,   1.44000,
,,,-00.000000043200,   1.42000,
,,,-00.000000042800,   1.42000,
,,,-00.000000042400,   1.40000,
,,,-00.000000042000,   1.36000,
,,,-00.000000041600,   1.34000,
,,,-00.000000041200,   1.30000,
,,,-00.000000040800,   1.28000,
,,,-00.000000040400,   1.26000,
,,,-00.000000040000,   1.24000,
,,,-00.000000039600,   1.22000,
,,,-00.000000039200,   1.20000,
,,,-00.000000038800,   1.18000,
,,,-00.000000038400,   1.14000,
,,,-00.000000038000,   1.12000,
,,,-00.000000037600,   1.10000,
,,,-00.000000037200,   1.08000,
,,,-00.000000036800,   1.06000,
,,,-00.000000036400,   1.02000,
,,,-00.000000036000,   0.98000,
,,,-00.000000035600,   0.96000,
,,,-00.000000035200,   0.92000,
,,,-00.000000034800,   0.90000,
,,,-00.000000034400,   0.86000,
,,,-00.000000034000,   0.82000,
,,,-00.000000033600,   0.80000,
,,,-00.000000033200,   0.78000,
,,,-00.000000032800,   0.76000,
,,,-00.000000032400,   0.72000,
,,,-00.000000032000,   0.68000,
,,,-00.000000031600,   0.64000,
,,,-00.000000031200,   0.60000,
,,,-00.000000030800,   0.58000,
,,,-00.000000030400,   0.54000,
,,,-00.000000030000,   0.52000,
,,,-00.000000029600,   0.50000,
,,,-00.000000029200,   0.46000,
,,,-00.000000028800,   0.44000,
,,,-00.000000028400,   0.40000,
,,,-00.000000028000,   0.36000,
,,,-00.000000027600,   0.34000,
,,,-00.000000027200,   0.32000,
,,,-00.000000026800,   0.30000,
,,,-00.000000026400,   0.26000,
,,,-00.000000026000,   0.22000,
,,,-00.000000025600,   0.18000,
,,,-00.000000025200,   0.14000,
,,,-00.000000024800,   0.12000,
,,,-00.000000024400,   0.08000,
,,,-00.000000024000,   0.04000,
,,,-00.000000023600,   0.00000,
,,,-00.000000023200,  -0.04000,
,,,-00.000000022800,  -0.06000,
,,,-00.000000022400,  -0.10000,
,,,-00.000000022000,  -0.14000,
,,,-00.000000021600,  -0.18000,
,,,-00.000000021200,  -0.22000,
,,,-00.000000020800,  -0.24000,
,,,-00.000000020400,  -0.28000,
,,,-00.000000020000,  -0.32000,
,,,-00.000000019600,  -0.34000,
,,,-00.000000019200,  -0.38000,
,,,-00.000000018800,  -0.40000,
,,,-00.000000018400,  -0.44000,
,,,-00.000000018000,  -0.46000,
,,,-00.000000017600,  -0.48000,
,,,-00.000000017200,  -0.52000,
,,,-00.000000016800,  -0.56000,
,,,-00.000000016400,  -0.60000,
,,,-00.000000016000,  -0.64000,
,,,-00.000000015600,  -0.68000,
,,,-00.000000015200,  -0.70000,
,,,-00.000000014800,  -0.72000,
,,,-00.000000014400,  -0.76000,
,,,-00.000000014000,  -0.78000,
,,,-00.000000013600,  -0.80000,
,,,-00.000000013200,  -0.84000,
,,,-00.000000012800,  -0.86000,
,,,-00.000000012400,  -0.90000,
,,,-00.000000012000,  -0.92000,
,,,-00.000000011600,  -0.94000,
,,,-00.000000011200,  -0.96000,
,,,-00.000000010800,  -0.98000,
,,,-00.000000010400,  -1.02000,
,,,-00.000000010000,  -1.06000,
,,,-00.000000009600,  -1.08000,
,,,-00.000000009200,  -1.10000,
,,,-00.000000008800,  -1.12000,
,,,-00.000000008400,  -1.16000,
,,,-00.000000008000,  -1.20000,
,,,-00.000000007600,  -1.22000,
,,,-00.000000007200,  -1.24000,
,,,-00.000000006800,  -1.26000,
,,,-00.000000006400,  -1.30000,
,,,-00.000000006000,  -1.34000,
,,,-00.000000005600,  -1.36000,
,,,-00.000000005200,  -1.38000,
,,,-00.000000004800,  -1.38000,
,,,-00.000000004400,  -1.42000,
,,,-00.000000004000,  -1.44000,
,,,-00.000000003600,  -1.46000,
,,,-00.000000003200,  -1.48000,
,,,-00.000000002800,  -1.50000,
,,,-00.000000002400,  -1.52000,
,,,-00.000000002000,  -1.54000,
,,,-00.000000001600,  -1.56000,
,,,-00.000000001200,  -1.56000,
,,,-00.000000000800,  -1.58000,
,,,-00.000000000400,  -1.62000,
,,,-00.000000000000,  -1.64000,
,,,00.000000000400,  -1.66000,
,,,00.000000000800,  -1.68000,
,,,00.000000001200,  -1.68000,
,,,00.000000001600,  -1.68000,
,,,00.000000002000,  -1.68000,
,,,00.000000002400,  -1.70000,
,,,00.000000002800,  -1.72000,
,,,00.000000003200,  -1.72000,
,,,00.000000003600,  -1.74000,
,,,00.000000004000,  -1.74000,
,,,00.000000004400,  -1.76000,
,,,00.000000004800,  -1.76000,
,,,00.000000005200,  -1.76000,
,,,00.000000005600,  -1.76000,
,,,00.000000006000,  -1.76000,
,,,00.000000006400,  -1.78000,
,,,00.000000006800,  -1.78000,
,,,00.000000007200,  -1.78000,
,,,00.000000007600,  -1.80000,
,,,00.000000008000,  -1.80000,
,,,00.000000008400,  -1.80000,
,,,00.000000008800,  -1.82000,
,,,00.000000009200,  -1.80000,
,,,00.000000009600,  -1.80000,
,,,00.000000010000,  -1.80000,
,,,00.000000010400,  -1.78000,
,,,00.000000010800,  -1.78000,
,,,00.000000011200,  -1.78000,
,,,00.000000011600,  -1.78000,
,,,00.000000012000,  -1.78000,
,,,00.000000012400,  -1.76000,
,,,00.000000012800,  -1.76000,
,,,00.000000013200,  -1.76000,
,,,00.000000013600,  -1.76000,
,,,00.000000014000,  -1.76000,
,,,00.000000014400,  -1.74000,
,,,00.000000014800,  -1.74000,
,,,00.000000015200,  -1.74000,
,,,00.000000015600,  -1.76000,
,,,00.000000016000,  -1.74000,
,,,00.000000016400,  -1.74000,
,,,00.000000016800,  -1.72000,
,,,00.000000017200,  -1.70000,
,,,00.000000017600,  -1.68000,
,,,00.000000018000,  -1.66000,
,,,00.000000018400,  -1.64000,
,,,00.000000018800,  -1.64000,
,,,00.000000019200,  -1.64000,
,,,00.000000019600,  -1.64000,
,,,00.000000020000,  -1.62000,
,,,00.000000020400,  -1.60000,
,,,00.000000020800,  -1.56000,
,,,00.000000021200,  -1.54000,
,,,00.000000021600,  -1.54000,
,,,00.000000022000,  -1.54000,
,,,00.000000022400,  -1.52000,
,,,00.000000022800,  -1.50000,
,,,00.000000023200,  -1.48000,
,,,00.000000023600,  -1.48000,
,,,00.000000024000,  -1.46000,
,,,00.000000024400,  -1.44000,
,,,00.000000024800,  -1.42000,
,,,00.000000025200,  -1.38000,
,,,00.000000025600,  -1.36000,
