data-source/28-10-21/ALL0006/F0006CH4.CSV

Record Length,2.500000e+03,,   0.049950000000, -13.40000,
Sample Interval,4.000000e-08,,   0.049950040000, -13.40000,
Trigger Point,-1.248750000000e+06,,   0.049950080000, -13.40000,
,,,   0.049950120000, -13.60000,
,,,   0.049950160000, -13.40000,
,,,   0.049950200000, -13.40000,
Source,CH4,,   0.049950240000, -13.80000,
Vertical Units,V,,   0.049950280000, -13.40000,
Vertical Scale,5.000000e+00,,   0.049950320000, -13.80000,
Vertical Offset,0.000000e+00,,   0.049950360000, -13.60000,
Horizontal Units,s,,   0.049950400000, -13.60000,
Horizontal Scale,1.000000e-05,,   0.049950440000, -13.40000,
Pt Fmt,Y,,   0.049950480000, -13.80000,
Yzero,0.000000e+00,,   0.049950520000, -13.60000,
Probe Atten,1.000000e+01,,   0.049950560000, -13.40000,
Model Number,TBS1104,,   0.049950600000, -13.60000,
Serial Number,C014641,,   0.049950640000, -13.40000,
Firmware Version,FV:v26.05,,   0.049950680000, -13.40000,
,,,0.049950720000, -13.40000,
,,,0.049950760000, -13.40000,
,,,0.049950800000, -13.60000,
,,,0.049950840000, -13.60000,
,,,0.049950880000, -13.40000,
,,,0.049950920000, -13.60000,
,,,0.049950960000, -13.60000,
,,,0.049951000000, -13.60000,
,,,0.049951040000, -13.40000,
,,,0.049951080000, -13.40000,
,,,0.049951120000, -13.60000,
,,,0.049951160000, -13.60000,
,,,0.049951200000, -13.40000,
,,,0.049951240000, -13.60000,
,,,0.049951280000, -13.60000,
,,,0.049951320000, -13.20000,
,,,0.049951360000, -13.60000,
,,,0.049951400000, -13.40000,
,,,0.049951440000, -13.60000,
,,,0.049951480000, -13.20000,
,,,0.049951520000, -13.20000,
,,,0.049951560000, -13.40000,
,,,0.049951600000, -13.60000,
,,,0.049951640000, -13.60000,
,,,0.049951680000, -13.40000,
,,,0.049951720000, -13.60000,
,,,0.049951760000, -13.60000,
,,,0.049951800000, -13.60000,
,,,0.049951840000, -13.80000,
,,,0.049951880000, -13.60000,
,,,0.049951920000, -13.40000,
,,,0.049951960000, -13.00000,
,,,0.049952000000, -13.40000,
,,,0.049952040000, -13.60000,
,,,0.049952080000, -13.20000,
,,,0.049952120000, -13.80000,
,,,0.049952160000, -13.40000,
,,,0.049952200000, -13.60000,
,,,0.049952240000, -13.60000,
,,,0.049952280000, -13.60000,
,,,0.049952320000, -13.40000,
,,,0.049952360000, -13.40000,
,,,0.049952400000, -13.40000,
,,,0.049952440000, -13.40000,
,,,0.049952480000, -13.40000,
,,,0.049952520000, -13.60000,
,,,0.049952560000, -13.40000,
,,,0.049952600000, -13.40000,
,,,0.049952640000, -13.60000,
,,,0.049952680000, -13.60000,
,,,0.049952720000, -13.20000,
,,,0.049952760000, -13.40000,
,,,0.049952800000, -13.40000,
,,,0.049952840000, -13.60000,
,,,0.049952880000, -13.40000,
,,,0.049952920000, -13.60000,
,,,0.049952960000, -13.40000,
,,,0.049953000000, -13.40000,
,,,0.049953040000, -13.40000,
,,,0.049953080000, -13.60000,
,,,0.049953120000, -13.60000,
,,,0.049953160000, -13.40000,
,,,0.049953200000, -13.20000,
,,,0.049953240000, -13.40000,
,,,0.049953280000, -13.80000,
,,,0.049953320000, -13.40000,
,,,0.049953360000, -13.40000,
,,,0.049953400000, -13.60000,
,,,0.049953440000, -13.60000,
,,,0.049953480000, -13.40000,
,,,0.049953520000, -13.80000,
,,,0.049953560000, -13.40000,
,,,0.049953600000, -13.60000,
,,,0.049953640000, -13.80000,
,,,0.049953680000, -13.40000,
,,,0.049953720000, -13.60000,
,,,0.049953760000, -13.60000,
,,,0.049953800000, -13.60000,
,,,0.049953840000, -13.40000,
,,,0.049953880000, -13.60000,
,,,0.049953920000, -13.80000,
,,,0.049953960000, -13.60000,
,,,0.049954000000, -13.60000,
,,,0.049954040000, -13.60000,
,,,0.049954080000, -13.40000,
,,,0.049954120000, -13.60000,
,,,0.049954160000, -13.20000,
,,,0.049954200000, -13.80000,
,,,0.049954240000, -13.40000,
,,,0.049954280000, -13.60000,
,,,0.049954320000, -13.40000,
,,,0.049954360000, -13.80000,
,,,0.049954400000, -13.40000,
,,,0.049954440000, -13.60000,
,,,0.049954480000, -13.60000,
,,,0.049954520000, -13.40000,
,,,0.049954560000, -13.40000,
,,,0.049954600000, -13.40000,
,,,0.049954640000, -13.40000,
,,,0.049954680000, -13.80000,
,,,0.049954720000, -13.40000,
,,,0.049954760000, -13.60000,
,,,0.049954800000, -13.40000,
,,,0.049954840000, -13.40000,
,,,0.049954880000, -13.20000,
,,,0.049954920000, -13.40000,
,,,0.049954960000, -13.80000,
,,,0.049955000000, -13.40000,
,,,0.049955040000, -13.60000,
,,,0.049955080000, -13.60000,
,,,0.049955120000, -13.40000,
,,,0.049955160000, -13.40000,
,,,0.049955200000, -13.40000,
,,,0.049955240000, -13.60000,
,,,0.049955280000, -13.40000,
,,,0.049955320000, -13.40000,
,,,0.049955360000, -13.40000,
,,,0.049955400000, -13.60000,
,,,0.049955440000, -13.20000,
,,,0.049955480000, -13.60000,
,,,0.049955520000, -13.20000,
,,,0.049955560000, -13.60000,
,,,0.049955600000, -13.60000,
,,,0.049955640000, -13.60000,
,,,0.049955680000, -13.40000,
,,,0.049955720000, -13.60000,
,,,0.049955760000, -13.40000,
,,,0.049955800000, -13.80000,
,,,0.049955840000, -13.40000,
,,,0.049955880000, -13.40000,
,,,0.049955920000, -13.20000,
,,,0.049955960000, -13.20000,
,,,0.049956000000, -13.60000,
,,,0.049956040000, -13.60000,
,,,0.049956080000, -13.80000,
,,,0.049956120000, -13.40000,
,,,0.049956160000, -13.60000,
,,,0.049956200000, -13.60000,
,,,0.049956240000, -13.60000,
,,,0.049956280000, -13.60000,
,,,0.049956320000, -13.60000,
,,,0.049956360000, -13.80000,
,,,0.049956400000, -13.40000,
,,,0.049956440000, -13.40000,
,,,0.049956480000, -13.60000,
,,,0.049956520000, -13.40000,
,,,0.049956560000, -13.80000,
,,,0.049956600000, -13.60000,
,,,0.049956640000, -13.60000,
,,,0.049956680000, -13.20000,
,,,0.049956720000, -13.40000,
,,,0.049956760000, -13.40000,
,,,0.049956800000, -13.60000,
,,,0.049956840000, -13.60000,
,,,0.049956880000, -13.80000,
,,,0.049956920000, -13.60000,
,,,0.049956960000, -13.60000,
,,,0.049957000000, -13.40000,
,,,0.049957040000, -13.80000,
,,,0.049957080000, -13.20000,
,,,0.049957120000, -13.60000,
,,,0.049957160000, -13.40000,
,,,0.049957200000, -13.60000,
,,,0.049957240000, -13.40000,
,,,0.049957280000, -13.60000,
,,,0.049957320000, -13.60000,
,,,0.049957360000, -13.60000,
,,,0.049957400000, -13.60000,
,,,0.049957440000, -13.60000,
,,,0.049957480000, -13.60000,
,,,0.049957520000, -13.60000,
,,,0.049957560000, -13.80000,
,,,0.049957600000, -13.40000,
,,,0.049957640000, -13.40000,
,,,0.049957680000, -13.60000,
,,,0.049957720000, -13.60000,
,,,0.049957760000, -13.60000,
,,,0.049957800000, -13.40000,
,,,0.049957840000, -13.40000,
,,,0.049957880000, -13.40000,
,,,0.049957920000, -13.40000,
,,,0.049957960000, -13.60000,
,,,0.049958000000, -13.60000,
,,,0.049958040000, -13.40000,
,,,0.049958080000, -13.80000,
,,,0.049958120000, -13.20000,
,,,0.049958160000, -13.60000,
,,,0.049958200000, -13.60000,
,,,0.049958240000, -13.40000,
,,,0.049958280000, -13.60000,
,,,0.049958320000, -13.80000,
,,,0.049958360000, -13.40000,
,,,0.049958400000, -13.60000,
,,,0.049958440000, -13.80000,
,,,0.049958480000, -13.40000,
,,,0.049958520000, -13.40000,
,,,0.049958560000, -13.40000,
,,,0.049958600000, -13.60000,
,,,0.049958640000, -13.40000,
,,,0.049958680000, -13.40000,
,,,0.049958720000, -13.60000,
,,,0.049958760000, -13.60000,
,,,0.049958800000, -13.60000,
,,,0.049958840000, -13.40000,
,,,0.049958880000, -13.40000,
,,,0.049958920000, -13.40000,
,,,0.049958960000, -13.40000,
,,,0.049959000000, -13.60000,
,,,0.049959040000, -13.80000,
,,,0.049959080000, -13.40000,
,,,0.049959120000, -13.80000,
,,,0.049959160000, -13.60000,
,,,0.049959200000, -13.60000,
,,,0.049959240000, -13.40000,
,,,0.049959280000, -13.60000,
,,,0.049959320000, -13.60000,
,,,0.049959360000, -13.60000,
,,,0.049959400000, -13.40000,
,,,0.049959440000, -13.80000,
,,,0.049959480000, -13.40000,
,,,0.049959520000, -13.60000,
,,,0.049959560000, -13.40000,
,,,0.049959600000, -13.60000,
,,,0.049959640000, -13.60000,
,,,0.049959680000, -13.60000,
,,,0.049959720000, -13.60000,
,,,0.049959760000, -13.80000,
,,,0.049959800000, -13.60000,
,,,0.049959840000, -13.60000,
,,,0.049959880000, -13.40000,
,,,0.049959920000, -13.20000,
,,,0.049959960000, -13.60000,
,,,0.049960000000, -13.40000,
,,,0.049960040000, -13.60000,
,,,0.049960080000, -13.60000,
,,,0.049960120000, -13.80000,
,,,0.049960160000, -13.60000,
,,,0.049960200000, -13.60000,
,,,0.049960240000, -13.40000,
,,,0.049960280000, -13.40000,
,,,0.049960320000, -13.60000,
,,,0.049960360000, -13.80000,
,,,0.049960400000, -13.60000,
,,,0.049960440000, -13.60000,
,,,0.049960480000, -13.40000,
,,,0.049960520000, -13.40000,
,,,0.049960560000, -13.60000,
,,,0.049960600000, -13.60000,
,,,0.049960640000, -13.20000,
,,,0.049960680000, -13.20000,
,,,0.049960720000, -13.20000,
,,,0.049960760000, -13.60000,
,,,0.049960800000, -13.60000,
,,,0.049960840000, -13.40000,
,,,0.049960880000, -13.40000,
,,,0.049960920000, -13.40000,
,,,0.049960960000, -13.20000,
,,,0.049961000000, -13.80000,
,,,0.049961040000, -13.20000,
,,,0.049961080000, -13.40000,
,,,0.049961120000, -13.40000,
,,,0.049961160000, -13.40000,
,,,0.049961200000, -13.60000,
,,,0.049961240000, -13.60000,
,,,0.049961280000, -13.40000,
,,,0.049961320000, -13.40000,
,,,0.049961360000, -13.40000,
,,,0.049961400000, -13.40000,
,,,0.049961440000, -13.60000,
,,,0.049961480000, -13.60000,
,,,0.049961520000, -13.60000,
,,,0.049961560000, -13.80000,
,,,0.049961600000, -13.60000,
,,,0.049961640000, -13.40000,
,,,0.049961680000, -13.60000,
,,,0.049961720000, -13.60000,
,,,0.049961760000, -13.60000,
,,,0.049961800000, -13.40000,
,,,0.049961840000, -13.60000,
,,,0.049961880000, -13.80000,
,,,0.049961920000, -13.60000,
,,,0.049961960000, -13.60000,
,,,0.049962000000, -13.60000,
,,,0.049962040000, -13.60000,
,,,0.049962080000, -13.40000,
,,,0.049962120000, -13.60000,
,,,0.049962160000, -13.60000,
,,,0.049962200000, -13.60000,
,,,0.049962240000, -13.80000,
,,,0.049962280000, -13.60000,
,,,0.049962320000, -13.40000,
,,,0.049962360000, -13.80000,
,,,0.049962400000, -13.60000,
,,,0.049962440000, -13.40000,
,,,0.049962480000, -13.40000,
,,,0.049962520000, -13.40000,
,,,0.049962560000, -13.60000,
,,,0.049962600000, -13.60000,
,,,0.049962640000, -13.40000,
,,,0.049962680000, -13.60000,
,,,0.049962720000, -13.80000,
,,,0.049962760000, -13.60000,
,,,0.049962800000, -13.40000,
,,,0.049962840000, -13.60000,
,,,0.049962880000, -13.80000,
,,,0.049962920000, -13.60000,
,,,0.049962960000, -13.80000,
,,,0.049963000000, -13.40000,
,,,0.049963040000, -13.60000,
,,,0.049963080000, -13.60000,
,,,0.049963120000, -13.40000,
,,,0.049963160000, -13.60000,
,,,0.049963200000, -13.60000,
,,,0.049963240000, -13.40000,
,,,0.049963280000, -13.40000,
,,,0.049963320000, -13.40000,
,,,0.049963360000, -13.40000,
,,,0.049963400000, -13.20000,
,,,0.049963440000, -13.60000,
,,,0.049963480000, -13.40000,
,,,0.049963520000, -13.60000,
,,,0.049963560000, -13.40000,
,,,0.049963600000, -13.60000,
,,,0.049963640000, -13.60000,
,,,0.049963680000, -13.40000,
,,,0.049963720000, -13.80000,
,,,0.049963760000, -13.60000,
,,,0.049963800000, -13.60000,
,,,0.049963840000, -13.20000,
,,,0.049963880000, -13.40000,
,,,0.049963920000, -13.80000,
,,,0.049963960000, -13.40000,
,,,0.049964000000, -13.80000,
,,,0.049964040000, -13.40000,
,,,0.049964080000, -13.60000,
,,,0.049964120000, -13.60000,
,,,0.049964160000, -13.40000,
,,,0.049964200000, -13.40000,
,,,0.049964240000, -13.40000,
,,,0.049964280000, -13.40000,
,,,0.049964320000, -13.60000,
,,,0.049964360000, -13.40000,
,,,0.049964400000, -13.60000,
,,,0.049964440000, -13.40000,
,,,0.049964480000, -13.20000,
,,,0.049964520000, -13.40000,
,,,0.049964560000, -13.20000,
,,,0.049964600000, -13.00000,
,,,0.049964640000, -13.20000,
,,,0.049964680000, -13.00000,
,,,0.049964720000, -13.20000,
,,,0.049964760000, -13.20000,
,,,0.049964800000, -13.00000,
,,,0.049964840000, -13.20000,
,,,0.049964880000, -13.00000,
,,,0.049964920000, -13.00000,
,,,0.049964960000, -13.20000,
,,,0.049965000000, -12.80000,
,,,0.049965040000, -13.00000,
,,,0.049965080000, -12.60000,
,,,0.049965120000, -12.80000,
,,,0.049965160000, -13.00000,
,,,0.049965200000, -12.80000,
,,,0.049965240000, -13.00000,
,,,0.049965280000, -12.80000,
,,,0.049965320000, -12.60000,
,,,0.049965360000, -12.60000,
,,,0.049965400000, -12.80000,
,,,0.049965440000, -12.80000,
,,,0.049965480000, -12.60000,
,,,0.049965520000, -13.00000,
,,,0.049965560000, -12.60000,
,,,0.049965600000, -12.60000,
,,,0.049965640000, -12.80000,
,,,0.049965680000, -12.40000,
,,,0.049965720000, -12.60000,
,,,0.049965760000, -12.40000,
,,,0.049965800000, -12.40000,
,,,0.049965840000, -12.20000,
,,,0.049965880000, -12.40000,
,,,0.049965920000, -12.40000,
,,,0.049965960000, -12.40000,
,,,0.049966000000, -12.20000,
,,,0.049966040000, -12.00000,
,,,0.049966080000, -12.20000,
,,,0.049966120000, -12.00000,
,,,0.049966160000, -12.20000,
,,,0.049966200000, -12.20000,
,,,0.049966240000, -12.00000,
,,,0.049966280000, -11.80000,
,,,0.049966320000, -12.00000,
,,,0.049966360000, -12.00000,
,,,0.049966400000, -12.00000,
,,,0.049966440000, -12.00000,
,,,0.049966480000, -11.80000,
,,,0.049966520000, -12.00000,
,,,0.049966560000, -12.00000,
,,,0.049966600000, -11.80000,
,,,0.049966640000, -12.00000,
,,,0.049966680000, -11.80000,
,,,0.049966720000, -11.80000,
,,,0.049966760000, -11.60000,
,,,0.049966800000, -11.80000,
,,,0.049966840000, -11.80000,
,,,0.049966880000, -11.40000,
,,,0.049966920000, -11.60000,
,,,0.049966960000, -11.60000,
,,,0.049967000000, -11.40000,
,,,0.049967040000, -11.80000,
,,,0.049967080000, -11.60000,
,,,0.049967120000, -11.40000,
,,,0.049967160000, -11.40000,
,,,0.049967200000, -11.60000,
,,,0.049967240000, -11.40000,
,,,0.049967280000, -11.20000,
,,,0.049967320000, -11.00000,
,,,0.049967360000, -11.20000,
,,,0.049967400000, -11.20000,
,,,0.049967440000, -11.40000,
,,,0.049967480000, -11.20000,
,,,0.049967520000, -11.20000,
,,,0.049967560000, -11.20000,
,,,0.049967600000, -11.20000,
,,,0.049967640000, -11.20000,
,,,0.049967680000, -11.20000,
,,,0.049967720000, -10.80000,
,,,0.049967760000, -11.00000,
,,,0.049967800000, -10.60000,
,,,0.049967840000, -10.80000,
,,,0.049967880000, -11.00000,
,,,0.049967920000, -11.00000,
,,,0.049967960000, -11.00000,
,,,0.049968000000, -10.80000,
,,,0.049968040000, -10.80000,
,,,0.049968080000, -10.60000,
,,,0.049968120000, -10.80000,
,,,0.049968160000, -10.80000,
,,,0.049968200000, -10.60000,
,,,0.049968240000, -10.60000,
,,,0.049968280000, -10.60000,
,,,0.049968320000, -10.80000,
,,,0.049968360000, -10.40000,
,,,0.049968400000, -10.40000,
,,,0.049968440000, -10.60000,
,,,0.049968480000, -10.60000,
,,,0.049968520000, -10.60000,
,,,0.049968560000, -10.20000,
,,,0.049968600000, -10.20000,
,,,0.049968640000, -10.40000,
,,,0.049968680000, -10.40000,
,,,0.049968720000, -10.40000,
,,,0.049968760000, -10.20000,
,,,0.049968800000, -10.20000,
,,,0.049968840000, -10.20000,
,,,0.049968880000, -10.00000,
,,,0.049968920000, -10.20000,
,,,0.049968960000, -10.00000,
,,,0.049969000000, -10.20000,
,,,0.049969040000, -10.00000,
,,,0.049969080000,  -9.80000,
,,,0.049969120000, -10.20000,
,,,0.049969160000, -10.00000,
,,,0.049969200000, -10.20000,
,,,0.049969240000,  -9.60000,
,,,0.049969280000, -10.00000,
,,,0.049969320000,  -9.80000,
,,,0.049969360000,  -9.80000,
,,,0.049969400000, -10.00000,
,,,0.049969440000,  -9.60000,
,,,0.049969480000,  -9.80000,
,,,0.049969520000,  -9.80000,
,,,0.049969560000,  -9.80000,
,,,0.049969600000,  -9.80000,
,,,0.049969640000,  -9.60000,
,,,0.049969680000,  -9.60000,
,,,0.049969720000,  -9.80000,
,,,0.049969760000,  -9.60000,
,,,0.049969800000,  -9.40000,
,,,0.049969840000,  -9.60000,
,,,0.049969880000,  -9.60000,
,,,0.049969920000,  -9.40000,
,,,0.049969960000,  -9.40000,
,,,0.049970000000,  -9.40000,
,,,0.049970040000,  -9.60000,
,,,0.049970080000,  -9.40000,
,,,0.049970120000,  -9.40000,
,,,0.049970160000,  -9.20000,
,,,0.049970200000,  -9.40000,
,,,0.049970240000,  -9.00000,
,,,0.049970280000,  -9.20000,
,,,0.049970320000,  -9.20000,
,,,0.049970360000,  -9.00000,
,,,0.049970400000,  -9.00000,
,,,0.049970440000,  -9.00000,
,,,0.049970480000,  -9.20000,
,,,0.049970520000,  -9.00000,
,,,0.049970560000,  -9.00000,
,,,0.049970600000,  -9.20000,
,,,0.049970640000,  -8.80000,
,,,0.049970680000,  -9.00000,
,,,0.049970720000,  -9.00000,
,,,0.049970760000,  -9.00000,
,,,0.049970800000,  -9.00000,
,,,0.049970840000,  -8.60000,
,,,0.049970880000,  -8.80000,
,,,0.049970920000,  -8.80000,
,,,0.049970960000,  -8.60000,
,,,0.049971000000,  -8.60000,
,,,0.049971040000,  -8.60000,
,,,0.049971080000,  -8.60000,
,,,0.049971120000,  -8.40000,
,,,0.049971160000,  -8.60000,
,,,0.049971200000,  -8.60000,
,,,0.049971240000,  -8.40000,
,,,0.049971280000,  -8.40000,
,,,0.049971320000,  -8.40000,
,,,0.049971360000,  -8.40000,
,,,0.049971400000,  -8.20000,
,,,0.049971440000,  -8.40000,
,,,0.049971480000,  -8.20000,
,,,0.049971520000,  -8.40000,
,,,0.049971560000,  -8.40000,
,,,0.049971600000,  -8.40000,
,,,0.049971640000,  -8.40000,
,,,0.049971680000,  -8.40000,
,,,0.049971720000,  -8.20000,
,,,0.049971760000,  -8.00000,
,,,0.049971800000,  -7.80000,
,,,0.049971840000,  -8.00000,
,,,0.049971880000,  -8.20000,
,,,0.049971920000,  -8.00000,
,,,0.049971960000,  -8.00000,
,,,0.049972000000,  -8.00000,
,,,0.049972040000,  -8.20000,
,,,0.049972080000,  -7.80000,
,,,0.049972120000,  -7.80000,
,,,0.049972160000,  -8.00000,
,,,0.049972200000,  -7.80000,
,,,0.049972240000,  -7.80000,
,,,0.049972280000,  -8.00000,
,,,0.049972320000,  -7.80000,
,,,0.049972360000,  -7.80000,
,,,0.049972400000,  -7.60000,
,,,0.049972440000,  -7.60000,
,,,0.049972480000,  -7.60000,
,,,0.049972520000,  -7.40000,
,,,0.049972560000,  -7.60000,
,,,0.049972600000,  -7.40000,
,,,0.049972640000,  -7.60000,
,,,0.049972680000,  -7.80000,
,,,0.049972720000,  -7.60000,
,,,0.049972760000,  -7.80000,
,,,0.049972800000,  -7.40000,
,,,0.049972840000,  -7.40000,
,,,0.049972880000,  -7.60000,
,,,0.049972920000,  -7.00000,
,,,0.049972960000,  -7.20000,
,,,0.049973000000,  -7.00000,
,,,0.049973040000,  -7.20000,
,,,0.049973080000,  -7.20000,
,,,0.049973120000,  -7.20000,
,,,0.049973160000,  -7.40000,
,,,0.049973200000,  -7.20000,
,,,0.049973240000,  -7.20000,
,,,0.049973280000,  -7.20000,
,,,0.049973320000,  -7.00000,
,,,0.049973360000,  -7.20000,
,,,0.049973400000,  -7.00000,
,,,0.049973440000,  -7.20000,
,,,0.049973480000,  -7.00000,
,,,0.049973520000,  -7.00000,
,,,0.049973560000,  -6.80000,
,,,0.049973600000,  -7.00000,
,,,0.049973640000,  -6.80000,
,,,0.049973680000,  -6.80000,
,,,0.049973720000,  -7.00000,
,,,0.049973760000,  -7.00000,
,,,0.049973800000,  -6.80000,
,,,0.049973840000,  -6.60000,
,,,0.049973880000,  -6.80000,
,,,0.049973920000,  -6.40000,
,,,0.049973960000,  -6.40000,
,,,0.049974000000,  -6.40000,
,,,0.049974040000,  -6.60000,
,,,0.049974080000,  -6.60000,
,,,0.049974120000,  -6.60000,
,,,0.049974160000,  -6.60000,
,,,0.049974200000,  -6.40000,
,,,0.049974240000,  -6.20000,
,,,0.049974280000,  -6.20000,
,,,0.049974320000,  -6.40000,
,,,0.049974360000,  -6.40000,
,,,0.049974400000,  -6.40000,
,,,0.049974440000,  -6.60000,
,,,0.049974480000,  -6.40000,
,,,0.049974520000,  -6.00000,
,,,0.049974560000,  -5.80000,
,,,0.049974600000,  -6.20000,
,,,0.049974640000,  -6.40000,
,,,0.049974680000,  -6.00000,
,,,0.049974720000,  -6.20000,
,,,0.049974760000,  -6.00000,
,,,0.049974800000,  -5.80000,
,,,0.049974840000,  -6.20000,
,,,0.049974880000,  -6.20000,
,,,0.049974920000,  -6.00000,
,,,0.049974960000,  -5.80000,
,,,0.049975000000,  -6.00000,
,,,0.049975040000,  -5.80000,
,,,0.049975080000,  -5.60000,
,,,0.049975120000,  -5.60000,
,,,0.049975160000,  -5.60000,
,,,0.049975200000,  -5.80000,
,,,0.049975240000,  -5.60000,
,,,0.049975280000,  -5.80000,
,,,0.049975320000,  -5.60000,
,,,0.049975360000,  -5.60000,
,,,0.049975400000,  -5.60000,
,,,0.049975440000,  -5.40000,
,,,0.049975480000,  -5.60000,
,,,0.049975520000,  -5.60000,
,,,0.049975560000,  -5.40000,
,,,0.049975600000,  -5.40000,
,,,0.049975640000,  -5.20000,
,,,0.049975680000,  -5.20000,
,,,0.049975720000,  -5.00000,
,,,0.049975760000,  -5.20000,
,,,0.049975800000,  -5.60000,
,,,0.049975840000,  -5.20000,
,,,0.049975880000,  -5.20000,
,,,0.049975920000,  -5.20000,
,,,0.049975960000,  -5.20000,
,,,0.049976000000,  -5.20000,
,,,0.049976040000,  -5.20000,
,,,0.049976080000,  -5.20000,
,,,0.049976120000,  -5.00000,
