data-source/2-11-21/ALL0004/F0004CH1.CSV

Record Length,2.500000e+03,,  -0.016500000000,  -0.96000,
Sample Interval,1.000000e-05,,  -0.016490000000,  -1.00000,
Trigger Point,1.650000000000e+03,,  -0.016480000000,  -1.00000,
,,,  -0.016470000000,  -1.00000,
,,,  -0.016460000000,  -1.00000,
,,,  -0.016450000000,  -1.00000,
Source,CH1,,  -0.016440000000,  -1.00000,
Vertical Units,V,,  -0.016430000000,  -1.00000,
Vertical Scale,1.000000e+00,,  -0.016420000000,  -1.00000,
Vertical Offset,2.400000e-01,,  -0.016410000000,  -1.00000,
Horizontal Units,s,,  -0.016400000000,  -1.00000,
Horizontal Scale,2.500000e-03,,  -0.016390000000,  -1.00000,
Pt Fmt,Y,,  -0.016380000000,  -1.00000,
Yzero,0.000000e+00,,  -0.016370000000,  -1.04000,
Probe Atten,1.000000e+01,,  -0.016360000000,  -1.04000,
Model Number,TBS1104,,  -0.016350000000,  -1.04000,
Serial Number,C014641,,  -0.016340000000,  -1.04000,
Firmware Version,FV:v26.05,,  -0.016330000000,  -1.04000,
,,,-00.016320000000,  -1.04000,
,,,-00.016310000000,  -1.04000,
,,,-00.016300000000,  -1.08000,
,,,-00.016290000000,  -1.08000,
,,,-00.016280000000,  -1.08000,
,,,-00.016270000000,  -1.08000,
,,,-00.016260000000,  -1.08000,
,,,-00.016250000000,  -1.08000,
,,,-00.016240000000,  -1.08000,
,,,-00.016230000000,  -1.08000,
,,,-00.016220000000,  -1.08000,
,,,-00.016210000000,  -1.08000,
,,,-00.016200000000,  -1.08000,
,,,-00.016190000000,  -1.08000,
,,,-00.016180000000,  -1.12000,
,,,-00.016170000000,  -1.12000,
,,,-00.016160000000,  -1.12000,
,,,-00.016150000000,  -1.12000,
,,,-00.016140000000,  -1.12000,
,,,-00.016130000000,  -1.12000,
,,,-00.016120000000,  -1.12000,
,,,-00.016110000000,  -1.12000,
,,,-00.016100000000,  -1.12000,
,,,-00.016090000000,  -1.12000,
,,,-00.016080000000,  -1.16000,
,,,-00.016070000000,  -1.16000,
,,,-00.016060000000,  -1.16000,
,,,-00.016050000000,  -1.16000,
,,,-00.016040000000,  -1.16000,
,,,-00.016030000000,  -1.16000,
,,,-00.016020000000,  -1.16000,
,,,-00.016010000000,  -1.16000,
,,,-00.016000000000,  -1.16000,
,,,-00.015990000000,  -1.16000,
,,,-00.015980000000,  -1.16000,
,,,-00.015970000000,  -1.20000,
,,,-00.015960000000,  -1.20000,
,,,-00.015950000000,  -1.20000,
,,,-00.015940000000,  -1.20000,
,,,-00.015930000000,  -1.20000,
,,,-00.015920000000,  -1.20000,
,,,-00.015910000000,  -1.20000,
,,,-00.015900000000,  -1.24000,
,,,-00.015890000000,  -1.24000,
,,,-00.015880000000,  -1.24000,
,,,-00.015870000000,  -1.24000,
,,,-00.015860000000,  -1.24000,
,,,-00.015850000000,  -1.24000,
,,,-00.015840000000,  -1.24000,
,,,-00.015830000000,  -1.24000,
,,,-00.015820000000,  -1.24000,
,,,-00.015810000000,  -1.24000,
,,,-00.015800000000,  -1.24000,
,,,-00.015790000000,  -1.28000,
,,,-00.015780000000,  -1.28000,
,,,-00.015770000000,  -1.28000,
,,,-00.015760000000,  -1.28000,
,,,-00.015750000000,  -1.28000,
,,,-00.015740000000,  -1.28000,
,,,-00.015730000000,  -1.28000,
,,,-00.015720000000,  -1.28000,
,,,-00.015710000000,  -1.32000,
,,,-00.015700000000,  -1.32000,
,,,-00.015690000000,  -1.32000,
,,,-00.015680000000,  -1.32000,
,,,-00.015670000000,  -1.32000,
,,,-00.015660000000,  -1.32000,
,,,-00.015650000000,  -1.32000,
,,,-00.015640000000,  -1.32000,
,,,-00.015630000000,  -1.36000,
,,,-00.015620000000,  -1.36000,
,,,-00.015610000000,  -1.36000,
,,,-00.015600000000,  -1.36000,
,,,-00.015590000000,  -1.36000,
,,,-00.015580000000,  -1.36000,
,,,-00.015570000000,  -1.36000,
,,,-00.015560000000,  -1.36000,
,,,-00.015550000000,  -1.36000,
,,,-00.015540000000,  -1.36000,
,,,-00.015530000000,  -1.40000,
,,,-00.015520000000,  -1.40000,
,,,-00.015510000000,  -1.40000,
,,,-00.015500000000,  -1.40000,
,,,-00.015490000000,  -1.40000,
,,,-00.015480000000,  -1.40000,
,,,-00.015470000000,  -1.40000,
,,,-00.015460000000,  -1.40000,
,,,-00.015450000000,  -1.44000,
,,,-00.015440000000,  -1.44000,
,,,-00.015430000000,  -1.44000,
,,,-00.015420000000,  -1.44000,
,,,-00.015410000000,  -1.44000,
,,,-00.015400000000,  -1.44000,
,,,-00.015390000000,  -1.44000,
,,,-00.015380000000,  -1.44000,
,,,-00.015370000000,  -1.44000,
,,,-00.015360000000,  -1.44000,
,,,-00.015350000000,  -1.44000,
,,,-00.015340000000,  -1.44000,
,,,-00.015330000000,  -1.44000,
,,,-00.015320000000,  -1.48000,
,,,-00.015310000000,  -1.48000,
,,,-00.015300000000,  -1.48000,
,,,-00.015290000000,  -1.48000,
,,,-00.015280000000,  -1.48000,
,,,-00.015270000000,  -1.48000,
,,,-00.015260000000,  -1.48000,
,,,-00.015250000000,  -1.52000,
,,,-00.015240000000,  -1.52000,
,,,-00.015230000000,  -1.52000,
,,,-00.015220000000,  -1.52000,
,,,-00.015210000000,  -1.52000,
,,,-00.015200000000,  -1.52000,
,,,-00.015190000000,  -1.52000,
,,,-00.015180000000,  -1.52000,
,,,-00.015170000000,  -1.52000,
,,,-00.015160000000,  -1.52000,
,,,-00.015150000000,  -1.56000,
,,,-00.015140000000,  -1.56000,
,,,-00.015130000000,  -1.56000,
,,,-00.015120000000,  -1.56000,
,,,-00.015110000000,  -1.56000,
,,,-00.015100000000,  -1.56000,
,,,-00.015090000000,  -1.56000,
,,,-00.015080000000,  -1.60000,
,,,-00.015070000000,  -1.60000,
,,,-00.015060000000,  -1.60000,
,,,-00.015050000000,  -1.60000,
,,,-00.015040000000,  -1.60000,
,,,-00.015030000000,  -1.60000,
,,,-00.015020000000,  -1.60000,
,,,-00.015010000000,  -1.60000,
,,,-00.015000000000,  -1.60000,
,,,-00.014990000000,  -1.60000,
,,,-00.014980000000,  -1.60000,
,,,-00.014970000000,  -1.64000,
,,,-00.014960000000,  -1.64000,
,,,-00.014950000000,  -1.64000,
,,,-00.014940000000,  -1.64000,
,,,-00.014930000000,  -1.64000,
,,,-00.014920000000,  -1.64000,
,,,-00.014910000000,  -1.64000,
,,,-00.014900000000,  -1.68000,
,,,-00.014890000000,  -1.68000,
,,,-00.014880000000,  -1.68000,
,,,-00.014870000000,  -1.68000,
,,,-00.014860000000,  -1.68000,
,,,-00.014850000000,  -1.68000,
,,,-00.014840000000,  -1.68000,
,,,-00.014830000000,  -1.68000,
,,,-00.014820000000,  -1.72000,
,,,-00.014810000000,  -1.72000,
,,,-00.014800000000,  -1.72000,
,,,-00.014790000000,  -1.72000,
,,,-00.014780000000,  -1.72000,
,,,-00.014770000000,  -1.72000,
,,,-00.014760000000,  -1.72000,
,,,-00.014750000000,  -1.72000,
,,,-00.014740000000,  -1.72000,
,,,-00.014730000000,  -1.72000,
,,,-00.014720000000,  -1.76000,
,,,-00.014710000000,  -1.76000,
,,,-00.014700000000,  -1.76000,
,,,-00.014690000000,  -1.76000,
,,,-00.014680000000,  -1.76000,
,,,-00.014670000000,  -1.76000,
,,,-00.014660000000,  -1.76000,
,,,-00.014650000000,  -1.76000,
,,,-00.014640000000,  -1.80000,
,,,-00.014630000000,  -1.80000,
,,,-00.014620000000,  -1.80000,
,,,-00.014610000000,  -1.80000,
,,,-00.014600000000,  -1.80000,
,,,-00.014590000000,  -1.80000,
,,,-00.014580000000,  -1.80000,
,,,-00.014570000000,  -1.80000,
,,,-00.014560000000,  -1.80000,
,,,-00.014550000000,  -1.80000,
,,,-00.014540000000,  -1.80000,
,,,-00.014530000000,  -1.80000,
,,,-00.014520000000,  -1.84000,
,,,-00.014510000000,  -1.84000,
,,,-00.014500000000,  -1.84000,
,,,-00.014490000000,  -1.84000,
,,,-00.014480000000,  -1.84000,
,,,-00.014470000000,  -1.84000,
,,,-00.014460000000,  -1.84000,
,,,-00.014450000000,  -1.84000,
,,,-00.014440000000,  -1.88000,
,,,-00.014430000000,  -1.88000,
,,,-00.014420000000,  -1.88000,
,,,-00.014410000000,  -1.88000,
,,,-00.014400000000,  -1.88000,
,,,-00.014390000000,  -1.88000,
,,,-00.014380000000,  -1.88000,
,,,-00.014370000000,  -1.88000,
,,,-00.014360000000,  -1.88000,
,,,-00.014350000000,  -1.88000,
,,,-00.014340000000,  -1.92000,
,,,-00.014330000000,  -1.92000,
,,,-00.014320000000,  -1.92000,
,,,-00.014310000000,  -1.92000,
,,,-00.014300000000,  -1.92000,
,,,-00.014290000000,  -1.92000,
,,,-00.014280000000,  -1.92000,
,,,-00.014270000000,  -1.92000,
,,,-00.014260000000,  -1.96000,
,,,-00.014250000000,  -1.96000,
,,,-00.014240000000,  -1.96000,
,,,-00.014230000000,  -1.96000,
,,,-00.014220000000,  -1.96000,
,,,-00.014210000000,  -1.96000,
,,,-00.014200000000,  -1.96000,
,,,-00.014190000000,  -1.96000,
,,,-00.014180000000,  -1.96000,
,,,-00.014170000000,  -1.96000,
,,,-00.014160000000,  -2.00000,
,,,-00.014150000000,  -2.00000,
,,,-00.014140000000,  -2.00000,
,,,-00.014130000000,  -2.00000,
,,,-00.014120000000,  -2.00000,
,,,-00.014110000000,  -2.00000,
,,,-00.014100000000,  -2.00000,
,,,-00.014090000000,  -2.00000,
,,,-00.014080000000,  -2.00000,
,,,-00.014070000000,  -2.04000,
,,,-00.014060000000,  -2.04000,
,,,-00.014050000000,  -2.04000,
,,,-00.014040000000,  -2.04000,
,,,-00.014030000000,  -2.04000,
,,,-00.014020000000,  -2.04000,
,,,-00.014010000000,  -2.04000,
,,,-00.014000000000,  -2.04000,
,,,-00.013990000000,  -2.08000,
,,,-00.013980000000,  -2.08000,
,,,-00.013970000000,  -2.08000,
,,,-00.013960000000,  -2.08000,
,,,-00.013950000000,  -2.08000,
,,,-00.013940000000,  -2.08000,
,,,-00.013930000000,  -2.08000,
,,,-00.013920000000,  -2.08000,
,,,-00.013910000000,  -2.08000,
,,,-00.013900000000,  -2.08000,
,,,-00.013890000000,  -2.08000,
,,,-00.013880000000,  -2.12000,
,,,-00.013870000000,  -2.12000,
,,,-00.013860000000,  -2.12000,
,,,-00.013850000000,  -2.12000,
,,,-00.013840000000,  -2.12000,
,,,-00.013830000000,  -2.12000,
,,,-00.013820000000,  -2.12000,
,,,-00.013810000000,  -2.12000,
,,,-00.013800000000,  -2.16000,
,,,-00.013790000000,  -2.16000,
,,,-00.013780000000,  -2.16000,
,,,-00.013770000000,  -2.16000,
,,,-00.013760000000,  -2.16000,
,,,-00.013750000000,  -2.16000,
,,,-00.013740000000,  -2.16000,
,,,-00.013730000000,  -2.16000,
,,,-00.013720000000,  -2.16000,
,,,-00.013710000000,  -2.16000,
,,,-00.013700000000,  -2.16000,
,,,-00.013690000000,  -2.16000,
,,,-00.013680000000,  -2.16000,
,,,-00.013670000000,  -2.16000,
,,,-00.013660000000,  -2.20000,
,,,-00.013650000000,  -2.20000,
,,,-00.013640000000,  -2.20000,
,,,-00.013630000000,  -2.20000,
,,,-00.013620000000,  -2.20000,
,,,-00.013610000000,  -2.20000,
,,,-00.013600000000,  -2.20000,
,,,-00.013590000000,  -2.20000,
,,,-00.013580000000,  -2.20000,
,,,-00.013570000000,  -2.24000,
,,,-00.013560000000,  -2.24000,
,,,-00.013550000000,  -2.24000,
,,,-00.013540000000,  -2.24000,
,,,-00.013530000000,  -2.24000,
,,,-00.013520000000,  -2.24000,
,,,-00.013510000000,  -2.24000,
,,,-00.013500000000,  -2.24000,
,,,-00.013490000000,  -2.24000,
,,,-00.013480000000,  -2.24000,
,,,-00.013470000000,  -2.24000,
,,,-00.013460000000,  -2.28000,
,,,-00.013450000000,  -2.28000,
,,,-00.013440000000,  -2.28000,
,,,-00.013430000000,  -2.28000,
,,,-00.013420000000,  -2.28000,
,,,-00.013410000000,  -2.28000,
,,,-00.013400000000,  -2.28000,
,,,-00.013390000000,  -2.28000,
,,,-00.013380000000,  -2.28000,
,,,-00.013370000000,  -2.32000,
,,,-00.013360000000,  -2.32000,
,,,-00.013350000000,  -2.32000,
,,,-00.013340000000,  -2.32000,
,,,-00.013330000000,  -2.32000,
,,,-00.013320000000,  -2.32000,
,,,-00.013310000000,  -2.32000,
,,,-00.013300000000,  -2.32000,
,,,-00.013290000000,  -2.32000,
,,,-00.013280000000,  -2.32000,
,,,-00.013270000000,  -2.32000,
,,,-00.013260000000,  -2.36000,
,,,-00.013250000000,  -2.36000,
,,,-00.013240000000,  -2.36000,
,,,-00.013230000000,  -2.36000,
,,,-00.013220000000,  -2.36000,
,,,-00.013210000000,  -2.36000,
,,,-00.013200000000,  -2.36000,
,,,-00.013190000000,  -2.36000,
,,,-00.013180000000,  -2.36000,
,,,-00.013170000000,  -2.40000,
,,,-00.013160000000,  -2.40000,
,,,-00.013150000000,  -2.40000,
,,,-00.013140000000,  -2.40000,
,,,-00.013130000000,  -2.40000,
,,,-00.013120000000,  -2.40000,
,,,-00.013110000000,  -2.40000,
,,,-00.013100000000,  -2.40000,
,,,-00.013090000000,  -2.40000,
,,,-00.013080000000,  -2.44000,
,,,-00.013070000000,  -2.44000,
,,,-00.013060000000,  -2.44000,
,,,-00.013050000000,  -2.44000,
,,,-00.013040000000,  -2.44000,
,,,-00.013030000000,  -2.44000,
,,,-00.013020000000,  -2.44000,
,,,-00.013010000000,  -2.44000,
,,,-00.013000000000,  -2.44000,
,,,-00.012990000000,  -2.44000,
,,,-00.012980000000,  -2.44000,
,,,-00.012970000000,  -2.44000,
,,,-00.012960000000,  -2.44000,
,,,-00.012950000000,  -2.48000,
,,,-00.012940000000,  -2.48000,
,,,-00.012930000000,  -2.48000,
,,,-00.012920000000,  -2.48000,
,,,-00.012910000000,  -2.48000,
,,,-00.012900000000,  -2.48000,
,,,-00.012890000000,  -2.48000,
,,,-00.012880000000,  -2.48000,
,,,-00.012870000000,  -2.48000,
,,,-00.012860000000,  -2.52000,
,,,-00.012850000000,  -2.52000,
,,,-00.012840000000,  -2.52000,
,,,-00.012830000000,  -2.52000,
,,,-00.012820000000,  -2.52000,
,,,-00.012810000000,  -2.52000,
,,,-00.012800000000,  -2.52000,
,,,-00.012790000000,  -2.52000,
,,,-00.012780000000,  -2.52000,
,,,-00.012770000000,  -2.52000,
,,,-00.012760000000,  -2.52000,
,,,-00.012750000000,  -2.52000,
,,,-00.012740000000,  -2.56000,
,,,-00.012730000000,  -2.56000,
,,,-00.012720000000,  -2.56000,
,,,-00.012710000000,  -2.56000,
,,,-00.012700000000,  -2.56000,
,,,-00.012690000000,  -2.56000,
,,,-00.012680000000,  -2.56000,
,,,-00.012670000000,  -2.56000,
,,,-00.012660000000,  -2.56000,
,,,-00.012650000000,  -2.56000,
,,,-00.012640000000,  -2.56000,
,,,-00.012630000000,  -2.60000,
,,,-00.012620000000,  -2.60000,
,,,-00.012610000000,  -2.60000,
,,,-00.012600000000,  -2.60000,
,,,-00.012590000000,  -2.60000,
,,,-00.012580000000,  -2.60000,
,,,-00.012570000000,  -2.60000,
,,,-00.012560000000,  -2.60000,
,,,-00.012550000000,  -2.60000,
,,,-00.012540000000,  -2.60000,
,,,-00.012530000000,  -2.60000,
,,,-00.012520000000,  -2.60000,
,,,-00.012510000000,  -2.60000,
,,,-00.012500000000,  -2.60000,
,,,-00.012490000000,  -2.60000,
,,,-00.012480000000,  -2.64000,
,,,-00.012470000000,  -2.64000,
,,,-00.012460000000,  -2.64000,
,,,-00.012450000000,  -2.64000,
,,,-00.012440000000,  -2.64000,
,,,-00.012430000000,  -2.64000,
,,,-00.012420000000,  -2.64000,
,,,-00.012410000000,  -2.64000,
,,,-00.012400000000,  -2.64000,
,,,-00.012390000000,  -2.64000,
,,,-00.012380000000,  -2.64000,
,,,-00.012370000000,  -2.68000,
,,,-00.012360000000,  -2.68000,
,,,-00.012350000000,  -2.68000,
,,,-00.012340000000,  -2.68000,
,,,-00.012330000000,  -2.68000,
,,,-00.012320000000,  -2.68000,
,,,-00.012310000000,  -2.68000,
,,,-00.012300000000,  -2.68000,
,,,-00.012290000000,  -2.68000,
,,,-00.012280000000,  -2.68000,
,,,-00.012270000000,  -2.68000,
,,,-00.012260000000,  -2.68000,
,,,-00.012250000000,  -2.68000,
,,,-00.012240000000,  -2.68000,
,,,-00.012230000000,  -2.68000,
,,,-00.012220000000,  -2.68000,
,,,-00.012210000000,  -2.72000,
,,,-00.012200000000,  -2.72000,
,,,-00.012190000000,  -2.72000,
,,,-00.012180000000,  -2.72000,
,,,-00.012170000000,  -2.72000,
,,,-00.012160000000,  -2.72000,
,,,-00.012150000000,  -2.72000,
,,,-00.012140000000,  -2.72000,
,,,-00.012130000000,  -2.72000,
,,,-00.012120000000,  -2.72000,
,,,-00.012110000000,  -2.72000,
,,,-00.012100000000,  -2.72000,
,,,-00.012090000000,  -2.76000,
,,,-00.012080000000,  -2.76000,
,,,-00.012070000000,  -2.76000,
,,,-00.012060000000,  -2.76000,
,,,-00.012050000000,  -2.76000,
,,,-00.012040000000,  -2.76000,
,,,-00.012030000000,  -2.76000,
,,,-00.012020000000,  -2.76000,
,,,-00.012010000000,  -2.76000,
,,,-00.012000000000,  -2.76000,
,,,-00.011990000000,  -2.76000,
,,,-00.011980000000,  -2.76000,
,,,-00.011970000000,  -2.76000,
,,,-00.011960000000,  -2.76000,
,,,-00.011950000000,  -2.76000,
,,,-00.011940000000,  -2.76000,
,,,-00.011930000000,  -2.76000,
,,,-00.011920000000,  -2.76000,
,,,-00.011910000000,  -2.80000,
,,,-00.011900000000,  -2.80000,
,,,-00.011890000000,  -2.80000,
,,,-00.011880000000,  -2.80000,
,,,-00.011870000000,  -2.80000,
,,,-00.011860000000,  -2.80000,
,,,-00.011850000000,  -2.80000,
,,,-00.011840000000,  -2.80000,
,,,-00.011830000000,  -2.80000,
,,,-00.011820000000,  -2.80000,
,,,-00.011810000000,  -2.80000,
,,,-00.011800000000,  -2.80000,
,,,-00.011790000000,  -2.80000,
,,,-00.011780000000,  -2.80000,
,,,-00.011770000000,  -2.84000,
,,,-00.011760000000,  -2.84000,
,,,-00.011750000000,  -2.84000,
,,,-00.011740000000,  -2.84000,
,,,-00.011730000000,  -2.84000,
,,,-00.011720000000,  -2.84000,
,,,-00.011710000000,  -2.84000,
,,,-00.011700000000,  -2.84000,
,,,-00.011690000000,  -2.84000,
,,,-00.011680000000,  -2.84000,
,,,-00.011670000000,  -2.84000,
,,,-00.011660000000,  -2.84000,
,,,-00.011650000000,  -2.84000,
,,,-00.011640000000,  -2.84000,
,,,-00.011630000000,  -2.84000,
,,,-00.011620000000,  -2.84000,
,,,-00.011610000000,  -2.84000,
,,,-00.011600000000,  -2.84000,
,,,-00.011590000000,  -2.84000,
,,,-00.011580000000,  -2.84000,
,,,-00.011570000000,  -2.88000,
,,,-00.011560000000,  -2.88000,
,,,-00.011550000000,  -2.88000,
,,,-00.011540000000,  -2.88000,
,,,-00.011530000000,  -2.88000,
,,,-00.011520000000,  -2.88000,
,,,-00.011510000000,  -2.88000,
,,,-00.011500000000,  -2.88000,
,,,-00.011490000000,  -2.88000,
,,,-00.011480000000,  -2.88000,
,,,-00.011470000000,  -2.88000,
,,,-00.011460000000,  -2.88000,
,,,-00.011450000000,  -2.88000,
,,,-00.011440000000,  -2.88000,
,,,-00.011430000000,  -2.88000,
,,,-00.011420000000,  -2.88000,
,,,-00.011410000000,  -2.88000,
,,,-00.011400000000,  -2.88000,
,,,-00.011390000000,  -2.88000,
,,,-00.011380000000,  -2.88000,
,,,-00.011370000000,  -2.88000,
,,,-00.011360000000,  -2.88000,
,,,-00.011350000000,  -2.88000,
,,,-00.011340000000,  -2.88000,
,,,-00.011330000000,  -2.88000,
,,,-00.011320000000,  -2.92000,
,,,-00.011310000000,  -2.92000,
,,,-00.011300000000,  -2.92000,
,,,-00.011290000000,  -2.92000,
,,,-00.011280000000,  -2.92000,
,,,-00.011270000000,  -2.92000,
,,,-00.011260000000,  -2.92000,
,,,-00.011250000000,  -2.92000,
,,,-00.011240000000,  -2.92000,
,,,-00.011230000000,  -2.92000,
,,,-00.011220000000,  -2.92000,
,,,-00.011210000000,  -2.92000,
,,,-00.011200000000,  -2.92000,
,,,-00.011190000000,  -2.92000,
,,,-00.011180000000,  -2.92000,
,,,-00.011170000000,  -2.92000,
,,,-00.011160000000,  -2.92000,
,,,-00.011150000000,  -2.92000,
,,,-00.011140000000,  -2.92000,
,,,-00.011130000000,  -2.96000,
,,,-00.011120000000,  -2.96000,
,,,-00.011110000000,  -2.96000,
,,,-00.011100000000,  -2.96000,
,,,-00.011090000000,  -2.96000,
,,,-00.011080000000,  -2.96000,
,,,-00.011070000000,  -2.96000,
,,,-00.011060000000,  -2.96000,
,,,-00.011050000000,  -2.96000,
,,,-00.011040000000,  -2.96000,
,,,-00.011030000000,  -2.96000,
,,,-00.011020000000,  -2.96000,
,,,-00.011010000000,  -2.96000,
,,,-00.011000000000,  -2.96000,
,,,-00.010990000000,  -2.96000,
,,,-00.010980000000,  -2.96000,
,,,-00.010970000000,  -2.96000,
,,,-00.010960000000,  -2.96000,
,,,-00.010950000000,  -2.96000,
,,,-00.010940000000,  -2.96000,
,,,-00.010930000000,  -2.96000,
,,,-00.010920000000,  -2.96000,
,,,-00.010910000000,  -2.96000,
,,,-00.010900000000,  -2.96000,
,,,-00.010890000000,  -2.96000,
,,,-00.010880000000,  -2.96000,
,,,-00.010870000000,  -2.96000,
,,,-00.010860000000,  -2.96000,
,,,-00.010850000000,  -2.96000,
,,,-00.010840000000,  -2.96000,
,,,-00.010830000000,  -2.96000,
,,,-00.010820000000,  -2.96000,
,,,-00.010810000000,  -3.00000,
,,,-00.010800000000,  -3.00000,
,,,-00.010790000000,  -3.00000,
,,,-00.010780000000,  -3.00000,
,,,-00.010770000000,  -3.00000,
,,,-00.010760000000,  -3.00000,
,,,-00.010750000000,  -3.00000,
,,,-00.010740000000,  -3.00000,
,,,-00.010730000000,  -3.00000,
,,,-00.010720000000,  -3.00000,
,,,-00.010710000000,  -3.00000,
,,,-00.010700000000,  -3.00000,
,,,-00.010690000000,  -3.00000,
,,,-00.010680000000,  -3.00000,
,,,-00.010670000000,  -3.00000,
,,,-00.010660000000,  -3.00000,
,,,-00.010650000000,  -3.00000,
,,,-00.010640000000,  -3.00000,
,,,-00.010630000000,  -3.00000,
,,,-00.010620000000,  -3.00000,
,,,-00.010610000000,  -3.00000,
,,,-00.010600000000,  -3.00000,
,,,-00.010590000000,  -3.00000,
,,,-00.010580000000,  -3.00000,
,,,-00.010570000000,  -3.00000,
,,,-00.010560000000,  -3.00000,
,,,-00.010550000000,  -3.00000,
,,,-00.010540000000,  -3.00000,
,,,-00.010530000000,  -3.00000,
,,,-00.010520000000,  -3.00000,
,,,-00.010510000000,  -3.00000,
,,,-00.010500000000,  -3.00000,
,,,-00.010490000000,  -3.00000,
,,,-00.010480000000,  -3.00000,
,,,-00.010470000000,  -3.00000,
,,,-00.010460000000,  -3.00000,
,,,-00.010450000000,  -3.00000,
,,,-00.010440000000,  -3.00000,
,,,-00.010430000000,  -3.00000,
,,,-00.010420000000,  -3.00000,
,,,-00.010410000000,  -3.00000,
,,,-00.010400000000,  -3.00000,
,,,-00.010390000000,  -3.00000,
,,,-00.010380000000,  -3.00000,
,,,-00.010370000000,  -3.04000,
