data-source/5-10-21/OPA_integ_with_res_sine/F0007CH1.CSV

Record Length,2.500000e+03,,  -0.000450000000,  -0.03280,
Sample Interval,2.000000e-07,,  -0.000449800000,  -0.03280,
Trigger Point,2.250000000000e+03,,  -0.000449600000,  -0.03200,
,,,  -0.000449400000,  -0.03200,
,,,  -0.000449200000,  -0.03200,
,,,  -0.000449000000,  -0.03200,
Source,CH1,,  -0.000448800000,  -0.03200,
Vertical Units,V,,  -0.000448600000,  -0.03200,
Vertical Scale,2.000000e-02,,  -0.000448400000,  -0.03200,
Vertical Offset,0.000000e+00,,  -0.000448200000,  -0.03200,
Horizontal Units,s,,  -0.000448000000,  -0.03200,
Horizontal Scale,5.000000e-05,,  -0.000447800000,  -0.03120,
Pt Fmt,Y,,  -0.000447600000,  -0.03120,
Yzero,0.000000e+00,,  -0.000447400000,  -0.03120,
Probe Atten,1.000000e+01,,  -0.000447200000,  -0.03120,
Model Number,TBS1104,,  -0.000447000000,  -0.03120,
Serial Number,C014641,,  -0.000446800000,  -0.03120,
Firmware Version,FV:v26.05,,  -0.000446600000,  -0.03120,
,,,-00.000446400000,  -0.03040,
,,,-00.000446200000,  -0.03040,
,,,-00.000446000000,  -0.03040,
,,,-00.000445800000,  -0.03040,
,,,-00.000445600000,  -0.03040,
,,,-00.000445400000,  -0.03040,
,,,-00.000445200000,  -0.03040,
,,,-00.000445000000,  -0.02960,
,,,-00.000444800000,  -0.02960,
,,,-00.000444600000,  -0.02960,
,,,-00.000444400000,  -0.02960,
,,,-00.000444200000,  -0.02960,
,,,-00.000444000000,  -0.02960,
,,,-00.000443800000,  -0.02960,
,,,-00.000443600000,  -0.02960,
,,,-00.000443400000,  -0.02960,
,,,-00.000443200000,  -0.02880,
,,,-00.000443000000,  -0.02880,
,,,-00.000442800000,  -0.02880,
,,,-00.000442600000,  -0.02880,
,,,-00.000442400000,  -0.02880,
,,,-00.000442200000,  -0.02800,
,,,-00.000442000000,  -0.02800,
,,,-00.000441800000,  -0.02800,
,,,-00.000441600000,  -0.02800,
,,,-00.000441400000,  -0.02800,
,,,-00.000441200000,  -0.02720,
,,,-00.000441000000,  -0.02720,
,,,-00.000440800000,  -0.02720,
,,,-00.000440600000,  -0.02800,
,,,-00.000440400000,  -0.02640,
,,,-00.000440200000,  -0.02720,
,,,-00.000440000000,  -0.02720,
,,,-00.000439800000,  -0.02640,
,,,-00.000439600000,  -0.02640,
,,,-00.000439400000,  -0.02640,
,,,-00.000439200000,  -0.02640,
,,,-00.000439000000,  -0.02640,
,,,-00.000438800000,  -0.02640,
,,,-00.000438600000,  -0.02560,
,,,-00.000438400000,  -0.02560,
,,,-00.000438200000,  -0.02560,
,,,-00.000438000000,  -0.02480,
,,,-00.000437800000,  -0.02480,
,,,-00.000437600000,  -0.02480,
,,,-00.000437400000,  -0.02480,
,,,-00.000437200000,  -0.02480,
,,,-00.000437000000,  -0.02400,
,,,-00.000436800000,  -0.02400,
,,,-00.000436600000,  -0.02400,
,,,-00.000436400000,  -0.02400,
,,,-00.000436200000,  -0.02320,
,,,-00.000436000000,  -0.02400,
,,,-00.000435800000,  -0.02400,
,,,-00.000435600000,  -0.02320,
,,,-00.000435400000,  -0.02240,
,,,-00.000435200000,  -0.02320,
,,,-00.000435000000,  -0.02240,
,,,-00.000434800000,  -0.02240,
,,,-00.000434600000,  -0.02240,
,,,-00.000434400000,  -0.02240,
,,,-00.000434200000,  -0.02160,
,,,-00.000434000000,  -0.02160,
,,,-00.000433800000,  -0.02160,
,,,-00.000433600000,  -0.02160,
,,,-00.000433400000,  -0.02080,
,,,-00.000433200000,  -0.02160,
,,,-00.000433000000,  -0.02080,
,,,-00.000432800000,  -0.02080,
,,,-00.000432600000,  -0.02000,
,,,-00.000432400000,  -0.02000,
,,,-00.000432200000,  -0.02000,
,,,-00.000432000000,  -0.02000,
,,,-00.000431800000,  -0.02000,
,,,-00.000431600000,  -0.01920,
,,,-00.000431400000,  -0.01920,
,,,-00.000431200000,  -0.01840,
,,,-00.000431000000,  -0.01840,
,,,-00.000430800000,  -0.01840,
,,,-00.000430600000,  -0.01840,
,,,-00.000430400000,  -0.01840,
,,,-00.000430200000,  -0.01760,
,,,-00.000430000000,  -0.01760,
,,,-00.000429800000,  -0.01680,
,,,-00.000429600000,  -0.01760,
,,,-00.000429400000,  -0.01760,
,,,-00.000429200000,  -0.01680,
,,,-00.000429000000,  -0.01680,
,,,-00.000428800000,  -0.01680,
,,,-00.000428600000,  -0.01600,
,,,-00.000428400000,  -0.01600,
,,,-00.000428200000,  -0.01600,
,,,-00.000428000000,  -0.01600,
,,,-00.000427800000,  -0.01600,
,,,-00.000427600000,  -0.01520,
,,,-00.000427400000,  -0.01520,
,,,-00.000427200000,  -0.01440,
,,,-00.000427000000,  -0.01520,
,,,-00.000426800000,  -0.01440,
,,,-00.000426600000,  -0.01440,
,,,-00.000426400000,  -0.01440,
,,,-00.000426200000,  -0.01360,
,,,-00.000426000000,  -0.01440,
,,,-00.000425800000,  -0.01360,
,,,-00.000425600000,  -0.01280,
,,,-00.000425400000,  -0.01280,
,,,-00.000425200000,  -0.01280,
,,,-00.000425000000,  -0.01280,
,,,-00.000424800000,  -0.01280,
,,,-00.000424600000,  -0.01200,
,,,-00.000424400000,  -0.01200,
,,,-00.000424200000,  -0.01120,
,,,-00.000424000000,  -0.01120,
,,,-00.000423800000,  -0.01120,
,,,-00.000423600000,  -0.01120,
,,,-00.000423400000,  -0.01120,
,,,-00.000423200000,  -0.01040,
,,,-00.000423000000,  -0.01040,
,,,-00.000422800000,  -0.01040,
,,,-00.000422600000,  -0.01040,
,,,-00.000422400000,  -0.00960,
,,,-00.000422200000,  -0.00960,
,,,-00.000422000000,  -0.00880,
,,,-00.000421800000,  -0.00880,
,,,-00.000421600000,  -0.00800,
,,,-00.000421400000,  -0.00880,
,,,-00.000421200000,  -0.00800,
,,,-00.000421000000,  -0.00800,
,,,-00.000420800000,  -0.00800,
,,,-00.000420600000,  -0.00720,
,,,-00.000420400000,  -0.00720,
,,,-00.000420200000,  -0.00720,
,,,-00.000420000000,  -0.00640,
,,,-00.000419800000,  -0.00640,
,,,-00.000419600000,  -0.00640,
,,,-00.000419400000,  -0.00640,
,,,-00.000419200000,  -0.00560,
,,,-00.000419000000,  -0.00560,
,,,-00.000418800000,  -0.00480,
,,,-00.000418600000,  -0.00480,
,,,-00.000418400000,  -0.00400,
,,,-00.000418200000,  -0.00480,
,,,-00.000418000000,  -0.00480,
,,,-00.000417800000,  -0.00400,
,,,-00.000417600000,  -0.00320,
,,,-00.000417400000,  -0.00320,
,,,-00.000417200000,  -0.00320,
,,,-00.000417000000,  -0.00320,
,,,-00.000416800000,  -0.00320,
,,,-00.000416600000,  -0.00240,
,,,-00.000416400000,  -0.00160,
,,,-00.000416200000,  -0.00240,
,,,-00.000416000000,  -0.00240,
,,,-00.000415800000,  -0.00160,
,,,-00.000415600000,  -0.00160,
,,,-00.000415400000,  -0.00160,
,,,-00.000415200000,  -0.00080,
,,,-00.000415000000,  -0.00080,
,,,-00.000414800000,  -0.00080,
,,,-00.000414600000,   0.00000,
,,,-00.000414400000,   0.00000,
,,,-00.000414200000,   0.00080,
,,,-00.000414000000,   0.00080,
,,,-00.000413800000,   0.00080,
,,,-00.000413600000,   0.00080,
,,,-00.000413400000,   0.00080,
,,,-00.000413200000,   0.00160,
,,,-00.000413000000,   0.00160,
,,,-00.000412800000,   0.00160,
,,,-00.000412600000,   0.00160,
,,,-00.000412400000,   0.00240,
,,,-00.000412200000,   0.00240,
,,,-00.000412000000,   0.00240,
,,,-00.000411800000,   0.00240,
,,,-00.000411600000,   0.00320,
,,,-00.000411400000,   0.00400,
,,,-00.000411200000,   0.00400,
,,,-00.000411000000,   0.00400,
,,,-00.000410800000,   0.00480,
,,,-00.000410600000,   0.00480,
,,,-00.000410400000,   0.00480,
,,,-00.000410200000,   0.00480,
,,,-00.000410000000,   0.00560,
,,,-00.000409800000,   0.00560,
,,,-00.000409600000,   0.00640,
,,,-00.000409400000,   0.00640,
,,,-00.000409200000,   0.00640,
,,,-00.000409000000,   0.00640,
,,,-00.000408800000,   0.00720,
,,,-00.000408600000,   0.00720,
,,,-00.000408400000,   0.00720,
,,,-00.000408200000,   0.00720,
,,,-00.000408000000,   0.00800,
,,,-00.000407800000,   0.00800,
,,,-00.000407600000,   0.00880,
,,,-00.000407400000,   0.00880,
,,,-00.000407200000,   0.00880,
,,,-00.000407000000,   0.00880,
,,,-00.000406800000,   0.00880,
,,,-00.000406600000,   0.00960,
,,,-00.000406400000,   0.00960,
,,,-00.000406200000,   0.01040,
,,,-00.000406000000,   0.01040,
,,,-00.000405800000,   0.01120,
,,,-00.000405600000,   0.01040,
,,,-00.000405400000,   0.01120,
,,,-00.000405200000,   0.01120,
,,,-00.000405000000,   0.01200,
,,,-00.000404800000,   0.01120,
,,,-00.000404600000,   0.01200,
,,,-00.000404400000,   0.01200,
,,,-00.000404200000,   0.01280,
,,,-00.000404000000,   0.01280,
,,,-00.000403800000,   0.01280,
,,,-00.000403600000,   0.01360,
,,,-00.000403400000,   0.01360,
,,,-00.000403200000,   0.01360,
,,,-00.000403000000,   0.01440,
,,,-00.000402800000,   0.01440,
,,,-00.000402600000,   0.01440,
,,,-00.000402400000,   0.01440,
,,,-00.000402200000,   0.01520,
,,,-00.000402000000,   0.01520,
,,,-00.000401800000,   0.01520,
,,,-00.000401600000,   0.01600,
,,,-00.000401400000,   0.01600,
,,,-00.000401200000,   0.01600,
,,,-00.000401000000,   0.01600,
,,,-00.000400800000,   0.01680,
,,,-00.000400600000,   0.01680,
,,,-00.000400400000,   0.01680,
,,,-00.000400200000,   0.01680,
,,,-00.000400000000,   0.01760,
,,,-00.000399800000,   0.01760,
,,,-00.000399600000,   0.01760,
,,,-00.000399400000,   0.01760,
,,,-00.000399200000,   0.01840,
,,,-00.000399000000,   0.01920,
,,,-00.000398800000,   0.01920,
,,,-00.000398600000,   0.01920,
,,,-00.000398400000,   0.01920,
,,,-00.000398200000,   0.01920,
,,,-00.000398000000,   0.01920,
,,,-00.000397800000,   0.02000,
,,,-00.000397600000,   0.02000,
,,,-00.000397400000,   0.02000,
,,,-00.000397200000,   0.02080,
,,,-00.000397000000,   0.02080,
,,,-00.000396800000,   0.02080,
,,,-00.000396600000,   0.02160,
,,,-00.000396400000,   0.02160,
,,,-00.000396200000,   0.02160,
,,,-00.000396000000,   0.02160,
,,,-00.000395800000,   0.02240,
,,,-00.000395600000,   0.02320,
,,,-00.000395400000,   0.02320,
,,,-00.000395200000,   0.02320,
,,,-00.000395000000,   0.02320,
,,,-00.000394800000,   0.02320,
,,,-00.000394600000,   0.02400,
,,,-00.000394400000,   0.02400,
,,,-00.000394200000,   0.02400,
,,,-00.000394000000,   0.02400,
,,,-00.000393800000,   0.02480,
,,,-00.000393600000,   0.02480,
,,,-00.000393400000,   0.02480,
,,,-00.000393200000,   0.02560,
,,,-00.000393000000,   0.02560,
,,,-00.000392800000,   0.02560,
,,,-00.000392600000,   0.02640,
,,,-00.000392400000,   0.02560,
,,,-00.000392200000,   0.02560,
,,,-00.000392000000,   0.02640,
,,,-00.000391800000,   0.02720,
,,,-00.000391600000,   0.02720,
,,,-00.000391400000,   0.02720,
,,,-00.000391200000,   0.02720,
,,,-00.000391000000,   0.02720,
,,,-00.000390800000,   0.02800,
,,,-00.000390600000,   0.02800,
,,,-00.000390400000,   0.02800,
,,,-00.000390200000,   0.02880,
,,,-00.000390000000,   0.02880,
,,,-00.000389800000,   0.02800,
,,,-00.000389600000,   0.02880,
,,,-00.000389400000,   0.02880,
,,,-00.000389200000,   0.02960,
,,,-00.000389000000,   0.02960,
,,,-00.000388800000,   0.02960,
,,,-00.000388600000,   0.03040,
,,,-00.000388400000,   0.03040,
,,,-00.000388200000,   0.03040,
,,,-00.000388000000,   0.03040,
,,,-00.000387800000,   0.03040,
,,,-00.000387600000,   0.03120,
,,,-00.000387400000,   0.03120,
,,,-00.000387200000,   0.03040,
,,,-00.000387000000,   0.03120,
,,,-00.000386800000,   0.03120,
,,,-00.000386600000,   0.03120,
,,,-00.000386400000,   0.03200,
,,,-00.000386200000,   0.03200,
,,,-00.000386000000,   0.03200,
,,,-00.000385800000,   0.03280,
,,,-00.000385600000,   0.03280,
,,,-00.000385400000,   0.03280,
,,,-00.000385200000,   0.03280,
,,,-00.000385000000,   0.03280,
,,,-00.000384800000,   0.03360,
,,,-00.000384600000,   0.03280,
,,,-00.000384400000,   0.03280,
,,,-00.000384200000,   0.03360,
,,,-00.000384000000,   0.03360,
,,,-00.000383800000,   0.03440,
,,,-00.000383600000,   0.03440,
,,,-00.000383400000,   0.03520,
,,,-00.000383200000,   0.03520,
,,,-00.000383000000,   0.03440,
,,,-00.000382800000,   0.03520,
,,,-00.000382600000,   0.03520,
,,,-00.000382400000,   0.03520,
,,,-00.000382200000,   0.03520,
,,,-00.000382000000,   0.03600,
,,,-00.000381800000,   0.03520,
,,,-00.000381600000,   0.03600,
,,,-00.000381400000,   0.03600,
,,,-00.000381200000,   0.03600,
,,,-00.000381000000,   0.03600,
,,,-00.000380800000,   0.03600,
,,,-00.000380600000,   0.03680,
,,,-00.000380400000,   0.03680,
,,,-00.000380200000,   0.03600,
,,,-00.000380000000,   0.03680,
,,,-00.000379800000,   0.03760,
,,,-00.000379600000,   0.03760,
,,,-00.000379400000,   0.03760,
,,,-00.000379200000,   0.03760,
,,,-00.000379000000,   0.03680,
,,,-00.000378800000,   0.03760,
,,,-00.000378600000,   0.03760,
,,,-00.000378400000,   0.03840,
,,,-00.000378200000,   0.03840,
,,,-00.000378000000,   0.03840,
,,,-00.000377800000,   0.03840,
,,,-00.000377600000,   0.03760,
,,,-00.000377400000,   0.03920,
,,,-00.000377200000,   0.03920,
,,,-00.000377000000,   0.03920,
,,,-00.000376800000,   0.03840,
,,,-00.000376600000,   0.03840,
,,,-00.000376400000,   0.03920,
,,,-00.000376200000,   0.03920,
,,,-00.000376000000,   0.03920,
,,,-00.000375800000,   0.03920,
,,,-00.000375600000,   0.03920,
,,,-00.000375400000,   0.04000,
,,,-00.000375200000,   0.04000,
,,,-00.000375000000,   0.04000,
,,,-00.000374800000,   0.04080,
,,,-00.000374600000,   0.04000,
,,,-00.000374400000,   0.04000,
,,,-00.000374200000,   0.04000,
,,,-00.000374000000,   0.04080,
,,,-00.000373800000,   0.04080,
,,,-00.000373600000,   0.04080,
,,,-00.000373400000,   0.04080,
,,,-00.000373200000,   0.04080,
,,,-00.000373000000,   0.04160,
,,,-00.000372800000,   0.04160,
,,,-00.000372600000,   0.04160,
,,,-00.000372400000,   0.04160,
,,,-00.000372200000,   0.04160,
,,,-00.000372000000,   0.04160,
,,,-00.000371800000,   0.04160,
,,,-00.000371600000,   0.04160,
,,,-00.000371400000,   0.04240,
,,,-00.000371200000,   0.04240,
,,,-00.000371000000,   0.04240,
,,,-00.000370800000,   0.04240,
,,,-00.000370600000,   0.04240,
,,,-00.000370400000,   0.04240,
,,,-00.000370200000,   0.04240,
,,,-00.000370000000,   0.04240,
,,,-00.000369800000,   0.04320,
,,,-00.000369600000,   0.04320,
,,,-00.000369400000,   0.04320,
,,,-00.000369200000,   0.04320,
,,,-00.000369000000,   0.04320,
,,,-00.000368800000,   0.04320,
,,,-00.000368600000,   0.04240,
,,,-00.000368400000,   0.04320,
,,,-00.000368200000,   0.04320,
,,,-00.000368000000,   0.04320,
,,,-00.000367800000,   0.04320,
,,,-00.000367600000,   0.04320,
,,,-00.000367400000,   0.04320,
,,,-00.000367200000,   0.04320,
,,,-00.000367000000,   0.04320,
,,,-00.000366800000,   0.04320,
,,,-00.000366600000,   0.04320,
,,,-00.000366400000,   0.04320,
,,,-00.000366200000,   0.04320,
,,,-00.000366000000,   0.04400,
,,,-00.000365800000,   0.04320,
,,,-00.000365600000,   0.04320,
,,,-00.000365400000,   0.04320,
,,,-00.000365200000,   0.04320,
,,,-00.000365000000,   0.04320,
,,,-00.000364800000,   0.04400,
,,,-00.000364600000,   0.04320,
,,,-00.000364400000,   0.04400,
,,,-00.000364200000,   0.04320,
,,,-00.000364000000,   0.04400,
,,,-00.000363800000,   0.04400,
,,,-00.000363600000,   0.04320,
,,,-00.000363400000,   0.04400,
,,,-00.000363200000,   0.04400,
,,,-00.000363000000,   0.04400,
,,,-00.000362800000,   0.04400,
,,,-00.000362600000,   0.04400,
,,,-00.000362400000,   0.04400,
,,,-00.000362200000,   0.04400,
,,,-00.000362000000,   0.04400,
,,,-00.000361800000,   0.04400,
,,,-00.000361600000,   0.04400,
,,,-00.000361400000,   0.04320,
,,,-00.000361200000,   0.04400,
,,,-00.000361000000,   0.04400,
,,,-00.000360800000,   0.04400,
,,,-00.000360600000,   0.04400,
,,,-00.000360400000,   0.04400,
,,,-00.000360200000,   0.04400,
,,,-00.000360000000,   0.04400,
,,,-00.000359800000,   0.04400,
,,,-00.000359600000,   0.04400,
,,,-00.000359400000,   0.04400,
,,,-00.000359200000,   0.04400,
,,,-00.000359000000,   0.04400,
,,,-00.000358800000,   0.04400,
,,,-00.000358600000,   0.04400,
,,,-00.000358400000,   0.04400,
,,,-00.000358200000,   0.04480,
,,,-00.000358000000,   0.04400,
,,,-00.000357800000,   0.04400,
,,,-00.000357600000,   0.04400,
,,,-00.000357400000,   0.04400,
,,,-00.000357200000,   0.04320,
,,,-00.000357000000,   0.04400,
,,,-00.000356800000,   0.04320,
,,,-00.000356600000,   0.04400,
,,,-00.000356400000,   0.04400,
,,,-00.000356200000,   0.04320,
,,,-00.000356000000,   0.04400,
,,,-00.000355800000,   0.04400,
,,,-00.000355600000,   0.04320,
,,,-00.000355400000,   0.04400,
,,,-00.000355200000,   0.04320,
,,,-00.000355000000,   0.04400,
,,,-00.000354800000,   0.04400,
,,,-00.000354600000,   0.04320,
,,,-00.000354400000,   0.04320,
,,,-00.000354200000,   0.04320,
,,,-00.000354000000,   0.04320,
,,,-00.000353800000,   0.04320,
,,,-00.000353600000,   0.04240,
,,,-00.000353400000,   0.04320,
,,,-00.000353200000,   0.04320,
,,,-00.000353000000,   0.04320,
,,,-00.000352800000,   0.04240,
,,,-00.000352600000,   0.04320,
,,,-00.000352400000,   0.04240,
,,,-00.000352200000,   0.04240,
,,,-00.000352000000,   0.04240,
,,,-00.000351800000,   0.04240,
,,,-00.000351600000,   0.04240,
,,,-00.000351400000,   0.04320,
,,,-00.000351200000,   0.04240,
,,,-00.000351000000,   0.04240,
,,,-00.000350800000,   0.04160,
,,,-00.000350600000,   0.04160,
,,,-00.000350400000,   0.04240,
,,,-00.000350200000,   0.04160,
,,,-00.000350000000,   0.04160,
,,,-00.000349800000,   0.04160,
,,,-00.000349600000,   0.04160,
,,,-00.000349400000,   0.04160,
,,,-00.000349200000,   0.04160,
,,,-00.000349000000,   0.04160,
,,,-00.000348800000,   0.04160,
,,,-00.000348600000,   0.04160,
,,,-00.000348400000,   0.04160,
,,,-00.000348200000,   0.04080,
,,,-00.000348000000,   0.04160,
,,,-00.000347800000,   0.04160,
,,,-00.000347600000,   0.04080,
,,,-00.000347400000,   0.04080,
,,,-00.000347200000,   0.04080,
,,,-00.000347000000,   0.04080,
,,,-00.000346800000,   0.03920,
,,,-00.000346600000,   0.04000,
,,,-00.000346400000,   0.04080,
,,,-00.000346200000,   0.04000,
,,,-00.000346000000,   0.04000,
,,,-00.000345800000,   0.04000,
,,,-00.000345600000,   0.04000,
,,,-00.000345400000,   0.03920,
,,,-00.000345200000,   0.04000,
,,,-00.000345000000,   0.03920,
,,,-00.000344800000,   0.03920,
,,,-00.000344600000,   0.03920,
,,,-00.000344400000,   0.03920,
,,,-00.000344200000,   0.03920,
,,,-00.000344000000,   0.03840,
,,,-00.000343800000,   0.03920,
,,,-00.000343600000,   0.03840,
,,,-00.000343400000,   0.03840,
,,,-00.000343200000,   0.03840,
,,,-00.000343000000,   0.03840,
,,,-00.000342800000,   0.03760,
,,,-00.000342600000,   0.03840,
,,,-00.000342400000,   0.03760,
,,,-00.000342200000,   0.03760,
,,,-00.000342000000,   0.03760,
,,,-00.000341800000,   0.03760,
,,,-00.000341600000,   0.03680,
,,,-00.000341400000,   0.03680,
,,,-00.000341200000,   0.03680,
,,,-00.000341000000,   0.03680,
,,,-00.000340800000,   0.03680,
,,,-00.000340600000,   0.03680,
,,,-00.000340400000,   0.03600,
,,,-00.000340200000,   0.03600,
,,,-00.000340000000,   0.03600,
,,,-00.000339800000,   0.03600,
,,,-00.000339600000,   0.03520,
,,,-00.000339400000,   0.03520,
,,,-00.000339200000,   0.03520,
,,,-00.000339000000,   0.03520,
,,,-00.000338800000,   0.03520,
,,,-00.000338600000,   0.03440,
,,,-00.000338400000,   0.03520,
,,,-00.000338200000,   0.03440,
,,,-00.000338000000,   0.03440,
,,,-00.000337800000,   0.03440,
,,,-00.000337600000,   0.03440,
,,,-00.000337400000,   0.03360,
,,,-00.000337200000,   0.03440,
,,,-00.000337000000,   0.03360,
,,,-00.000336800000,   0.03280,
,,,-00.000336600000,   0.03280,
,,,-00.000336400000,   0.03280,
,,,-00.000336200000,   0.03280,
,,,-00.000336000000,   0.03280,
,,,-00.000335800000,   0.03280,
,,,-00.000335600000,   0.03280,
,,,-00.000335400000,   0.03200,
,,,-00.000335200000,   0.03280,
,,,-00.000335000000,   0.03200,
,,,-00.000334800000,   0.03200,
,,,-00.000334600000,   0.03200,
,,,-00.000334400000,   0.03120,
,,,-00.000334200000,   0.03120,
,,,-00.000334000000,   0.03120,
,,,-00.000333800000,   0.03040,
,,,-00.000333600000,   0.03040,
,,,-00.000333400000,   0.03040,
,,,-00.000333200000,   0.03040,
,,,-00.000333000000,   0.03040,
,,,-00.000332800000,   0.03040,
,,,-00.000332600000,   0.02960,
,,,-00.000332400000,   0.02960,
,,,-00.000332200000,   0.02960,
,,,-00.000332000000,   0.02880,
,,,-00.000331800000,   0.02880,
,,,-00.000331600000,   0.02880,
,,,-00.000331400000,   0.02880,
,,,-00.000331200000,   0.02800,
,,,-00.000331000000,   0.02800,
,,,-00.000330800000,   0.02880,
,,,-00.000330600000,   0.02800,
,,,-00.000330400000,   0.02720,
,,,-00.000330200000,   0.02720,
,,,-00.000330000000,   0.02720,
,,,-00.000329800000,   0.02720,
,,,-00.000329600000,   0.02720,
,,,-00.000329400000,   0.02640,
,,,-00.000329200000,   0.02640,
,,,-00.000329000000,   0.02640,
,,,-00.000328800000,   0.02640,
,,,-00.000328600000,   0.02560,
,,,-00.000328400000,   0.02560,
,,,-00.000328200000,   0.02560,
,,,-00.000328000000,   0.02480,
,,,-00.000327800000,   0.02480,
,,,-00.000327600000,   0.02480,
,,,-00.000327400000,   0.02400,
