data-source/28-10-21/ALL0010/F0010CH1.CSV

Record Length,2.500000e+03,,   1.795550000000,  -2.56000,
Sample Interval,1.000000e-06,,   1.795551000000,  -2.56000,
Trigger Point,-1.795550000000e+06,,   1.795552000000,  -2.58000,
,,,   1.795553000000,  -2.58000,
,,,   1.795554000000,  -2.58000,
,,,   1.795555000000,  -2.56000,
Source,CH1,,   1.795556000000,  -2.56000,
Vertical Units,V,,   1.795557000000,  -2.56000,
Vertical Scale,5.000000e-01,,   1.795558000000,  -2.56000,
Vertical Offset,1.540000e+00,,   1.795559000000,  -2.56000,
Horizontal Units,s,,   1.795560000000,  -2.56000,
Horizontal Scale,2.500000e-04,,   1.795561000000,  -2.56000,
Pt Fmt,Y,,   1.795562000000,  -2.58000,
Yzero,0.000000e+00,,   1.795563000000,  -2.56000,
Probe Atten,1.000000e+01,,   1.795564000000,  -2.58000,
Model Number,TBS1104,,   1.795565000000,  -2.58000,
Serial Number,C014641,,   1.795566000000,  -2.58000,
Firmware Version,FV:v26.05,,   1.795567000000,  -2.58000,
,,,1.795568000000,  -2.58000,
,,,1.795569000000,  -2.58000,
,,,1.795570000000,  -2.58000,
,,,1.795571000000,  -2.56000,
,,,1.795572000000,  -2.56000,
,,,1.795573000000,  -2.58000,
,,,1.795574000000,  -2.58000,
,,,1.795575000000,  -2.58000,
,,,1.795576000000,  -2.56000,
,,,1.795577000000,  -2.56000,
,,,1.795578000000,  -2.58000,
,,,1.795579000000,  -2.54000,
,,,1.795580000000,  -2.58000,
,,,1.795581000000,  -2.56000,
,,,1.795582000000,  -2.58000,
,,,1.795583000000,  -2.56000,
,,,1.795584000000,  -2.56000,
,,,1.795585000000,  -2.56000,
,,,1.795586000000,  -2.56000,
,,,1.795587000000,  -2.58000,
,,,1.795588000000,  -2.58000,
,,,1.795589000000,  -2.58000,
,,,1.795590000000,  -2.58000,
,,,1.795591000000,  -2.56000,
,,,1.795592000000,  -2.56000,
,,,1.795593000000,  -2.58000,
,,,1.795594000000,  -2.58000,
,,,1.795595000000,  -2.58000,
,,,1.795596000000,  -2.56000,
,,,1.795597000000,  -2.56000,
,,,1.795598000000,  -2.58000,
,,,1.795599000000,  -2.58000,
,,,1.795600000000,  -2.58000,
,,,1.795601000000,  -2.58000,
,,,1.795602000000,  -2.56000,
,,,1.795603000000,  -2.56000,
,,,1.795604000000,  -2.56000,
,,,1.795605000000,  -2.56000,
,,,1.795606000000,  -2.58000,
,,,1.795607000000,  -2.58000,
,,,1.795608000000,  -2.56000,
,,,1.795609000000,  -2.56000,
,,,1.795610000000,  -2.56000,
,,,1.795611000000,  -2.56000,
,,,1.795612000000,  -2.58000,
,,,1.795613000000,  -2.58000,
,,,1.795614000000,  -2.58000,
,,,1.795615000000,  -2.56000,
,,,1.795616000000,  -2.58000,
,,,1.795617000000,  -2.56000,
,,,1.795618000000,  -2.56000,
,,,1.795619000000,  -2.58000,
,,,1.795620000000,  -2.60000,
,,,1.795621000000,  -2.56000,
,,,1.795622000000,  -2.58000,
,,,1.795623000000,  -2.56000,
,,,1.795624000000,  -2.56000,
,,,1.795625000000,  -2.56000,
,,,1.795626000000,  -2.58000,
,,,1.795627000000,  -2.56000,
,,,1.795628000000,  -2.56000,
,,,1.795629000000,  -2.56000,
,,,1.795630000000,  -2.56000,
,,,1.795631000000,  -2.58000,
,,,1.795632000000,  -2.56000,
,,,1.795633000000,  -2.58000,
,,,1.795634000000,  -2.56000,
,,,1.795635000000,  -2.58000,
,,,1.795636000000,  -2.56000,
,,,1.795637000000,  -2.58000,
,,,1.795638000000,  -2.58000,
,,,1.795639000000,  -2.56000,
,,,1.795640000000,  -2.58000,
,,,1.795641000000,  -2.56000,
,,,1.795642000000,  -2.58000,
,,,1.795643000000,  -2.56000,
,,,1.795644000000,  -2.56000,
,,,1.795645000000,  -2.58000,
,,,1.795646000000,  -2.58000,
,,,1.795647000000,  -2.58000,
,,,1.795648000000,  -2.56000,
,,,1.795649000000,  -2.56000,
,,,1.795650000000,  -2.58000,
,,,1.795651000000,  -2.56000,
,,,1.795652000000,  -2.58000,
,,,1.795653000000,  -2.58000,
,,,1.795654000000,  -2.58000,
,,,1.795655000000,  -2.56000,
,,,1.795656000000,  -2.58000,
,,,1.795657000000,  -2.58000,
,,,1.795658000000,  -2.58000,
,,,1.795659000000,  -2.56000,
,,,1.795660000000,  -2.58000,
,,,1.795661000000,  -2.58000,
,,,1.795662000000,  -2.56000,
,,,1.795663000000,  -2.58000,
,,,1.795664000000,  -2.56000,
,,,1.795665000000,  -2.58000,
,,,1.795666000000,  -2.56000,
,,,1.795667000000,  -2.58000,
,,,1.795668000000,  -2.56000,
,,,1.795669000000,  -2.56000,
,,,1.795670000000,  -2.58000,
,,,1.795671000000,  -2.56000,
,,,1.795672000000,  -2.56000,
,,,1.795673000000,  -2.58000,
,,,1.795674000000,  -2.56000,
,,,1.795675000000,  -2.56000,
,,,1.795676000000,  -2.56000,
,,,1.795677000000,  -2.56000,
,,,1.795678000000,  -2.56000,
,,,1.795679000000,  -2.58000,
,,,1.795680000000,  -2.56000,
,,,1.795681000000,  -2.58000,
,,,1.795682000000,  -2.58000,
,,,1.795683000000,  -2.56000,
,,,1.795684000000,  -2.56000,
,,,1.795685000000,  -2.56000,
,,,1.795686000000,  -2.56000,
,,,1.795687000000,  -2.56000,
,,,1.795688000000,  -2.58000,
,,,1.795689000000,  -2.20000,
,,,1.795690000000,  -2.16000,
,,,1.795691000000,  -2.16000,
,,,1.795692000000,  -2.16000,
,,,1.795693000000,  -2.14000,
,,,1.795694000000,  -2.16000,
,,,1.795695000000,  -2.14000,
,,,1.795696000000,  -2.16000,
,,,1.795697000000,  -2.18000,
,,,1.795698000000,  -2.16000,
,,,1.795699000000,  -2.16000,
,,,1.795700000000,  -2.16000,
,,,1.795701000000,  -2.18000,
,,,1.795702000000,  -2.16000,
,,,1.795703000000,  -2.16000,
,,,1.795704000000,  -2.16000,
,,,1.795705000000,  -2.20000,
,,,1.795706000000,  -2.16000,
,,,1.795707000000,  -2.14000,
,,,1.795708000000,  -2.16000,
,,,1.795709000000,  -2.16000,
,,,1.795710000000,  -2.16000,
,,,1.795711000000,  -2.16000,
,,,1.795712000000,  -2.16000,
,,,1.795713000000,  -2.14000,
,,,1.795714000000,  -2.16000,
,,,1.795715000000,  -2.16000,
,,,1.795716000000,  -2.16000,
,,,1.795717000000,  -2.14000,
,,,1.795718000000,  -2.14000,
,,,1.795719000000,  -2.16000,
,,,1.795720000000,  -2.16000,
,,,1.795721000000,  -2.16000,
,,,1.795722000000,  -2.16000,
,,,1.795723000000,  -2.14000,
,,,1.795724000000,  -2.16000,
,,,1.795725000000,  -2.16000,
,,,1.795726000000,  -2.16000,
,,,1.795727000000,  -2.16000,
,,,1.795728000000,  -2.16000,
,,,1.795729000000,  -2.16000,
,,,1.795730000000,  -2.14000,
,,,1.795731000000,  -2.16000,
,,,1.795732000000,  -2.16000,
,,,1.795733000000,  -2.16000,
,,,1.795734000000,  -2.14000,
,,,1.795735000000,  -2.14000,
,,,1.795736000000,  -2.16000,
,,,1.795737000000,  -2.14000,
,,,1.795738000000,  -2.16000,
,,,1.795739000000,  -2.14000,
,,,1.795740000000,  -2.16000,
,,,1.795741000000,  -2.16000,
,,,1.795742000000,  -2.16000,
,,,1.795743000000,  -2.16000,
,,,1.795744000000,  -2.16000,
,,,1.795745000000,  -2.16000,
,,,1.795746000000,  -2.16000,
,,,1.795747000000,  -2.16000,
,,,1.795748000000,  -2.16000,
,,,1.795749000000,  -2.16000,
,,,1.795750000000,  -2.14000,
,,,1.795751000000,  -2.16000,
,,,1.795752000000,  -2.16000,
,,,1.795753000000,  -2.16000,
,,,1.795754000000,  -2.16000,
,,,1.795755000000,  -2.16000,
,,,1.795756000000,  -2.16000,
,,,1.795757000000,  -2.16000,
,,,1.795758000000,  -2.16000,
,,,1.795759000000,  -2.16000,
,,,1.795760000000,  -2.16000,
,,,1.795761000000,  -2.16000,
,,,1.795762000000,  -2.16000,
,,,1.795763000000,  -2.16000,
,,,1.795764000000,  -2.16000,
,,,1.795765000000,  -2.16000,
,,,1.795766000000,  -2.16000,
,,,1.795767000000,  -2.16000,
,,,1.795768000000,  -2.16000,
,,,1.795769000000,  -2.14000,
,,,1.795770000000,  -2.16000,
,,,1.795771000000,  -2.16000,
,,,1.795772000000,  -2.14000,
,,,1.795773000000,  -2.16000,
,,,1.795774000000,  -2.16000,
,,,1.795775000000,  -2.16000,
,,,1.795776000000,  -2.16000,
,,,1.795777000000,  -2.16000,
,,,1.795778000000,  -2.16000,
,,,1.795779000000,  -2.16000,
,,,1.795780000000,  -2.16000,
,,,1.795781000000,  -2.16000,
,,,1.795782000000,  -2.16000,
,,,1.795783000000,  -2.16000,
,,,1.795784000000,  -2.16000,
,,,1.795785000000,  -2.16000,
,,,1.795786000000,  -2.16000,
,,,1.795787000000,  -2.16000,
,,,1.795788000000,  -2.16000,
,,,1.795789000000,  -2.16000,
,,,1.795790000000,  -2.16000,
,,,1.795791000000,  -2.14000,
,,,1.795792000000,  -2.16000,
,,,1.795793000000,  -2.14000,
,,,1.795794000000,  -2.16000,
,,,1.795795000000,  -2.16000,
,,,1.795796000000,  -2.16000,
,,,1.795797000000,  -2.16000,
,,,1.795798000000,  -2.16000,
,,,1.795799000000,  -2.16000,
,,,1.795800000000,  -2.16000,
,,,1.795801000000,  -2.16000,
,,,1.795802000000,  -2.16000,
,,,1.795803000000,  -2.16000,
,,,1.795804000000,  -2.16000,
,,,1.795805000000,  -2.16000,
,,,1.795806000000,  -2.14000,
,,,1.795807000000,  -2.16000,
,,,1.795808000000,  -2.14000,
,,,1.795809000000,  -2.16000,
,,,1.795810000000,  -2.16000,
,,,1.795811000000,  -2.14000,
,,,1.795812000000,  -2.14000,
,,,1.795813000000,  -2.16000,
,,,1.795814000000,  -2.14000,
,,,1.795815000000,  -2.16000,
,,,1.795816000000,  -2.16000,
,,,1.795817000000,  -2.14000,
,,,1.795818000000,  -2.14000,
,,,1.795819000000,  -2.16000,
,,,1.795820000000,  -2.16000,
,,,1.795821000000,  -2.16000,
,,,1.795822000000,  -2.16000,
,,,1.795823000000,  -2.16000,
,,,1.795824000000,  -2.14000,
,,,1.795825000000,  -2.16000,
,,,1.795826000000,  -2.16000,
,,,1.795827000000,  -2.14000,
,,,1.795828000000,  -2.16000,
,,,1.795829000000,  -2.16000,
,,,1.795830000000,  -2.16000,
,,,1.795831000000,  -2.16000,
,,,1.795832000000,  -2.16000,
,,,1.795833000000,  -2.16000,
,,,1.795834000000,  -2.16000,
,,,1.795835000000,  -2.16000,
,,,1.795836000000,  -2.14000,
,,,1.795837000000,  -2.16000,
,,,1.795838000000,  -2.14000,
,,,1.795839000000,  -2.14000,
,,,1.795840000000,  -2.14000,
,,,1.795841000000,  -2.16000,
,,,1.795842000000,  -2.16000,
,,,1.795843000000,  -2.16000,
,,,1.795844000000,  -2.16000,
,,,1.795845000000,  -2.16000,
,,,1.795846000000,  -2.16000,
,,,1.795847000000,  -2.16000,
,,,1.795848000000,  -2.16000,
,,,1.795849000000,  -2.14000,
,,,1.795850000000,  -2.16000,
,,,1.795851000000,  -2.16000,
,,,1.795852000000,  -2.14000,
,,,1.795853000000,  -2.16000,
,,,1.795854000000,  -2.14000,
,,,1.795855000000,  -2.16000,
,,,1.795856000000,  -2.12000,
,,,1.795857000000,  -2.16000,
,,,1.795858000000,  -2.16000,
,,,1.795859000000,  -2.16000,
,,,1.795860000000,  -2.14000,
,,,1.795861000000,  -2.16000,
,,,1.795862000000,  -2.16000,
,,,1.795863000000,  -2.16000,
,,,1.795864000000,  -2.14000,
,,,1.795865000000,  -2.14000,
,,,1.795866000000,  -2.16000,
,,,1.795867000000,  -2.16000,
,,,1.795868000000,  -2.14000,
,,,1.795869000000,  -2.16000,
,,,1.795870000000,  -2.16000,
,,,1.795871000000,  -2.16000,
,,,1.795872000000,  -2.16000,
,,,1.795873000000,  -2.14000,
,,,1.795874000000,  -2.14000,
,,,1.795875000000,  -2.16000,
,,,1.795876000000,  -2.16000,
,,,1.795877000000,  -2.16000,
,,,1.795878000000,  -2.16000,
,,,1.795879000000,  -2.16000,
,,,1.795880000000,  -2.14000,
,,,1.795881000000,  -2.16000,
,,,1.795882000000,  -2.16000,
,,,1.795883000000,  -2.16000,
,,,1.795884000000,  -2.16000,
,,,1.795885000000,  -2.16000,
,,,1.795886000000,  -2.16000,
,,,1.795887000000,  -2.16000,
,,,1.795888000000,  -2.16000,
,,,1.795889000000,  -2.36000,
,,,1.795890000000,  -2.38000,
,,,1.795891000000,  -2.36000,
,,,1.795892000000,  -2.36000,
,,,1.795893000000,  -2.36000,
,,,1.795894000000,  -2.36000,
,,,1.795895000000,  -2.36000,
,,,1.795896000000,  -2.34000,
,,,1.795897000000,  -2.38000,
,,,1.795898000000,  -2.34000,
,,,1.795899000000,  -2.34000,
,,,1.795900000000,  -2.36000,
,,,1.795901000000,  -2.36000,
,,,1.795902000000,  -2.36000,
,,,1.795903000000,  -2.36000,
,,,1.795904000000,  -2.36000,
,,,1.795905000000,  -2.38000,
,,,1.795906000000,  -2.38000,
,,,1.795907000000,  -2.36000,
,,,1.795908000000,  -2.36000,
,,,1.795909000000,  -2.36000,
,,,1.795910000000,  -2.36000,
,,,1.795911000000,  -2.36000,
,,,1.795912000000,  -2.38000,
,,,1.795913000000,  -2.34000,
,,,1.795914000000,  -2.34000,
,,,1.795915000000,  -2.36000,
,,,1.795916000000,  -2.36000,
,,,1.795917000000,  -2.36000,
,,,1.795918000000,  -2.36000,
,,,1.795919000000,  -2.34000,
,,,1.795920000000,  -2.36000,
,,,1.795921000000,  -2.36000,
,,,1.795922000000,  -2.38000,
,,,1.795923000000,  -2.36000,
,,,1.795924000000,  -2.36000,
,,,1.795925000000,  -2.36000,
,,,1.795926000000,  -2.36000,
,,,1.795927000000,  -2.36000,
,,,1.795928000000,  -2.38000,
,,,1.795929000000,  -2.36000,
,,,1.795930000000,  -2.36000,
,,,1.795931000000,  -2.36000,
,,,1.795932000000,  -2.36000,
,,,1.795933000000,  -2.36000,
,,,1.795934000000,  -2.36000,
,,,1.795935000000,  -2.38000,
,,,1.795936000000,  -2.36000,
,,,1.795937000000,  -2.36000,
,,,1.795938000000,  -2.34000,
,,,1.795939000000,  -2.38000,
,,,1.795940000000,  -2.38000,
,,,1.795941000000,  -2.36000,
,,,1.795942000000,  -2.36000,
,,,1.795943000000,  -2.36000,
,,,1.795944000000,  -2.36000,
,,,1.795945000000,  -2.36000,
,,,1.795946000000,  -2.36000,
,,,1.795947000000,  -2.36000,
,,,1.795948000000,  -2.36000,
,,,1.795949000000,  -2.36000,
,,,1.795950000000,  -2.38000,
,,,1.795951000000,  -2.36000,
,,,1.795952000000,  -2.36000,
,,,1.795953000000,  -2.34000,
,,,1.795954000000,  -2.36000,
,,,1.795955000000,  -2.36000,
,,,1.795956000000,  -2.36000,
,,,1.795957000000,  -2.36000,
,,,1.795958000000,  -2.36000,
,,,1.795959000000,  -2.38000,
,,,1.795960000000,  -2.36000,
,,,1.795961000000,  -2.36000,
,,,1.795962000000,  -2.36000,
,,,1.795963000000,  -2.34000,
,,,1.795964000000,  -2.36000,
,,,1.795965000000,  -2.36000,
,,,1.795966000000,  -2.38000,
,,,1.795967000000,  -2.38000,
,,,1.795968000000,  -2.36000,
,,,1.795969000000,  -2.36000,
,,,1.795970000000,  -2.36000,
,,,1.795971000000,  -2.36000,
,,,1.795972000000,  -2.36000,
,,,1.795973000000,  -2.38000,
,,,1.795974000000,  -2.36000,
,,,1.795975000000,  -2.36000,
,,,1.795976000000,  -2.36000,
,,,1.795977000000,  -2.38000,
,,,1.795978000000,  -2.34000,
,,,1.795979000000,  -2.36000,
,,,1.795980000000,  -2.36000,
,,,1.795981000000,  -2.36000,
,,,1.795982000000,  -2.36000,
,,,1.795983000000,  -2.36000,
,,,1.795984000000,  -2.36000,
,,,1.795985000000,  -2.36000,
,,,1.795986000000,  -2.36000,
,,,1.795987000000,  -2.36000,
,,,1.795988000000,  -2.36000,
,,,1.795989000000,  -2.34000,
,,,1.795990000000,  -2.36000,
,,,1.795991000000,  -2.36000,
,,,1.795992000000,  -2.36000,
,,,1.795993000000,  -2.34000,
,,,1.795994000000,  -2.36000,
,,,1.795995000000,  -2.36000,
,,,1.795996000000,  -2.36000,
,,,1.795997000000,  -2.36000,
,,,1.795998000000,  -2.36000,
,,,1.795999000000,  -2.38000,
,,,1.796000000000,  -2.36000,
,,,1.796001000000,  -2.36000,
,,,1.796002000000,  -2.36000,
,,,1.796003000000,  -2.36000,
,,,1.796004000000,  -2.34000,
,,,1.796005000000,  -2.38000,
,,,1.796006000000,  -2.36000,
,,,1.796007000000,  -2.38000,
,,,1.796008000000,  -2.36000,
,,,1.796009000000,  -2.36000,
,,,1.796010000000,  -2.34000,
,,,1.796011000000,  -2.36000,
,,,1.796012000000,  -2.36000,
,,,1.796013000000,  -2.34000,
,,,1.796014000000,  -2.36000,
,,,1.796015000000,  -2.36000,
,,,1.796016000000,  -2.38000,
,,,1.796017000000,  -2.36000,
,,,1.796018000000,  -2.36000,
,,,1.796019000000,  -2.36000,
,,,1.796020000000,  -2.34000,
,,,1.796021000000,  -2.36000,
,,,1.796022000000,  -2.36000,
,,,1.796023000000,  -2.36000,
,,,1.796024000000,  -2.36000,
,,,1.796025000000,  -2.38000,
,,,1.796026000000,  -2.36000,
,,,1.796027000000,  -2.38000,
,,,1.796028000000,  -2.38000,
,,,1.796029000000,  -2.36000,
,,,1.796030000000,  -2.36000,
,,,1.796031000000,  -2.34000,
,,,1.796032000000,  -2.36000,
,,,1.796033000000,  -2.34000,
,,,1.796034000000,  -2.36000,
,,,1.796035000000,  -2.36000,
,,,1.796036000000,  -2.38000,
,,,1.796037000000,  -2.34000,
,,,1.796038000000,  -2.38000,
,,,1.796039000000,  -2.38000,
,,,1.796040000000,  -2.36000,
,,,1.796041000000,  -2.36000,
,,,1.796042000000,  -2.36000,
,,,1.796043000000,  -2.36000,
,,,1.796044000000,  -2.36000,
,,,1.796045000000,  -2.36000,
,,,1.796046000000,  -2.36000,
,,,1.796047000000,  -2.38000,
,,,1.796048000000,  -2.36000,
,,,1.796049000000,  -2.36000,
,,,1.796050000000,  -2.36000,
,,,1.796051000000,  -2.36000,
,,,1.796052000000,  -2.36000,
,,,1.796053000000,  -2.36000,
,,,1.796054000000,  -2.36000,
,,,1.796055000000,  -2.36000,
,,,1.796056000000,  -2.36000,
,,,1.796057000000,  -2.36000,
,,,1.796058000000,  -2.36000,
,,,1.796059000000,  -2.36000,
,,,1.796060000000,  -2.36000,
,,,1.796061000000,  -2.34000,
,,,1.796062000000,  -2.36000,
,,,1.796063000000,  -2.36000,
,,,1.796064000000,  -2.36000,
,,,1.796065000000,  -2.36000,
,,,1.796066000000,  -2.36000,
,,,1.796067000000,  -2.36000,
,,,1.796068000000,  -2.36000,
,,,1.796069000000,  -2.38000,
,,,1.796070000000,  -2.36000,
,,,1.796071000000,  -2.34000,
,,,1.796072000000,  -2.36000,
,,,1.796073000000,  -2.34000,
,,,1.796074000000,  -2.36000,
,,,1.796075000000,  -2.36000,
,,,1.796076000000,  -2.36000,
,,,1.796077000000,  -2.36000,
,,,1.796078000000,  -2.36000,
,,,1.796079000000,  -2.36000,
,,,1.796080000000,  -2.36000,
,,,1.796081000000,  -2.36000,
,,,1.796082000000,  -2.36000,
,,,1.796083000000,  -2.34000,
,,,1.796084000000,  -2.36000,
,,,1.796085000000,  -2.36000,
,,,1.796086000000,  -2.36000,
,,,1.796087000000,  -2.36000,
,,,1.796088000000,  -2.36000,
,,,1.796089000000,  -2.36000,
,,,1.796090000000,  -2.36000,
,,,1.796091000000,  -2.36000,
,,,1.796092000000,  -2.36000,
,,,1.796093000000,  -2.36000,
,,,1.796094000000,  -2.36000,
,,,1.796095000000,  -2.36000,
,,,1.796096000000,  -2.34000,
,,,1.796097000000,  -2.36000,
,,,1.796098000000,  -2.36000,
,,,1.796099000000,  -2.36000,
,,,1.796100000000,  -2.36000,
,,,1.796101000000,  -2.38000,
,,,1.796102000000,  -2.38000,
,,,1.796103000000,  -2.34000,
,,,1.796104000000,  -2.38000,
,,,1.796105000000,  -2.36000,
,,,1.796106000000,  -2.38000,
,,,1.796107000000,  -2.36000,
,,,1.796108000000,  -2.36000,
,,,1.796109000000,  -2.36000,
,,,1.796110000000,  -2.36000,
,,,1.796111000000,  -2.38000,
,,,1.796112000000,  -2.36000,
,,,1.796113000000,  -2.36000,
,,,1.796114000000,  -2.36000,
,,,1.796115000000,  -2.34000,
,,,1.796116000000,  -2.36000,
,,,1.796117000000,  -2.38000,
,,,1.796118000000,  -2.36000,
,,,1.796119000000,  -2.38000,
,,,1.796120000000,  -2.36000,
,,,1.796121000000,  -2.36000,
,,,1.796122000000,  -2.38000,
,,,1.796123000000,  -2.36000,
,,,1.796124000000,  -2.36000,
,,,1.796125000000,  -2.38000,
,,,1.796126000000,  -2.36000,
,,,1.796127000000,  -2.34000,
,,,1.796128000000,  -2.36000,
,,,1.796129000000,  -2.38000,
,,,1.796130000000,  -2.38000,
,,,1.796131000000,  -2.36000,
,,,1.796132000000,  -2.38000,
,,,1.796133000000,  -2.38000,
,,,1.796134000000,  -2.36000,
,,,1.796135000000,  -2.38000,
,,,1.796136000000,  -2.36000,
,,,1.796137000000,  -2.34000,
,,,1.796138000000,  -2.36000,
,,,1.796139000000,  -2.38000,
,,,1.796140000000,  -2.36000,
,,,1.796141000000,  -2.36000,
,,,1.796142000000,  -2.36000,
,,,1.796143000000,  -2.34000,
,,,1.796144000000,  -2.36000,
,,,1.796145000000,  -2.36000,
,,,1.796146000000,  -2.36000,
,,,1.796147000000,  -2.36000,
,,,1.796148000000,  -2.38000,
,,,1.796149000000,  -2.36000,
,,,1.796150000000,  -2.36000,
,,,1.796151000000,  -2.38000,
,,,1.796152000000,  -2.38000,
,,,1.796153000000,  -2.30000,
,,,1.796154000000,  -2.38000,
,,,1.796155000000,  -2.36000,
,,,1.796156000000,  -2.34000,
,,,1.796157000000,  -2.36000,
,,,1.796158000000,  -2.36000,
,,,1.796159000000,  -2.38000,
,,,1.796160000000,  -2.36000,
,,,1.796161000000,  -2.38000,
,,,1.796162000000,  -2.38000,
,,,1.796163000000,  -2.36000,
,,,1.796164000000,  -2.36000,
,,,1.796165000000,  -2.36000,
,,,1.796166000000,  -2.36000,
,,,1.796167000000,  -2.38000,
,,,1.796168000000,  -2.36000,
,,,1.796169000000,  -2.34000,
,,,1.796170000000,  -2.38000,
,,,1.796171000000,  -2.36000,
,,,1.796172000000,  -2.38000,
,,,1.796173000000,  -2.36000,
,,,1.796174000000,  -2.36000,
,,,1.796175000000,  -2.38000,
,,,1.796176000000,  -2.38000,
,,,1.796177000000,  -2.36000,
,,,1.796178000000,  -2.36000,
,,,1.796179000000,  -2.36000,
,,,1.796180000000,  -2.40000,
,,,1.796181000000,  -2.36000,
,,,1.796182000000,  -2.38000,
,,,1.796183000000,  -2.36000,
,,,1.796184000000,  -2.36000,
,,,1.796185000000,  -2.38000,
,,,1.796186000000,  -2.36000,
,,,1.796187000000,  -2.36000,
,,,1.796188000000,  -2.36000,
,,,1.796189000000,  -2.36000,
,,,1.796190000000,  -2.36000,
,,,1.796191000000,  -2.36000,
,,,1.796192000000,  -2.36000,
,,,1.796193000000,  -2.36000,
,,,1.796194000000,  -2.36000,
,,,1.796195000000,  -2.36000,
,,,1.796196000000,  -2.36000,
,,,1.796197000000,  -2.36000,
,,,1.796198000000,  -2.36000,
,,,1.796199000000,  -2.36000,
,,,1.796200000000,  -2.38000,
,,,1.796201000000,  -2.36000,
,,,1.796202000000,  -2.38000,
,,,1.796203000000,  -2.38000,
