data-source/28-10-21/ALL0000/F0000CH2.CSV

Record Length,2.500000e+03,,   1.787500000000,  -1.98000,
Sample Interval,1.000000e-05,,   1.787510000000,  -1.98000,
Trigger Point,-1.787500000000e+05,,   1.787520000000,  -1.96000,
,,,   1.787530000000,  -2.00000,
,,,   1.787540000000,  -1.98000,
,,,   1.787550000000,  -1.98000,
Source,CH2,,   1.787560000000,  -1.98000,
Vertical Units,V,,   1.787570000000,  -1.98000,
Vertical Scale,5.000000e-01,,   1.787580000000,  -1.98000,
Vertical Offset,1.040000e+00,,   1.787590000000,  -1.98000,
Horizontal Units,s,,   1.787600000000,  -1.98000,
Horizontal Scale,2.500000e-03,,   1.787610000000,  -1.96000,
Pt Fmt,Y,,   1.787620000000,  -1.96000,
Yzero,0.000000e+00,,   1.787630000000,  -1.96000,
Probe Atten,1.000000e+01,,   1.787640000000,  -1.96000,
Model Number,TBS1104,,   1.787650000000,  -1.94000,
Serial Number,C014641,,   1.787660000000,  -1.96000,
Firmware Version,FV:v26.05,,   1.787670000000,  -1.98000,
,,,1.787680000000,  -1.98000,
,,,1.787690000000,  -1.98000,
,,,1.787700000000,  -1.96000,
,,,1.787710000000,  -1.98000,
,,,1.787720000000,  -2.20000,
,,,1.787730000000,  -1.98000,
,,,1.787740000000,  -1.94000,
,,,1.787750000000,  -1.96000,
,,,1.787760000000,  -1.98000,
,,,1.787770000000,  -1.96000,
,,,1.787780000000,  -1.96000,
,,,1.787790000000,  -1.98000,
,,,1.787800000000,  -1.98000,
,,,1.787810000000,  -1.96000,
,,,1.787820000000,  -1.98000,
,,,1.787830000000,  -1.96000,
,,,1.787840000000,  -1.98000,
,,,1.787850000000,  -1.98000,
,,,1.787860000000,  -1.96000,
,,,1.787870000000,  -1.96000,
,,,1.787880000000,  -1.98000,
,,,1.787890000000,  -1.98000,
,,,1.787900000000,  -1.98000,
,,,1.787910000000,  -1.96000,
,,,1.787920000000,  -1.96000,
,,,1.787930000000,  -2.00000,
,,,1.787940000000,  -1.98000,
,,,1.787950000000,  -1.94000,
,,,1.787960000000,  -1.98000,
,,,1.787970000000,  -1.96000,
,,,1.787980000000,  -1.98000,
,,,1.787990000000,  -1.96000,
,,,1.788000000000,  -1.98000,
,,,1.788010000000,  -2.00000,
,,,1.788020000000,  -1.96000,
,,,1.788030000000,  -1.98000,
,,,1.788040000000,  -1.96000,
,,,1.788050000000,  -1.98000,
,,,1.788060000000,  -1.98000,
,,,1.788070000000,  -1.98000,
,,,1.788080000000,  -1.96000,
,,,1.788090000000,  -1.96000,
,,,1.788100000000,  -1.94000,
,,,1.788110000000,  -2.00000,
,,,1.788120000000,  -1.98000,
,,,1.788130000000,  -1.98000,
,,,1.788140000000,  -1.98000,
,,,1.788150000000,  -1.98000,
,,,1.788160000000,  -1.98000,
,,,1.788170000000,  -1.96000,
,,,1.788180000000,  -1.98000,
,,,1.788190000000,  -1.96000,
,,,1.788200000000,  -1.98000,
,,,1.788210000000,  -1.96000,
,,,1.788220000000,  -1.96000,
,,,1.788230000000,  -1.98000,
,,,1.788240000000,  -1.96000,
,,,1.788250000000,  -1.96000,
,,,1.788260000000,  -1.98000,
,,,1.788270000000,  -1.98000,
,,,1.788280000000,  -1.96000,
,,,1.788290000000,  -1.98000,
,,,1.788300000000,  -1.98000,
,,,1.788310000000,  -1.96000,
,,,1.788320000000,  -2.00000,
,,,1.788330000000,  -1.98000,
,,,1.788340000000,  -1.90000,
,,,1.788350000000,  -1.98000,
,,,1.788360000000,  -1.98000,
,,,1.788370000000,  -1.98000,
,,,1.788380000000,  -1.98000,
,,,1.788390000000,  -1.98000,
,,,1.788400000000,  -1.96000,
,,,1.788410000000,  -1.96000,
,,,1.788420000000,  -1.98000,
,,,1.788430000000,  -1.98000,
,,,1.788440000000,  -1.98000,
,,,1.788450000000,  -1.98000,
,,,1.788460000000,  -1.98000,
,,,1.788470000000,  -1.98000,
,,,1.788480000000,  -1.98000,
,,,1.788490000000,  -1.98000,
,,,1.788500000000,  -1.98000,
,,,1.788510000000,  -1.94000,
,,,1.788520000000,  -1.98000,
,,,1.788530000000,  -1.98000,
,,,1.788540000000,  -1.98000,
,,,1.788550000000,  -1.96000,
,,,1.788560000000,  -1.98000,
,,,1.788570000000,  -1.98000,
,,,1.788580000000,  -1.98000,
,,,1.788590000000,  -2.00000,
,,,1.788600000000,  -1.96000,
,,,1.788610000000,  -1.98000,
,,,1.788620000000,  -1.98000,
,,,1.788630000000,  -1.98000,
,,,1.788640000000,  -1.98000,
,,,1.788650000000,  -1.98000,
,,,1.788660000000,  -1.98000,
,,,1.788670000000,  -1.98000,
,,,1.788680000000,  -1.98000,
,,,1.788690000000,  -1.98000,
,,,1.788700000000,  -1.98000,
,,,1.788710000000,  -1.98000,
,,,1.788720000000,  -1.98000,
,,,1.788730000000,  -1.98000,
,,,1.788740000000,  -1.98000,
,,,1.788750000000,  -1.98000,
,,,1.788760000000,  -1.98000,
,,,1.788770000000,  -1.98000,
,,,1.788780000000,  -1.96000,
,,,1.788790000000,  -1.96000,
,,,1.788800000000,  -1.98000,
,,,1.788810000000,  -1.98000,
,,,1.788820000000,  -1.98000,
,,,1.788830000000,  -1.98000,
,,,1.788840000000,  -1.98000,
,,,1.788850000000,  -1.98000,
,,,1.788860000000,  -1.96000,
,,,1.788870000000,  -2.00000,
,,,1.788880000000,  -2.00000,
,,,1.788890000000,  -1.98000,
,,,1.788900000000,  -1.98000,
,,,1.788910000000,  -1.98000,
,,,1.788920000000,  -1.96000,
,,,1.788930000000,  -1.98000,
,,,1.788940000000,  -1.96000,
,,,1.788950000000,  -1.98000,
,,,1.788960000000,  -1.98000,
,,,1.788970000000,  -1.98000,
,,,1.788980000000,  -1.98000,
,,,1.788990000000,  -1.98000,
,,,1.789000000000,  -1.98000,
,,,1.789010000000,  -1.98000,
,,,1.789020000000,  -1.98000,
,,,1.789030000000,  -1.96000,
,,,1.789040000000,  -1.96000,
,,,1.789050000000,  -2.18000,
,,,1.789060000000,  -1.98000,
,,,1.789070000000,  -1.96000,
,,,1.789080000000,  -1.98000,
,,,1.789090000000,  -1.98000,
,,,1.789100000000,  -1.96000,
,,,1.789110000000,  -2.00000,
,,,1.789120000000,  -1.98000,
,,,1.789130000000,  -1.96000,
,,,1.789140000000,  -1.98000,
,,,1.789150000000,  -1.98000,
,,,1.789160000000,  -2.00000,
,,,1.789170000000,  -1.98000,
,,,1.789180000000,  -1.98000,
,,,1.789190000000,  -1.98000,
,,,1.789200000000,  -1.96000,
,,,1.789210000000,  -1.98000,
,,,1.789220000000,  -2.00000,
,,,1.789230000000,  -1.96000,
,,,1.789240000000,  -1.98000,
,,,1.789250000000,  -1.98000,
,,,1.789260000000,  -1.96000,
,,,1.789270000000,  -1.96000,
,,,1.789280000000,  -1.98000,
,,,1.789290000000,  -1.96000,
,,,1.789300000000,  -1.98000,
,,,1.789310000000,  -1.98000,
,,,1.789320000000,  -1.96000,
,,,1.789330000000,  -1.98000,
,,,1.789340000000,  -1.98000,
,,,1.789350000000,  -1.98000,
,,,1.789360000000,  -1.96000,
,,,1.789370000000,  -1.98000,
,,,1.789380000000,  -1.98000,
,,,1.789390000000,  -1.98000,
,,,1.789400000000,  -1.96000,
,,,1.789410000000,  -1.98000,
,,,1.789420000000,  -1.98000,
,,,1.789430000000,  -2.00000,
,,,1.789440000000,  -1.98000,
,,,1.789450000000,  -1.74000,
,,,1.789460000000,  -1.96000,
,,,1.789470000000,  -1.98000,
,,,1.789480000000,  -1.98000,
,,,1.789490000000,  -1.96000,
,,,1.789500000000,  -1.98000,
,,,1.789510000000,  -1.96000,
,,,1.789520000000,  -1.96000,
,,,1.789530000000,  -1.98000,
,,,1.789540000000,  -1.98000,
,,,1.789550000000,  -1.98000,
,,,1.789560000000,  -1.92000,
,,,1.789570000000,  -1.98000,
,,,1.789580000000,  -1.98000,
,,,1.789590000000,  -1.98000,
,,,1.789600000000,  -1.96000,
,,,1.789610000000,  -1.96000,
,,,1.789620000000,  -1.98000,
,,,1.789630000000,  -1.98000,
,,,1.789640000000,  -1.96000,
,,,1.789650000000,  -1.98000,
,,,1.789660000000,  -1.96000,
,,,1.789670000000,  -1.98000,
,,,1.789680000000,  -1.98000,
,,,1.789690000000,  -1.98000,
,,,1.789700000000,  -2.00000,
,,,1.789710000000,  -1.96000,
,,,1.789720000000,  -1.98000,
,,,1.789730000000,  -1.96000,
,,,1.789740000000,  -1.98000,
,,,1.789750000000,  -2.00000,
,,,1.789760000000,  -1.98000,
,,,1.789770000000,  -2.00000,
,,,1.789780000000,  -1.98000,
,,,1.789790000000,  -1.98000,
,,,1.789800000000,  -1.96000,
,,,1.789810000000,  -1.98000,
,,,1.789820000000,  -1.98000,
,,,1.789830000000,  -1.96000,
,,,1.789840000000,  -1.96000,
,,,1.789850000000,  -1.96000,
,,,1.789860000000,  -1.88000,
,,,1.789870000000,  -1.96000,
,,,1.789880000000,  -1.98000,
,,,1.789890000000,  -1.96000,
,,,1.789900000000,  -1.96000,
,,,1.789910000000,  -1.96000,
,,,1.789920000000,  -1.98000,
,,,1.789930000000,  -1.98000,
,,,1.789940000000,  -1.98000,
,,,1.789950000000,  -1.98000,
,,,1.789960000000,  -1.98000,
,,,1.789970000000,  -1.98000,
,,,1.789980000000,  -1.98000,
,,,1.789990000000,  -1.98000,
,,,1.790000000000,  -1.96000,
,,,1.790010000000,  -1.98000,
,,,1.790020000000,  -1.98000,
,,,1.790030000000,  -1.98000,
,,,1.790040000000,  -1.96000,
,,,1.790050000000,  -1.96000,
,,,1.790060000000,  -1.98000,
,,,1.790070000000,  -1.98000,
,,,1.790080000000,  -1.98000,
,,,1.790090000000,  -1.96000,
,,,1.790100000000,  -1.98000,
,,,1.790110000000,  -1.98000,
,,,1.790120000000,  -1.98000,
,,,1.790130000000,  -1.96000,
,,,1.790140000000,  -2.00000,
,,,1.790150000000,  -1.96000,
,,,1.790160000000,  -1.96000,
,,,1.790170000000,  -1.98000,
,,,1.790180000000,  -1.98000,
,,,1.790190000000,  -1.98000,
,,,1.790200000000,  -1.98000,
,,,1.790210000000,  -1.98000,
,,,1.790220000000,  -1.98000,
,,,1.790230000000,  -1.98000,
,,,1.790240000000,  -2.00000,
,,,1.790250000000,  -1.98000,
,,,1.790260000000,  -1.96000,
,,,1.790270000000,  -1.98000,
,,,1.790280000000,  -1.98000,
,,,1.790290000000,  -1.98000,
,,,1.790300000000,  -1.98000,
,,,1.790310000000,  -1.98000,
,,,1.790320000000,  -1.98000,
,,,1.790330000000,  -1.98000,
,,,1.790340000000,  -1.98000,
,,,1.790350000000,  -1.98000,
,,,1.790360000000,  -1.98000,
,,,1.790370000000,  -1.98000,
,,,1.790380000000,  -1.98000,
,,,1.790390000000,  -1.98000,
,,,1.790400000000,  -1.96000,
,,,1.790410000000,  -1.98000,
,,,1.790420000000,  -1.98000,
,,,1.790430000000,  -1.96000,
,,,1.790440000000,  -1.98000,
,,,1.790450000000,  -1.98000,
,,,1.790460000000,  -1.98000,
,,,1.790470000000,  -1.96000,
,,,1.790480000000,  -1.98000,
,,,1.790490000000,  -1.98000,
,,,1.790500000000,  -1.96000,
,,,1.790510000000,  -1.98000,
,,,1.790520000000,  -1.98000,
,,,1.790530000000,  -1.98000,
,,,1.790540000000,  -1.98000,
,,,1.790550000000,  -1.96000,
,,,1.790560000000,  -1.98000,
,,,1.790570000000,  -1.96000,
,,,1.790580000000,  -1.96000,
,,,1.790590000000,  -1.96000,
,,,1.790600000000,  -1.96000,
,,,1.790610000000,  -1.98000,
,,,1.790620000000,  -1.96000,
,,,1.790630000000,  -1.98000,
,,,1.790640000000,  -1.96000,
,,,1.790650000000,  -1.98000,
,,,1.790660000000,  -1.96000,
,,,1.790670000000,  -1.98000,
,,,1.790680000000,  -1.98000,
,,,1.790690000000,  -1.98000,
,,,1.790700000000,  -1.98000,
,,,1.790710000000,  -1.98000,
,,,1.790720000000,  -1.96000,
,,,1.790730000000,  -1.98000,
,,,1.790740000000,  -1.98000,
,,,1.790750000000,  -1.98000,
,,,1.790760000000,  -1.98000,
,,,1.790770000000,  -1.98000,
,,,1.790780000000,  -1.96000,
,,,1.790790000000,  -1.96000,
,,,1.790800000000,  -1.98000,
,,,1.790810000000,  -1.98000,
,,,1.790820000000,  -1.98000,
,,,1.790830000000,  -1.98000,
,,,1.790840000000,  -1.98000,
,,,1.790850000000,  -2.00000,
,,,1.790860000000,  -1.96000,
,,,1.790870000000,  -1.98000,
,,,1.790880000000,  -1.98000,
,,,1.790890000000,  -1.96000,
,,,1.790900000000,  -1.98000,
,,,1.790910000000,  -1.98000,
,,,1.790920000000,  -1.98000,
,,,1.790930000000,  -1.98000,
,,,1.790940000000,  -2.00000,
,,,1.790950000000,  -1.96000,
,,,1.790960000000,  -1.96000,
,,,1.790970000000,  -1.98000,
,,,1.790980000000,  -1.98000,
,,,1.790990000000,  -1.98000,
,,,1.791000000000,  -1.96000,
,,,1.791010000000,  -1.98000,
,,,1.791020000000,  -1.96000,
,,,1.791030000000,  -1.98000,
,,,1.791040000000,  -1.98000,
,,,1.791050000000,  -1.96000,
,,,1.791060000000,  -1.98000,
,,,1.791070000000,  -1.96000,
,,,1.791080000000,  -1.98000,
,,,1.791090000000,  -1.98000,
,,,1.791100000000,  -1.98000,
,,,1.791110000000,  -1.98000,
,,,1.791120000000,  -2.00000,
,,,1.791130000000,  -1.98000,
,,,1.791140000000,  -1.98000,
,,,1.791150000000,  -1.98000,
,,,1.791160000000,  -1.98000,
,,,1.791170000000,  -2.00000,
,,,1.791180000000,  -1.98000,
,,,1.791190000000,  -1.98000,
,,,1.791200000000,  -1.98000,
,,,1.791210000000,  -1.98000,
,,,1.791220000000,  -1.96000,
,,,1.791230000000,  -1.98000,
,,,1.791240000000,  -1.96000,
,,,1.791250000000,  -1.96000,
,,,1.791260000000,  -1.96000,
,,,1.791270000000,  -1.96000,
,,,1.791280000000,  -1.96000,
,,,1.791290000000,  -1.96000,
,,,1.791300000000,  -1.98000,
,,,1.791310000000,  -1.98000,
,,,1.791320000000,  -1.96000,
,,,1.791330000000,  -1.98000,
,,,1.791340000000,  -2.00000,
,,,1.791350000000,  -1.98000,
,,,1.791360000000,  -1.96000,
,,,1.791370000000,  -1.96000,
,,,1.791380000000,  -1.98000,
,,,1.791390000000,  -1.98000,
,,,1.791400000000,  -1.98000,
,,,1.791410000000,  -1.98000,
,,,1.791420000000,  -1.98000,
,,,1.791430000000,  -2.00000,
,,,1.791440000000,  -1.98000,
,,,1.791450000000,  -2.00000,
,,,1.791460000000,  -1.98000,
,,,1.791470000000,  -1.98000,
,,,1.791480000000,  -1.98000,
,,,1.791490000000,  -1.98000,
,,,1.791500000000,  -2.00000,
,,,1.791510000000,  -1.98000,
,,,1.791520000000,  -1.96000,
,,,1.791530000000,  -1.96000,
,,,1.791540000000,  -1.98000,
,,,1.791550000000,  -1.98000,
,,,1.791560000000,  -1.98000,
,,,1.791570000000,  -1.98000,
,,,1.791580000000,  -1.96000,
,,,1.791590000000,  -1.96000,
,,,1.791600000000,  -1.98000,
,,,1.791610000000,  -1.98000,
,,,1.791620000000,  -1.98000,
,,,1.791630000000,  -1.98000,
,,,1.791640000000,  -1.98000,
,,,1.791650000000,  -2.00000,
,,,1.791660000000,  -1.98000,
,,,1.791670000000,  -1.98000,
,,,1.791680000000,  -1.98000,
,,,1.791690000000,  -1.96000,
,,,1.791700000000,  -1.98000,
,,,1.791710000000,  -1.96000,
,,,1.791720000000,  -1.98000,
,,,1.791730000000,  -1.98000,
,,,1.791740000000,  -2.00000,
,,,1.791750000000,  -2.00000,
,,,1.791760000000,  -1.96000,
,,,1.791770000000,  -1.98000,
,,,1.791780000000,  -1.98000,
,,,1.791790000000,  -1.98000,
,,,1.791800000000,  -1.96000,
,,,1.791810000000,  -1.98000,
,,,1.791820000000,  -1.96000,
,,,1.791830000000,  -1.98000,
,,,1.791840000000,  -1.96000,
,,,1.791850000000,  -1.98000,
,,,1.791860000000,  -1.98000,
,,,1.791870000000,  -1.98000,
,,,1.791880000000,  -1.98000,
,,,1.791890000000,  -1.98000,
,,,1.791900000000,  -1.98000,
,,,1.791910000000,  -1.96000,
,,,1.791920000000,  -2.00000,
,,,1.791930000000,  -1.96000,
,,,1.791940000000,  -1.96000,
,,,1.791950000000,  -1.98000,
,,,1.791960000000,  -1.98000,
,,,1.791970000000,  -1.96000,
,,,1.791980000000,  -1.96000,
,,,1.791990000000,  -1.98000,
,,,1.792000000000,  -1.98000,
,,,1.792010000000,  -1.98000,
,,,1.792020000000,  -1.98000,
,,,1.792030000000,  -1.98000,
,,,1.792040000000,  -1.98000,
,,,1.792050000000,  -1.98000,
,,,1.792060000000,  -1.98000,
,,,1.792070000000,  -1.96000,
,,,1.792080000000,  -1.98000,
,,,1.792090000000,  -1.98000,
,,,1.792100000000,  -1.98000,
,,,1.792110000000,  -1.98000,
,,,1.792120000000,  -2.00000,
,,,1.792130000000,  -1.98000,
,,,1.792140000000,  -1.98000,
,,,1.792150000000,  -1.98000,
,,,1.792160000000,  -1.98000,
,,,1.792170000000,  -1.98000,
,,,1.792180000000,  -1.96000,
,,,1.792190000000,  -1.92000,
,,,1.792200000000,  -1.96000,
,,,1.792210000000,  -2.00000,
,,,1.792220000000,  -1.98000,
,,,1.792230000000,  -1.96000,
,,,1.792240000000,  -1.98000,
,,,1.792250000000,  -1.98000,
,,,1.792260000000,  -1.98000,
,,,1.792270000000,  -1.98000,
,,,1.792280000000,  -1.98000,
,,,1.792290000000,  -1.96000,
,,,1.792300000000,  -1.98000,
,,,1.792310000000,  -1.96000,
,,,1.792320000000,  -1.98000,
,,,1.792330000000,  -1.98000,
,,,1.792340000000,  -1.98000,
,,,1.792350000000,  -1.98000,
,,,1.792360000000,  -1.98000,
,,,1.792370000000,  -1.98000,
,,,1.792380000000,  -1.98000,
,,,1.792390000000,  -2.00000,
,,,1.792400000000,  -1.98000,
,,,1.792410000000,  -1.96000,
,,,1.792420000000,  -1.98000,
,,,1.792430000000,  -1.98000,
,,,1.792440000000,  -1.98000,
,,,1.792450000000,  -1.96000,
,,,1.792460000000,  -1.98000,
,,,1.792470000000,  -1.96000,
,,,1.792480000000,  -1.98000,
,,,1.792490000000,  -1.98000,
,,,1.792500000000,  -1.98000,
,,,1.792510000000,  -1.98000,
,,,1.792520000000,  -1.96000,
,,,1.792530000000,  -1.98000,
,,,1.792540000000,  -1.98000,
,,,1.792550000000,  -1.96000,
,,,1.792560000000,  -1.96000,
,,,1.792570000000,  -1.98000,
,,,1.792580000000,  -1.96000,
,,,1.792590000000,  -1.98000,
,,,1.792600000000,  -2.02000,
,,,1.792610000000,  -1.98000,
,,,1.792620000000,  -1.98000,
,,,1.792630000000,  -1.98000,
,,,1.792640000000,  -1.96000,
,,,1.792650000000,  -1.98000,
,,,1.792660000000,  -1.96000,
,,,1.792670000000,  -1.98000,
,,,1.792680000000,  -1.96000,
,,,1.792690000000,  -1.96000,
,,,1.792700000000,  -1.98000,
,,,1.792710000000,  -1.98000,
,,,1.792720000000,  -1.98000,
,,,1.792730000000,  -1.96000,
,,,1.792740000000,  -1.98000,
,,,1.792750000000,  -1.98000,
,,,1.792760000000,  -1.98000,
,,,1.792770000000,  -1.98000,
,,,1.792780000000,  -1.96000,
,,,1.792790000000,  -1.98000,
,,,1.792800000000,  -1.96000,
,,,1.792810000000,  -1.98000,
,,,1.792820000000,  -1.98000,
,,,1.792830000000,  -1.98000,
,,,1.792840000000,  -1.98000,
,,,1.792850000000,  -1.98000,
,,,1.792860000000,  -1.96000,
,,,1.792870000000,  -1.98000,
,,,1.792880000000,  -1.98000,
,,,1.792890000000,  -1.96000,
,,,1.792900000000,  -1.96000,
,,,1.792910000000,  -1.98000,
,,,1.792920000000,  -1.98000,
,,,1.792930000000,  -1.98000,
,,,1.792940000000,  -1.98000,
,,,1.792950000000,  -1.98000,
,,,1.792960000000,  -1.98000,
,,,1.792970000000,  -1.96000,
,,,1.792980000000,  -1.96000,
,,,1.792990000000,  -1.98000,
,,,1.793000000000,  -1.96000,
,,,1.793010000000,  -1.98000,
,,,1.793020000000,  -1.98000,
,,,1.793030000000,  -1.98000,
,,,1.793040000000,  -1.98000,
,,,1.793050000000,  -1.98000,
,,,1.793060000000,  -1.98000,
,,,1.793070000000,  -1.98000,
,,,1.793080000000,  -1.98000,
,,,1.793090000000,  -1.98000,
,,,1.793100000000,  -1.98000,
,,,1.793110000000,  -1.96000,
,,,1.793120000000,  -1.98000,
,,,1.793130000000,  -2.00000,
,,,1.793140000000,  -1.96000,
,,,1.793150000000,  -1.98000,
,,,1.793160000000,  -1.98000,
,,,1.793170000000,  -1.96000,
,,,1.793180000000,  -1.98000,
,,,1.793190000000,  -1.98000,
,,,1.793200000000,  -1.98000,
,,,1.793210000000,  -1.96000,
,,,1.793220000000,  -1.98000,
,,,1.793230000000,  -1.98000,
,,,1.793240000000,  -1.98000,
,,,1.793250000000,  -1.96000,
,,,1.793260000000,  -1.98000,
,,,1.793270000000,  -1.98000,
,,,1.793280000000,  -1.98000,
,,,1.793290000000,  -1.98000,
,,,1.793300000000,  -2.00000,
,,,1.793310000000,  -1.98000,
,,,1.793320000000,  -1.98000,
,,,1.793330000000,  -1.98000,
,,,1.793340000000,  -2.00000,
,,,1.793350000000,  -1.98000,
,,,1.793360000000,  -1.98000,
,,,1.793370000000,  -1.98000,
,,,1.793380000000,  -1.96000,
,,,1.793390000000,  -1.98000,
,,,1.793400000000,  -1.98000,
,,,1.793410000000,  -1.98000,
,,,1.793420000000,  -1.98000,
,,,1.793430000000,  -1.96000,
,,,1.793440000000,  -1.96000,
,,,1.793450000000,  -1.96000,
,,,1.793460000000,  -2.00000,
,,,1.793470000000,  -2.00000,
,,,1.793480000000,  -1.96000,
,,,1.793490000000,  -1.98000,
,,,1.793500000000,  -1.98000,
,,,1.793510000000,  -1.94000,
,,,1.793520000000,  -1.98000,
,,,1.793530000000,  -1.98000,
,,,1.793540000000,  -1.96000,
,,,1.793550000000,  -1.98000,
,,,1.793560000000,  -1.96000,
,,,1.793570000000,  -1.98000,
,,,1.793580000000,  -1.96000,
,,,1.793590000000,  -1.98000,
,,,1.793600000000,  -1.98000,
,,,1.793610000000,  -1.96000,
,,,1.793620000000,  -1.96000,
,,,1.793630000000,  -1.96000,
,,,1.793640000000,  -1.98000,
,,,1.793650000000,  -1.96000,
,,,1.793660000000,  -1.96000,
,,,1.793670000000,  -1.96000,
,,,1.793680000000,  -1.98000,
,,,1.793690000000,  -1.98000,
,,,1.793700000000,  -1.98000,
,,,1.793710000000,  -1.98000,
,,,1.793720000000,  -1.98000,
,,,1.793730000000,  -2.00000,
,,,1.793740000000,  -1.96000,
,,,1.793750000000,  -1.98000,
,,,1.793760000000,  -1.98000,
,,,1.793770000000,  -1.98000,
,,,1.793780000000,  -1.98000,
,,,1.793790000000,  -1.98000,
,,,1.793800000000,  -1.98000,
,,,1.793810000000,  -1.98000,
,,,1.793820000000,  -1.98000,
,,,1.793830000000,  -1.98000,
,,,1.793840000000,  -1.98000,
,,,1.793850000000,  -1.96000,
,,,1.793860000000,  -1.98000,
,,,1.793870000000,  -1.98000,
,,,1.793880000000,  -1.96000,
,,,1.793890000000,  -1.98000,
,,,1.793900000000,  -1.98000,
,,,1.793910000000,  -1.98000,
,,,1.793920000000,  -1.98000,
,,,1.793930000000,  -1.96000,
,,,1.793940000000,  -1.98000,
,,,1.793950000000,  -1.98000,
,,,1.793960000000,  -1.96000,
,,,1.793970000000,  -1.96000,
,,,1.793980000000,  -1.98000,
,,,1.793990000000,  -1.96000,
,,,1.794000000000,  -1.98000,
,,,1.794010000000,  -1.98000,
,,,1.794020000000,  -1.98000,
,,,1.794030000000,  -1.98000,
