data-source/4-10-21/OPA_or_slew_rate_50KHz/F0009CH2.CSV

Record Length,2.500000e+03,,   0.000095000000, -11.40000,
Sample Interval,2.000000e-08,,   0.000095020000, -11.20000,
Trigger Point,-4.750000000000e+03,,   0.000095040000, -11.20000,
,,,   0.000095060000, -11.40000,
,,,   0.000095080000, -11.40000,
,,,   0.000095100000, -11.60000,
Source,CH2,,   0.000095120000, -11.60000,
Vertical Units,V,,   0.000095140000, -11.40000,
Vertical Scale,5.000000e+00,,   0.000095160000, -11.20000,
Vertical Offset,0.000000e+00,,   0.000095180000, -11.40000,
Horizontal Units,s,,   0.000095200000, -11.40000,
Horizontal Scale,5.000000e-06,,   0.000095220000, -11.60000,
Pt Fmt,Y,,   0.000095240000, -11.60000,
Yzero,0.000000e+00,,   0.000095260000, -11.60000,
Probe Atten,1.000000e+01,,   0.000095280000, -11.60000,
Model Number,TBS1104,,   0.000095300000, -11.40000,
Serial Number,C014641,,   0.000095320000, -11.60000,
Firmware Version,FV:v26.05,,   0.000095340000, -11.60000,
,,,0.000095360000, -11.80000,
,,,0.000095380000, -11.60000,
,,,0.000095400000, -11.40000,
,,,0.000095420000, -11.60000,
,,,0.000095440000, -11.60000,
,,,0.000095460000, -11.60000,
,,,0.000095480000, -11.80000,
,,,0.000095500000, -11.60000,
,,,0.000095520000, -11.40000,
,,,0.000095540000, -11.60000,
,,,0.000095560000, -11.80000,
,,,0.000095580000, -11.60000,
,,,0.000095600000, -11.80000,
,,,0.000095620000, -11.80000,
,,,0.000095640000, -11.80000,
,,,0.000095660000, -11.80000,
,,,0.000095680000, -12.00000,
,,,0.000095700000, -11.80000,
,,,0.000095720000, -11.80000,
,,,0.000095740000, -11.80000,
,,,0.000095760000, -11.80000,
,,,0.000095780000, -12.00000,
,,,0.000095800000, -11.80000,
,,,0.000095820000, -12.00000,
,,,0.000095840000, -12.20000,
,,,0.000095860000, -11.80000,
,,,0.000095880000, -11.80000,
,,,0.000095900000, -11.80000,
,,,0.000095920000, -12.00000,
,,,0.000095940000, -12.00000,
,,,0.000095960000, -12.20000,
,,,0.000095980000, -12.00000,
,,,0.000096000000, -12.20000,
,,,0.000096020000, -12.20000,
,,,0.000096040000, -12.20000,
,,,0.000096060000, -12.00000,
,,,0.000096080000, -12.00000,
,,,0.000096100000, -12.00000,
,,,0.000096120000, -12.00000,
,,,0.000096140000, -12.20000,
,,,0.000096160000, -12.00000,
,,,0.000096180000, -12.20000,
,,,0.000096200000, -12.20000,
,,,0.000096220000, -12.40000,
,,,0.000096240000, -12.00000,
,,,0.000096260000, -12.40000,
,,,0.000096280000, -12.20000,
,,,0.000096300000, -12.20000,
,,,0.000096320000, -12.00000,
,,,0.000096340000, -12.20000,
,,,0.000096360000, -12.20000,
,,,0.000096380000, -12.20000,
,,,0.000096400000, -12.40000,
,,,0.000096420000, -12.20000,
,,,0.000096440000, -12.20000,
,,,0.000096460000, -12.40000,
,,,0.000096480000, -12.60000,
,,,0.000096500000, -12.60000,
,,,0.000096520000, -12.40000,
,,,0.000096540000, -12.80000,
,,,0.000096560000, -12.20000,
,,,0.000096580000, -12.60000,
,,,0.000096600000, -12.60000,
,,,0.000096620000, -12.60000,
,,,0.000096640000, -12.60000,
,,,0.000096660000, -12.60000,
,,,0.000096680000, -12.40000,
,,,0.000096700000, -12.40000,
,,,0.000096720000, -12.60000,
,,,0.000096740000, -12.60000,
,,,0.000096760000, -12.40000,
,,,0.000096780000, -12.60000,
,,,0.000096800000, -12.40000,
,,,0.000096820000, -12.60000,
,,,0.000096840000, -12.80000,
,,,0.000096860000, -12.60000,
,,,0.000096880000, -12.80000,
,,,0.000096900000, -12.80000,
,,,0.000096920000, -12.80000,
,,,0.000096940000, -12.60000,
,,,0.000096960000, -12.80000,
,,,0.000096980000, -12.80000,
,,,0.000097000000, -12.80000,
,,,0.000097020000, -12.80000,
,,,0.000097040000, -13.00000,
,,,0.000097060000, -13.00000,
,,,0.000097080000, -12.80000,
,,,0.000097100000, -13.00000,
,,,0.000097120000, -13.00000,
,,,0.000097140000, -12.80000,
,,,0.000097160000, -12.80000,
,,,0.000097180000, -13.00000,
,,,0.000097200000, -13.00000,
,,,0.000097220000, -13.00000,
,,,0.000097240000, -12.80000,
,,,0.000097260000, -13.00000,
,,,0.000097280000, -13.00000,
,,,0.000097300000, -12.80000,
,,,0.000097320000, -13.00000,
,,,0.000097340000, -13.00000,
,,,0.000097360000, -13.00000,
,,,0.000097380000, -12.80000,
,,,0.000097400000, -13.00000,
,,,0.000097420000, -12.80000,
,,,0.000097440000, -12.80000,
,,,0.000097460000, -12.80000,
,,,0.000097480000, -13.00000,
,,,0.000097500000, -13.00000,
,,,0.000097520000, -12.80000,
,,,0.000097540000, -13.00000,
,,,0.000097560000, -13.00000,
,,,0.000097580000, -13.20000,
,,,0.000097600000, -13.00000,
,,,0.000097620000, -13.20000,
,,,0.000097640000, -13.20000,
,,,0.000097660000, -13.40000,
,,,0.000097680000, -13.20000,
,,,0.000097700000, -13.40000,
,,,0.000097720000, -13.40000,
,,,0.000097740000, -13.20000,
,,,0.000097760000, -13.40000,
,,,0.000097780000, -13.20000,
,,,0.000097800000, -13.00000,
,,,0.000097820000, -13.40000,
,,,0.000097840000, -13.20000,
,,,0.000097860000, -13.40000,
,,,0.000097880000, -13.40000,
,,,0.000097900000, -13.60000,
,,,0.000097920000, -13.40000,
,,,0.000097940000, -13.20000,
,,,0.000097960000, -13.60000,
,,,0.000097980000, -13.20000,
,,,0.000098000000, -13.60000,
,,,0.000098020000, -13.40000,
,,,0.000098040000, -13.20000,
,,,0.000098060000, -13.20000,
,,,0.000098080000, -13.40000,
,,,0.000098100000, -13.60000,
,,,0.000098120000, -13.40000,
,,,0.000098140000, -13.40000,
,,,0.000098160000, -13.40000,
,,,0.000098180000, -13.40000,
,,,0.000098200000, -13.60000,
,,,0.000098220000, -13.40000,
,,,0.000098240000, -13.60000,
,,,0.000098260000, -13.60000,
,,,0.000098280000, -13.60000,
,,,0.000098300000, -13.60000,
,,,0.000098320000, -13.40000,
,,,0.000098340000, -13.60000,
,,,0.000098360000, -13.60000,
,,,0.000098380000, -13.40000,
,,,0.000098400000, -13.60000,
,,,0.000098420000, -13.60000,
,,,0.000098440000, -13.60000,
,,,0.000098460000, -13.60000,
,,,0.000098480000, -13.40000,
,,,0.000098500000, -13.60000,
,,,0.000098520000, -13.80000,
,,,0.000098540000, -13.60000,
,,,0.000098560000, -13.60000,
,,,0.000098580000, -13.80000,
,,,0.000098600000, -13.40000,
,,,0.000098620000, -13.60000,
,,,0.000098640000, -13.60000,
,,,0.000098660000, -13.60000,
,,,0.000098680000, -13.40000,
,,,0.000098700000, -13.80000,
,,,0.000098720000, -13.60000,
,,,0.000098740000, -13.40000,
,,,0.000098760000, -13.60000,
,,,0.000098780000, -13.20000,
,,,0.000098800000, -13.40000,
,,,0.000098820000, -13.60000,
,,,0.000098840000, -13.60000,
,,,0.000098860000, -13.60000,
,,,0.000098880000, -13.80000,
,,,0.000098900000, -13.60000,
,,,0.000098920000, -13.40000,
,,,0.000098940000, -13.80000,
,,,0.000098960000, -13.40000,
,,,0.000098980000, -13.40000,
,,,0.000099000000, -13.40000,
,,,0.000099020000, -13.60000,
,,,0.000099040000, -13.80000,
,,,0.000099060000, -13.80000,
,,,0.000099080000, -13.80000,
,,,0.000099100000, -13.60000,
,,,0.000099120000, -13.60000,
,,,0.000099140000, -13.60000,
,,,0.000099160000, -13.60000,
,,,0.000099180000, -13.60000,
,,,0.000099200000, -13.60000,
,,,0.000099220000, -14.00000,
,,,0.000099240000, -13.80000,
,,,0.000099260000, -13.40000,
,,,0.000099280000, -13.80000,
,,,0.000099300000, -13.80000,
,,,0.000099320000, -13.40000,
,,,0.000099340000, -13.80000,
,,,0.000099360000, -13.60000,
,,,0.000099380000, -13.40000,
,,,0.000099400000, -14.00000,
,,,0.000099420000, -13.60000,
,,,0.000099440000, -13.60000,
,,,0.000099460000, -13.60000,
,,,0.000099480000, -13.60000,
,,,0.000099500000, -13.40000,
,,,0.000099520000, -13.60000,
,,,0.000099540000, -13.20000,
,,,0.000099560000, -13.60000,
,,,0.000099580000, -13.40000,
,,,0.000099600000, -13.60000,
,,,0.000099620000, -13.40000,
,,,0.000099640000, -13.60000,
,,,0.000099660000, -13.60000,
,,,0.000099680000, -13.60000,
,,,0.000099700000, -13.80000,
,,,0.000099720000, -13.60000,
,,,0.000099740000, -13.40000,
,,,0.000099760000, -13.60000,
,,,0.000099780000, -13.60000,
,,,0.000099800000, -13.60000,
,,,0.000099820000, -13.40000,
,,,0.000099840000, -13.40000,
,,,0.000099860000, -13.20000,
,,,0.000099880000, -13.60000,
,,,0.000099900000, -13.80000,
,,,0.000099920000, -13.60000,
,,,0.000099940000, -13.80000,
,,,0.000099960000, -13.40000,
,,,0.000099980000, -13.60000,
,,,0.000100000000, -13.60000,
,,,0.000100020000, -13.80000,
,,,0.000100040000, -13.40000,
,,,0.000100060000, -13.40000,
,,,0.000100080000, -13.60000,
,,,0.000100100000, -13.60000,
,,,0.000100120000, -13.40000,
,,,0.000100140000, -13.60000,
,,,0.000100160000, -13.40000,
,,,0.000100180000, -13.40000,
,,,0.000100200000, -13.40000,
,,,0.000100220000, -13.40000,
,,,0.000100240000, -13.40000,
,,,0.000100260000, -13.40000,
,,,0.000100280000, -13.60000,
,,,0.000100300000, -13.40000,
,,,0.000100320000, -13.40000,
,,,0.000100340000, -13.60000,
,,,0.000100360000, -13.60000,
,,,0.000100380000, -13.60000,
,,,0.000100400000, -13.60000,
,,,0.000100420000, -13.60000,
,,,0.000100440000, -13.60000,
,,,0.000100460000, -13.40000,
,,,0.000100480000, -13.60000,
,,,0.000100500000, -13.60000,
,,,0.000100520000, -13.40000,
,,,0.000100540000, -13.40000,
,,,0.000100560000, -13.60000,
,,,0.000100580000, -13.40000,
,,,0.000100600000, -13.20000,
,,,0.000100620000, -13.40000,
,,,0.000100640000, -13.60000,
,,,0.000100660000, -13.20000,
,,,0.000100680000, -13.40000,
,,,0.000100700000, -13.20000,
,,,0.000100720000, -13.40000,
,,,0.000100740000, -13.60000,
,,,0.000100760000, -13.00000,
,,,0.000100780000, -13.20000,
,,,0.000100800000, -13.00000,
,,,0.000100820000, -13.20000,
,,,0.000100840000, -13.40000,
,,,0.000100860000, -13.20000,
,,,0.000100880000, -13.40000,
,,,0.000100900000, -13.20000,
,,,0.000100920000, -13.00000,
,,,0.000100940000, -13.20000,
,,,0.000100960000, -13.40000,
,,,0.000100980000, -13.20000,
,,,0.000101000000, -13.00000,
,,,0.000101020000, -13.20000,
,,,0.000101040000, -13.20000,
,,,0.000101060000, -13.20000,
,,,0.000101080000, -13.20000,
,,,0.000101100000, -13.00000,
,,,0.000101120000, -13.00000,
,,,0.000101140000, -13.20000,
,,,0.000101160000, -13.20000,
,,,0.000101180000, -13.00000,
,,,0.000101200000, -13.00000,
,,,0.000101220000, -13.20000,
,,,0.000101240000, -13.00000,
,,,0.000101260000, -13.00000,
,,,0.000101280000, -13.00000,
,,,0.000101300000, -13.20000,
,,,0.000101320000, -13.20000,
,,,0.000101340000, -13.00000,
,,,0.000101360000, -12.80000,
,,,0.000101380000, -12.80000,
,,,0.000101400000, -13.00000,
,,,0.000101420000, -13.00000,
,,,0.000101440000, -12.80000,
,,,0.000101460000, -12.80000,
,,,0.000101480000, -12.60000,
,,,0.000101500000, -12.60000,
,,,0.000101520000, -12.80000,
,,,0.000101540000, -12.80000,
,,,0.000101560000, -12.40000,
,,,0.000101580000, -13.00000,
,,,0.000101600000, -13.00000,
,,,0.000101620000, -13.00000,
,,,0.000101640000, -12.80000,
,,,0.000101660000, -13.00000,
,,,0.000101680000, -13.00000,
,,,0.000101700000, -12.40000,
,,,0.000101720000, -12.80000,
,,,0.000101740000, -12.40000,
,,,0.000101760000, -12.80000,
,,,0.000101780000, -13.00000,
,,,0.000101800000, -12.40000,
,,,0.000101820000, -12.60000,
,,,0.000101840000, -12.80000,
,,,0.000101860000, -12.80000,
,,,0.000101880000, -12.40000,
,,,0.000101900000, -12.40000,
,,,0.000101920000, -12.60000,
,,,0.000101940000, -12.60000,
,,,0.000101960000, -12.60000,
,,,0.000101980000, -12.80000,
,,,0.000102000000, -12.40000,
,,,0.000102020000, -12.40000,
,,,0.000102040000, -12.60000,
,,,0.000102060000, -12.80000,
,,,0.000102080000, -12.80000,
,,,0.000102100000, -12.60000,
,,,0.000102120000, -12.20000,
,,,0.000102140000, -12.20000,
,,,0.000102160000, -12.60000,
,,,0.000102180000, -12.00000,
,,,0.000102200000, -12.40000,
,,,0.000102220000, -12.40000,
,,,0.000102240000, -12.40000,
,,,0.000102260000, -12.60000,
,,,0.000102280000, -12.40000,
,,,0.000102300000, -12.40000,
,,,0.000102320000, -12.20000,
,,,0.000102340000, -12.20000,
,,,0.000102360000, -12.40000,
,,,0.000102380000, -12.20000,
,,,0.000102400000, -12.20000,
,,,0.000102420000, -12.20000,
,,,0.000102440000, -12.20000,
,,,0.000102460000, -12.60000,
,,,0.000102480000, -12.40000,
,,,0.000102500000, -12.00000,
,,,0.000102520000, -12.40000,
,,,0.000102540000, -12.40000,
,,,0.000102560000, -12.20000,
,,,0.000102580000, -11.80000,
,,,0.000102600000, -12.20000,
,,,0.000102620000, -11.80000,
,,,0.000102640000, -11.80000,
,,,0.000102660000, -12.20000,
,,,0.000102680000, -12.00000,
,,,0.000102700000, -12.20000,
,,,0.000102720000, -12.00000,
,,,0.000102740000, -11.80000,
,,,0.000102760000, -11.80000,
,,,0.000102780000, -12.00000,
,,,0.000102800000, -11.80000,
,,,0.000102820000, -12.00000,
,,,0.000102840000, -11.80000,
,,,0.000102860000, -11.80000,
,,,0.000102880000, -11.80000,
,,,0.000102900000, -12.00000,
,,,0.000102920000, -11.80000,
,,,0.000102940000, -12.20000,
,,,0.000102960000, -12.00000,
,,,0.000102980000, -12.00000,
,,,0.000103000000, -12.00000,
,,,0.000103020000, -12.00000,
,,,0.000103040000, -12.00000,
,,,0.000103060000, -11.80000,
,,,0.000103080000, -11.60000,
,,,0.000103100000, -11.80000,
,,,0.000103120000, -12.00000,
,,,0.000103140000, -11.60000,
,,,0.000103160000, -11.60000,
,,,0.000103180000, -11.80000,
,,,0.000103200000, -11.60000,
,,,0.000103220000, -11.80000,
,,,0.000103240000, -11.80000,
,,,0.000103260000, -11.80000,
,,,0.000103280000, -12.00000,
,,,0.000103300000, -11.80000,
,,,0.000103320000, -11.60000,
,,,0.000103340000, -11.60000,
,,,0.000103360000, -11.60000,
,,,0.000103380000, -11.40000,
,,,0.000103400000, -11.40000,
,,,0.000103420000, -11.40000,
,,,0.000103440000, -11.40000,
,,,0.000103460000, -11.40000,
,,,0.000103480000, -11.80000,
,,,0.000103500000, -11.20000,
,,,0.000103520000, -11.40000,
,,,0.000103540000, -11.20000,
,,,0.000103560000, -11.40000,
,,,0.000103580000, -11.40000,
,,,0.000103600000, -11.20000,
,,,0.000103620000, -11.40000,
,,,0.000103640000, -11.40000,
,,,0.000103660000, -11.40000,
,,,0.000103680000, -11.20000,
,,,0.000103700000, -11.20000,
,,,0.000103720000, -11.20000,
,,,0.000103740000, -11.40000,
,,,0.000103760000, -11.40000,
,,,0.000103780000, -11.00000,
,,,0.000103800000, -11.20000,
,,,0.000103820000, -11.00000,
,,,0.000103840000, -11.20000,
,,,0.000103860000, -11.20000,
,,,0.000103880000, -11.00000,
,,,0.000103900000, -11.40000,
,,,0.000103920000, -11.20000,
,,,0.000103940000, -11.20000,
,,,0.000103960000, -11.20000,
,,,0.000103980000, -11.20000,
,,,0.000104000000, -11.20000,
,,,0.000104020000, -11.20000,
,,,0.000104040000, -11.00000,
,,,0.000104060000, -11.40000,
,,,0.000104080000, -11.20000,
,,,0.000104100000, -11.00000,
,,,0.000104120000, -11.00000,
,,,0.000104140000, -11.00000,
,,,0.000104160000, -11.00000,
,,,0.000104180000, -11.20000,
,,,0.000104200000, -11.00000,
,,,0.000104220000, -10.80000,
,,,0.000104240000, -11.00000,
,,,0.000104260000, -11.00000,
,,,0.000104280000, -11.00000,
,,,0.000104300000, -11.00000,
,,,0.000104320000, -11.00000,
,,,0.000104340000, -10.80000,
,,,0.000104360000, -11.00000,
,,,0.000104380000, -11.20000,
,,,0.000104400000, -11.20000,
,,,0.000104420000, -10.80000,
,,,0.000104440000, -10.80000,
,,,0.000104460000, -11.00000,
,,,0.000104480000, -10.80000,
,,,0.000104500000, -10.80000,
,,,0.000104520000, -10.60000,
,,,0.000104540000, -10.80000,
,,,0.000104560000, -10.60000,
,,,0.000104580000, -10.80000,
,,,0.000104600000, -10.60000,
,,,0.000104620000, -10.40000,
,,,0.000104640000, -10.80000,
,,,0.000104660000, -10.60000,
,,,0.000104680000, -10.80000,
,,,0.000104700000, -10.80000,
,,,0.000104720000, -10.40000,
,,,0.000104740000, -10.40000,
,,,0.000104760000, -10.60000,
,,,0.000104780000, -10.40000,
,,,0.000104800000, -10.80000,
,,,0.000104820000, -10.60000,
,,,0.000104840000, -10.60000,
,,,0.000104860000, -10.40000,
,,,0.000104880000, -10.60000,
,,,0.000104900000, -10.60000,
,,,0.000104920000, -10.40000,
,,,0.000104940000, -10.40000,
,,,0.000104960000, -10.60000,
,,,0.000104980000, -10.40000,
,,,0.000105000000, -10.40000,
,,,0.000105020000, -10.40000,
,,,0.000105040000, -10.20000,
,,,0.000105060000, -10.60000,
,,,0.000105080000, -10.40000,
,,,0.000105100000, -10.20000,
,,,0.000105120000, -10.20000,
,,,0.000105140000, -10.00000,
,,,0.000105160000, -10.40000,
,,,0.000105180000, -10.40000,
,,,0.000105200000, -10.20000,
,,,0.000105220000, -10.00000,
,,,0.000105240000, -10.00000,
,,,0.000105260000, -10.40000,
,,,0.000105280000, -10.00000,
,,,0.000105300000, -10.20000,
,,,0.000105320000, -10.20000,
,,,0.000105340000, -10.20000,
,,,0.000105360000, -10.20000,
,,,0.000105380000, -10.20000,
,,,0.000105400000, -10.00000,
,,,0.000105420000, -10.00000,
,,,0.000105440000, -10.00000,
,,,0.000105460000, -10.20000,
,,,0.000105480000,  -9.80000,
,,,0.000105500000, -10.20000,
,,,0.000105520000, -10.00000,
,,,0.000105540000,  -9.80000,
,,,0.000105560000, -10.20000,
,,,0.000105580000, -10.20000,
,,,0.000105600000, -10.20000,
,,,0.000105620000, -10.00000,
,,,0.000105640000,  -9.80000,
,,,0.000105660000, -10.00000,
,,,0.000105680000, -10.00000,
,,,0.000105700000,  -9.80000,
,,,0.000105720000,  -9.80000,
,,,0.000105740000, -10.20000,
,,,0.000105760000, -10.00000,
,,,0.000105780000, -10.00000,
,,,0.000105800000, -10.00000,
,,,0.000105820000, -10.00000,
,,,0.000105840000, -10.00000,
,,,0.000105860000,  -9.80000,
,,,0.000105880000,  -9.80000,
,,,0.000105900000,  -9.60000,
,,,0.000105920000,  -9.60000,
,,,0.000105940000,  -9.40000,
,,,0.000105960000,  -9.80000,
,,,0.000105980000,  -9.60000,
,,,0.000106000000,  -9.60000,
,,,0.000106020000,  -9.60000,
,,,0.000106040000,  -9.80000,
,,,0.000106060000,  -9.60000,
,,,0.000106080000,  -9.60000,
,,,0.000106100000,  -9.60000,
,,,0.000106120000,  -9.80000,
,,,0.000106140000,  -9.40000,
,,,0.000106160000, -10.00000,
,,,0.000106180000,  -9.60000,
,,,0.000106200000,  -9.60000,
,,,0.000106220000,  -9.60000,
,,,0.000106240000,  -9.60000,
,,,0.000106260000,  -9.60000,
,,,0.000106280000,  -9.40000,
,,,0.000106300000,  -9.60000,
,,,0.000106320000,  -9.60000,
,,,0.000106340000,  -9.60000,
,,,0.000106360000,  -9.20000,
,,,0.000106380000,  -9.40000,
,,,0.000106400000,  -9.40000,
,,,0.000106420000,  -9.60000,
,,,0.000106440000,  -9.60000,
,,,0.000106460000,  -9.40000,
,,,0.000106480000,  -9.60000,
,,,0.000106500000,  -9.40000,
,,,0.000106520000,  -9.20000,
,,,0.000106540000,  -9.20000,
,,,0.000106560000,  -9.20000,
,,,0.000106580000,  -9.40000,
,,,0.000106600000,  -9.00000,
,,,0.000106620000,  -9.40000,
,,,0.000106640000,  -9.40000,
,,,0.000106660000,  -9.40000,
,,,0.000106680000,  -9.20000,
,,,0.000106700000,  -9.00000,
,,,0.000106720000,  -9.20000,
,,,0.000106740000,  -9.20000,
,,,0.000106760000,  -9.20000,
,,,0.000106780000,  -9.20000,
,,,0.000106800000,  -9.40000,
,,,0.000106820000,  -9.00000,
,,,0.000106840000,  -9.00000,
,,,0.000106860000,  -9.20000,
,,,0.000106880000,  -9.20000,
,,,0.000106900000,  -9.40000,
,,,0.000106920000,  -9.20000,
,,,0.000106940000,  -9.20000,
,,,0.000106960000,  -9.20000,
,,,0.000106980000,  -9.20000,
,,,0.000107000000,  -9.00000,
,,,0.000107020000,  -9.20000,
,,,0.000107040000,  -9.00000,
,,,0.000107060000,  -9.20000,
,,,0.000107080000,  -9.20000,
,,,0.000107100000,  -9.00000,
,,,0.000107120000,  -9.00000,
,,,0.000107140000,  -9.20000,
,,,0.000107160000,  -9.00000,
,,,0.000107180000,  -9.00000,
,,,0.000107200000,  -8.80000,
,,,0.000107220000,  -9.00000,
,,,0.000107240000,  -9.00000,
,,,0.000107260000,  -9.20000,
,,,0.000107280000,  -8.80000,
,,,0.000107300000,  -8.80000,
,,,0.000107320000,  -9.20000,
,,,0.000107340000,  -8.80000,
,,,0.000107360000,  -9.00000,
,,,0.000107380000,  -8.40000,
,,,0.000107400000,  -8.80000,
,,,0.000107420000,  -9.00000,
,,,0.000107440000,  -8.80000,
,,,0.000107460000,  -8.40000,
,,,0.000107480000,  -8.80000,
,,,0.000107500000,  -8.60000,
,,,0.000107520000,  -8.80000,
,,,0.000107540000,  -8.60000,
,,,0.000107560000,  -8.60000,
,,,0.000107580000,  -8.80000,
,,,0.000107600000,  -8.80000,
,,,0.000107620000,  -8.60000,
,,,0.000107640000,  -8.40000,
,,,0.000107660000,  -8.60000,
,,,0.000107680000,  -8.40000,
,,,0.000107700000,  -8.80000,
,,,0.000107720000,  -8.80000,
,,,0.000107740000,  -8.60000,
,,,0.000107760000,  -8.80000,
,,,0.000107780000,  -8.40000,
,,,0.000107800000,  -8.40000,
,,,0.000107820000,  -8.60000,
,,,0.000107840000,  -8.40000,
,,,0.000107860000,  -8.40000,
,,,0.000107880000,  -8.40000,
,,,0.000107900000,  -8.60000,
,,,0.000107920000,  -8.80000,
,,,0.000107940000,  -8.40000,
,,,0.000107960000,  -8.20000,
,,,0.000107980000,  -8.60000,
,,,0.000108000000,  -8.40000,
,,,0.000108020000,  -8.60000,
,,,0.000108040000,  -8.60000,
,,,0.000108060000,  -8.40000,
