data-source/4-11-21/ALL0000/F0000CH4.CSV

Record Length,2.500000e+03,,  -0.008500000000,  -2.64000,
Sample Interval,1.000000e-05,,  -0.008490000000,  -2.64000,
Trigger Point,8.500000000000e+02,,  -0.008480000000,  -2.60000,
,,,  -0.008470000000,  -2.60000,
,,,  -0.008460000000,  -2.64000,
,,,  -0.008450000000,  -2.60000,
Source,CH4,,  -0.008440000000,  -2.64000,
Vertical Units,V,,  -0.008430000000,  -2.64000,
Vertical Scale,1.000000e+00,,  -0.008420000000,  -2.64000,
Vertical Offset,2.400000e-01,,  -0.008410000000,  -2.64000,
Horizontal Units,s,,  -0.008400000000,  -2.68000,
Horizontal Scale,2.500000e-03,,  -0.008390000000,  -2.64000,
Pt Fmt,Y,,  -0.008380000000,  -2.64000,
Yzero,0.000000e+00,,  -0.008370000000,  -2.64000,
Probe Atten,1.000000e+01,,  -0.008360000000,  -2.64000,
Model Number,TBS1104,,  -0.008350000000,  -2.68000,
Serial Number,C014641,,  -0.008340000000,  -2.68000,
Firmware Version,FV:v26.05,,  -0.008330000000,  -2.64000,
,,,-00.008320000000,  -2.68000,
,,,-00.008310000000,  -2.68000,
,,,-00.008300000000,  -2.68000,
,,,-00.008290000000,  -2.68000,
,,,-00.008280000000,  -2.68000,
,,,-00.008270000000,  -2.64000,
,,,-00.008260000000,  -2.68000,
,,,-00.008250000000,  -2.68000,
,,,-00.008240000000,  -2.68000,
,,,-00.008230000000,  -2.68000,
,,,-00.008220000000,  -2.68000,
,,,-00.008210000000,  -2.68000,
,,,-00.008200000000,  -2.68000,
,,,-00.008190000000,  -2.68000,
,,,-00.008180000000,  -2.68000,
,,,-00.008170000000,  -2.72000,
,,,-00.008160000000,  -2.68000,
,,,-00.008150000000,  -2.68000,
,,,-00.008140000000,  -2.68000,
,,,-00.008130000000,  -2.72000,
,,,-00.008120000000,  -2.72000,
,,,-00.008110000000,  -2.72000,
,,,-00.008100000000,  -2.72000,
,,,-00.008090000000,  -2.72000,
,,,-00.008080000000,  -2.72000,
,,,-00.008070000000,  -2.72000,
,,,-00.008060000000,  -2.72000,
,,,-00.008050000000,  -2.76000,
,,,-00.008040000000,  -2.76000,
,,,-00.008030000000,  -2.76000,
,,,-00.008020000000,  -2.72000,
,,,-00.008010000000,  -2.72000,
,,,-00.008000000000,  -2.76000,
,,,-00.007990000000,  -2.76000,
,,,-00.007980000000,  -2.76000,
,,,-00.007970000000,  -2.76000,
,,,-00.007960000000,  -2.76000,
,,,-00.007950000000,  -2.76000,
,,,-00.007940000000,  -2.76000,
,,,-00.007930000000,  -2.76000,
,,,-00.007920000000,  -2.80000,
,,,-00.007910000000,  -2.76000,
,,,-00.007900000000,  -2.76000,
,,,-00.007890000000,  -2.76000,
,,,-00.007880000000,  -2.80000,
,,,-00.007870000000,  -2.80000,
,,,-00.007860000000,  -2.80000,
,,,-00.007850000000,  -2.80000,
,,,-00.007840000000,  -2.80000,
,,,-00.007830000000,  -2.80000,
,,,-00.007820000000,  -2.76000,
,,,-00.007810000000,  -2.80000,
,,,-00.007800000000,  -2.80000,
,,,-00.007790000000,  -2.80000,
,,,-00.007780000000,  -2.80000,
,,,-00.007770000000,  -2.84000,
,,,-00.007760000000,  -2.80000,
,,,-00.007750000000,  -2.80000,
,,,-00.007740000000,  -2.80000,
,,,-00.007730000000,  -2.80000,
,,,-00.007720000000,  -2.80000,
,,,-00.007710000000,  -2.84000,
,,,-00.007700000000,  -2.84000,
,,,-00.007690000000,  -2.84000,
,,,-00.007680000000,  -2.88000,
,,,-00.007670000000,  -2.84000,
,,,-00.007660000000,  -2.84000,
,,,-00.007650000000,  -2.80000,
,,,-00.007640000000,  -2.84000,
,,,-00.007630000000,  -2.84000,
,,,-00.007620000000,  -2.84000,
,,,-00.007610000000,  -2.88000,
,,,-00.007600000000,  -2.88000,
,,,-00.007590000000,  -2.84000,
,,,-00.007580000000,  -2.84000,
,,,-00.007570000000,  -2.88000,
,,,-00.007560000000,  -2.88000,
,,,-00.007550000000,  -2.88000,
,,,-00.007540000000,  -2.88000,
,,,-00.007530000000,  -2.88000,
,,,-00.007520000000,  -2.88000,
,,,-00.007510000000,  -2.88000,
,,,-00.007500000000,  -2.88000,
,,,-00.007490000000,  -2.88000,
,,,-00.007480000000,  -2.88000,
,,,-00.007470000000,  -2.88000,
,,,-00.007460000000,  -2.88000,
,,,-00.007450000000,  -2.88000,
,,,-00.007440000000,  -2.88000,
,,,-00.007430000000,  -2.92000,
,,,-00.007420000000,  -2.88000,
,,,-00.007410000000,  -2.88000,
,,,-00.007400000000,  -2.88000,
,,,-00.007390000000,  -2.92000,
,,,-00.007380000000,  -2.92000,
,,,-00.007370000000,  -2.92000,
,,,-00.007360000000,  -2.88000,
,,,-00.007350000000,  -2.88000,
,,,-00.007340000000,  -2.92000,
,,,-00.007330000000,  -2.92000,
,,,-00.007320000000,  -2.92000,
,,,-00.007310000000,  -2.96000,
,,,-00.007300000000,  -2.96000,
,,,-00.007290000000,  -2.92000,
,,,-00.007280000000,  -2.96000,
,,,-00.007270000000,  -2.96000,
,,,-00.007260000000,  -2.96000,
,,,-00.007250000000,  -2.92000,
,,,-00.007240000000,  -2.96000,
,,,-00.007230000000,  -2.96000,
,,,-00.007220000000,  -2.96000,
,,,-00.007210000000,  -2.96000,
,,,-00.007200000000,  -2.96000,
,,,-00.007190000000,  -2.96000,
,,,-00.007180000000,  -2.96000,
,,,-00.007170000000,  -2.96000,
,,,-00.007160000000,  -2.96000,
,,,-00.007150000000,  -2.96000,
,,,-00.007140000000,  -3.00000,
,,,-00.007130000000,  -3.00000,
,,,-00.007120000000,  -2.96000,
,,,-00.007110000000,  -2.96000,
,,,-00.007100000000,  -2.96000,
,,,-00.007090000000,  -2.96000,
,,,-00.007080000000,  -3.00000,
,,,-00.007070000000,  -3.00000,
,,,-00.007060000000,  -3.00000,
,,,-00.007050000000,  -3.00000,
,,,-00.007040000000,  -3.00000,
,,,-00.007030000000,  -3.00000,
,,,-00.007020000000,  -3.00000,
,,,-00.007010000000,  -3.04000,
,,,-00.007000000000,  -3.00000,
,,,-00.006990000000,  -3.00000,
,,,-00.006980000000,  -3.00000,
,,,-00.006970000000,  -3.00000,
,,,-00.006960000000,  -3.00000,
,,,-00.006950000000,  -3.04000,
,,,-00.006940000000,  -3.00000,
,,,-00.006930000000,  -2.96000,
,,,-00.006920000000,  -3.00000,
,,,-00.006910000000,  -2.96000,
,,,-00.006900000000,  -2.96000,
,,,-00.006890000000,  -3.00000,
,,,-00.006880000000,  -2.96000,
,,,-00.006870000000,  -2.96000,
,,,-00.006860000000,  -3.00000,
,,,-00.006850000000,  -3.00000,
,,,-00.006840000000,  -2.96000,
,,,-00.006830000000,  -2.96000,
,,,-00.006820000000,  -2.96000,
,,,-00.006810000000,  -2.96000,
,,,-00.006800000000,  -2.96000,
,,,-00.006790000000,  -2.96000,
,,,-00.006780000000,  -2.96000,
,,,-00.006770000000,  -2.96000,
,,,-00.006760000000,  -2.96000,
,,,-00.006750000000,  -2.96000,
,,,-00.006740000000,  -2.96000,
,,,-00.006730000000,  -2.96000,
,,,-00.006720000000,  -2.92000,
,,,-00.006710000000,  -2.96000,
,,,-00.006700000000,  -2.92000,
,,,-00.006690000000,  -2.92000,
,,,-00.006680000000,  -2.92000,
,,,-00.006670000000,  -2.92000,
,,,-00.006660000000,  -2.92000,
,,,-00.006650000000,  -2.92000,
,,,-00.006640000000,  -2.96000,
,,,-00.006630000000,  -2.92000,
,,,-00.006620000000,  -2.92000,
,,,-00.006610000000,  -2.92000,
,,,-00.006600000000,  -2.88000,
,,,-00.006590000000,  -2.88000,
,,,-00.006580000000,  -2.88000,
,,,-00.006570000000,  -2.92000,
,,,-00.006560000000,  -2.88000,
,,,-00.006550000000,  -2.88000,
,,,-00.006540000000,  -2.92000,
,,,-00.006530000000,  -2.88000,
,,,-00.006520000000,  -2.88000,
,,,-00.006510000000,  -2.88000,
,,,-00.006500000000,  -2.88000,
,,,-00.006490000000,  -2.88000,
,,,-00.006480000000,  -2.88000,
,,,-00.006470000000,  -2.88000,
,,,-00.006460000000,  -2.88000,
,,,-00.006450000000,  -2.88000,
,,,-00.006440000000,  -2.88000,
,,,-00.006430000000,  -2.88000,
,,,-00.006420000000,  -2.88000,
,,,-00.006410000000,  -2.88000,
,,,-00.006400000000,  -2.84000,
,,,-00.006390000000,  -2.88000,
,,,-00.006380000000,  -2.84000,
,,,-00.006370000000,  -2.88000,
,,,-00.006360000000,  -2.84000,
,,,-00.006350000000,  -2.84000,
,,,-00.006340000000,  -2.84000,
,,,-00.006330000000,  -2.84000,
,,,-00.006320000000,  -2.84000,
,,,-00.006310000000,  -2.84000,
,,,-00.006300000000,  -2.84000,
,,,-00.006290000000,  -2.84000,
,,,-00.006280000000,  -2.84000,
,,,-00.006270000000,  -2.80000,
,,,-00.006260000000,  -2.84000,
,,,-00.006250000000,  -2.80000,
,,,-00.006240000000,  -2.80000,
,,,-00.006230000000,  -2.80000,
,,,-00.006220000000,  -2.80000,
,,,-00.006210000000,  -2.80000,
,,,-00.006200000000,  -2.80000,
,,,-00.006190000000,  -2.80000,
,,,-00.006180000000,  -2.80000,
,,,-00.006170000000,  -2.80000,
,,,-00.006160000000,  -2.80000,
,,,-00.006150000000,  -2.80000,
,,,-00.006140000000,  -2.84000,
,,,-00.006130000000,  -2.80000,
,,,-00.006120000000,  -2.80000,
,,,-00.006110000000,  -2.76000,
,,,-00.006100000000,  -2.80000,
,,,-00.006090000000,  -2.80000,
,,,-00.006080000000,  -2.80000,
,,,-00.006070000000,  -2.80000,
,,,-00.006060000000,  -2.76000,
,,,-00.006050000000,  -2.76000,
,,,-00.006040000000,  -2.76000,
,,,-00.006030000000,  -2.80000,
,,,-00.006020000000,  -2.76000,
,,,-00.006010000000,  -2.76000,
,,,-00.006000000000,  -2.76000,
,,,-00.005990000000,  -2.76000,
,,,-00.005980000000,  -2.76000,
,,,-00.005970000000,  -2.72000,
,,,-00.005960000000,  -2.72000,
,,,-00.005950000000,  -2.72000,
,,,-00.005940000000,  -2.76000,
,,,-00.005930000000,  -2.72000,
,,,-00.005920000000,  -2.72000,
,,,-00.005910000000,  -2.72000,
,,,-00.005900000000,  -2.72000,
,,,-00.005890000000,  -2.72000,
,,,-00.005880000000,  -2.72000,
,,,-00.005870000000,  -2.72000,
,,,-00.005860000000,  -2.68000,
,,,-00.005850000000,  -2.72000,
,,,-00.005840000000,  -2.72000,
,,,-00.005830000000,  -2.72000,
,,,-00.005820000000,  -2.72000,
,,,-00.005810000000,  -2.68000,
,,,-00.005800000000,  -2.68000,
,,,-00.005790000000,  -2.68000,
,,,-00.005780000000,  -2.72000,
,,,-00.005770000000,  -2.68000,
,,,-00.005760000000,  -2.68000,
,,,-00.005750000000,  -2.68000,
,,,-00.005740000000,  -2.68000,
,,,-00.005730000000,  -2.68000,
,,,-00.005720000000,  -2.68000,
,,,-00.005710000000,  -2.68000,
,,,-00.005700000000,  -2.68000,
,,,-00.005690000000,  -2.68000,
,,,-00.005680000000,  -2.68000,
,,,-00.005670000000,  -2.68000,
,,,-00.005660000000,  -2.68000,
,,,-00.005650000000,  -2.64000,
,,,-00.005640000000,  -2.64000,
,,,-00.005630000000,  -2.68000,
,,,-00.005620000000,  -2.64000,
,,,-00.005610000000,  -2.68000,
,,,-00.005600000000,  -2.64000,
,,,-00.005590000000,  -2.64000,
,,,-00.005580000000,  -2.60000,
,,,-00.005570000000,  -2.64000,
,,,-00.005560000000,  -2.64000,
,,,-00.005550000000,  -2.64000,
,,,-00.005540000000,  -2.60000,
,,,-00.005530000000,  -2.60000,
,,,-00.005520000000,  -2.64000,
,,,-00.005510000000,  -2.60000,
,,,-00.005500000000,  -2.60000,
,,,-00.005490000000,  -2.60000,
,,,-00.005480000000,  -2.60000,
,,,-00.005470000000,  -2.60000,
,,,-00.005460000000,  -2.64000,
,,,-00.005450000000,  -2.60000,
,,,-00.005440000000,  -2.60000,
,,,-00.005430000000,  -2.60000,
,,,-00.005420000000,  -2.60000,
,,,-00.005410000000,  -2.60000,
,,,-00.005400000000,  -2.60000,
,,,-00.005390000000,  -2.60000,
,,,-00.005380000000,  -2.60000,
,,,-00.005370000000,  -2.60000,
,,,-00.005360000000,  -2.60000,
,,,-00.005350000000,  -2.60000,
,,,-00.005340000000,  -2.56000,
,,,-00.005330000000,  -2.56000,
,,,-00.005320000000,  -2.60000,
,,,-00.005310000000,  -2.56000,
,,,-00.005300000000,  -2.56000,
,,,-00.005290000000,  -2.56000,
,,,-00.005280000000,  -2.56000,
,,,-00.005270000000,  -2.56000,
,,,-00.005260000000,  -2.56000,
,,,-00.005250000000,  -2.56000,
,,,-00.005240000000,  -2.56000,
,,,-00.005230000000,  -2.56000,
,,,-00.005220000000,  -2.56000,
,,,-00.005210000000,  -2.56000,
,,,-00.005200000000,  -2.56000,
,,,-00.005190000000,  -2.52000,
,,,-00.005180000000,  -2.52000,
,,,-00.005170000000,  -2.56000,
,,,-00.005160000000,  -2.52000,
,,,-00.005150000000,  -2.52000,
,,,-00.005140000000,  -2.52000,
,,,-00.005130000000,  -2.52000,
,,,-00.005120000000,  -2.52000,
,,,-00.005110000000,  -2.52000,
,,,-00.005100000000,  -2.52000,
,,,-00.005090000000,  -2.52000,
,,,-00.005080000000,  -2.48000,
,,,-00.005070000000,  -2.48000,
,,,-00.005060000000,  -2.48000,
,,,-00.005050000000,  -2.52000,
,,,-00.005040000000,  -2.48000,
,,,-00.005030000000,  -2.52000,
,,,-00.005020000000,  -2.48000,
,,,-00.005010000000,  -2.48000,
,,,-00.005000000000,  -2.48000,
,,,-00.004990000000,  -2.48000,
,,,-00.004980000000,  -2.48000,
,,,-00.004970000000,  -2.52000,
,,,-00.004960000000,  -2.48000,
,,,-00.004950000000,  -2.48000,
,,,-00.004940000000,  -2.48000,
,,,-00.004930000000,  -2.44000,
,,,-00.004920000000,  -2.48000,
,,,-00.004910000000,  -2.44000,
,,,-00.004900000000,  -2.44000,
,,,-00.004890000000,  -2.44000,
,,,-00.004880000000,  -2.48000,
,,,-00.004870000000,  -2.44000,
,,,-00.004860000000,  -2.44000,
,,,-00.004850000000,  -2.44000,
,,,-00.004840000000,  -2.44000,
,,,-00.004830000000,  -2.44000,
,,,-00.004820000000,  -2.44000,
,,,-00.004810000000,  -2.44000,
,,,-00.004800000000,  -2.44000,
,,,-00.004790000000,  -2.40000,
,,,-00.004780000000,  -2.44000,
,,,-00.004770000000,  -2.40000,
,,,-00.004760000000,  -2.40000,
,,,-00.004750000000,  -2.40000,
,,,-00.004740000000,  -2.44000,
,,,-00.004730000000,  -2.44000,
,,,-00.004720000000,  -2.40000,
,,,-00.004710000000,  -2.40000,
,,,-00.004700000000,  -2.40000,
,,,-00.004690000000,  -2.40000,
,,,-00.004680000000,  -2.40000,
,,,-00.004670000000,  -2.40000,
,,,-00.004660000000,  -2.40000,
,,,-00.004650000000,  -2.40000,
,,,-00.004640000000,  -2.36000,
,,,-00.004630000000,  -2.40000,
,,,-00.004620000000,  -2.40000,
,,,-00.004610000000,  -2.36000,
,,,-00.004600000000,  -2.36000,
,,,-00.004590000000,  -2.40000,
,,,-00.004580000000,  -2.36000,
,,,-00.004570000000,  -2.36000,
,,,-00.004560000000,  -2.36000,
,,,-00.004550000000,  -2.36000,
,,,-00.004540000000,  -2.36000,
,,,-00.004530000000,  -2.36000,
,,,-00.004520000000,  -2.36000,
,,,-00.004510000000,  -2.36000,
,,,-00.004500000000,  -2.36000,
,,,-00.004490000000,  -2.32000,
,,,-00.004480000000,  -2.36000,
,,,-00.004470000000,  -2.36000,
,,,-00.004460000000,  -2.32000,
,,,-00.004450000000,  -2.36000,
,,,-00.004440000000,  -2.32000,
,,,-00.004430000000,  -2.32000,
,,,-00.004420000000,  -2.32000,
,,,-00.004410000000,  -2.32000,
,,,-00.004400000000,  -2.32000,
,,,-00.004390000000,  -2.32000,
,,,-00.004380000000,  -2.32000,
,,,-00.004370000000,  -2.32000,
,,,-00.004360000000,  -2.32000,
,,,-00.004350000000,  -2.32000,
,,,-00.004340000000,  -2.32000,
,,,-00.004330000000,  -2.28000,
,,,-00.004320000000,  -2.28000,
,,,-00.004310000000,  -2.28000,
,,,-00.004300000000,  -2.28000,
,,,-00.004290000000,  -2.32000,
,,,-00.004280000000,  -2.32000,
,,,-00.004270000000,  -2.28000,
,,,-00.004260000000,  -2.28000,
,,,-00.004250000000,  -2.28000,
,,,-00.004240000000,  -2.28000,
,,,-00.004230000000,  -2.28000,
,,,-00.004220000000,  -2.24000,
,,,-00.004210000000,  -2.28000,
,,,-00.004200000000,  -2.28000,
,,,-00.004190000000,  -2.28000,
,,,-00.004180000000,  -2.24000,
,,,-00.004170000000,  -2.28000,
,,,-00.004160000000,  -2.24000,
,,,-00.004150000000,  -2.28000,
,,,-00.004140000000,  -2.24000,
,,,-00.004130000000,  -2.24000,
,,,-00.004120000000,  -2.24000,
,,,-00.004110000000,  -2.24000,
,,,-00.004100000000,  -2.24000,
,,,-00.004090000000,  -2.24000,
,,,-00.004080000000,  -2.24000,
,,,-00.004070000000,  -2.24000,
,,,-00.004060000000,  -2.20000,
,,,-00.004050000000,  -2.24000,
,,,-00.004040000000,  -2.24000,
,,,-00.004030000000,  -2.24000,
,,,-00.004020000000,  -2.24000,
,,,-00.004010000000,  -2.20000,
,,,-00.004000000000,  -2.20000,
,,,-00.003990000000,  -2.24000,
,,,-00.003980000000,  -2.20000,
,,,-00.003970000000,  -2.16000,
,,,-00.003960000000,  -2.20000,
,,,-00.003950000000,  -2.20000,
,,,-00.003940000000,  -2.20000,
,,,-00.003930000000,  -2.20000,
,,,-00.003920000000,  -2.20000,
,,,-00.003910000000,  -2.20000,
,,,-00.003900000000,  -2.20000,
,,,-00.003890000000,  -2.16000,
,,,-00.003880000000,  -2.20000,
,,,-00.003870000000,  -2.16000,
,,,-00.003860000000,  -2.20000,
,,,-00.003850000000,  -2.16000,
,,,-00.003840000000,  -2.16000,
,,,-00.003830000000,  -2.16000,
,,,-00.003820000000,  -2.16000,
,,,-00.003810000000,  -2.16000,
,,,-00.003800000000,  -2.16000,
,,,-00.003790000000,  -2.16000,
,,,-00.003780000000,  -2.16000,
,,,-00.003770000000,  -2.16000,
,,,-00.003760000000,  -2.16000,
,,,-00.003750000000,  -2.16000,
,,,-00.003740000000,  -2.16000,
,,,-00.003730000000,  -2.16000,
,,,-00.003720000000,  -2.16000,
,,,-00.003710000000,  -2.12000,
,,,-00.003700000000,  -2.12000,
,,,-00.003690000000,  -2.12000,
,,,-00.003680000000,  -2.12000,
,,,-00.003670000000,  -2.16000,
,,,-00.003660000000,  -2.12000,
,,,-00.003650000000,  -2.12000,
,,,-00.003640000000,  -2.12000,
,,,-00.003630000000,  -2.12000,
,,,-00.003620000000,  -2.12000,
,,,-00.003610000000,  -2.12000,
,,,-00.003600000000,  -2.12000,
,,,-00.003590000000,  -2.08000,
,,,-00.003580000000,  -2.12000,
,,,-00.003570000000,  -2.12000,
,,,-00.003560000000,  -2.12000,
,,,-00.003550000000,  -2.08000,
,,,-00.003540000000,  -2.08000,
,,,-00.003530000000,  -2.08000,
,,,-00.003520000000,  -2.08000,
,,,-00.003510000000,  -2.08000,
,,,-00.003500000000,  -2.08000,
,,,-00.003490000000,  -2.08000,
,,,-00.003480000000,  -2.04000,
,,,-00.003470000000,  -2.08000,
,,,-00.003460000000,  -2.08000,
,,,-00.003450000000,  -2.12000,
,,,-00.003440000000,  -2.08000,
,,,-00.003430000000,  -2.08000,
,,,-00.003420000000,  -2.08000,
,,,-00.003410000000,  -2.08000,
,,,-00.003400000000,  -2.08000,
,,,-00.003390000000,  -2.08000,
,,,-00.003380000000,  -2.08000,
,,,-00.003370000000,  -2.08000,
,,,-00.003360000000,  -2.04000,
,,,-00.003350000000,  -2.04000,
,,,-00.003340000000,  -2.08000,
,,,-00.003330000000,  -2.04000,
,,,-00.003320000000,  -2.08000,
,,,-00.003310000000,  -2.04000,
,,,-00.003300000000,  -2.04000,
,,,-00.003290000000,  -2.04000,
,,,-00.003280000000,  -2.04000,
,,,-00.003270000000,  -2.04000,
,,,-00.003260000000,  -2.00000,
,,,-00.003250000000,  -2.04000,
,,,-00.003240000000,  -2.04000,
,,,-00.003230000000,  -2.04000,
,,,-00.003220000000,  -2.04000,
,,,-00.003210000000,  -2.04000,
,,,-00.003200000000,  -2.04000,
,,,-00.003190000000,  -2.04000,
,,,-00.003180000000,  -2.00000,
,,,-00.003170000000,  -2.00000,
,,,-00.003160000000,  -2.00000,
,,,-00.003150000000,  -2.00000,
,,,-00.003140000000,  -2.00000,
,,,-00.003130000000,  -2.00000,
,,,-00.003120000000,  -2.00000,
,,,-00.003110000000,  -2.00000,
,,,-00.003100000000,  -2.00000,
,,,-00.003090000000,  -1.96000,
,,,-00.003080000000,  -2.00000,
,,,-00.003070000000,  -1.96000,
,,,-00.003060000000,  -2.00000,
,,,-00.003050000000,  -1.96000,
,,,-00.003040000000,  -1.96000,
,,,-00.003030000000,  -1.96000,
,,,-00.003020000000,  -1.96000,
,,,-00.003010000000,  -1.96000,
,,,-00.003000000000,  -1.96000,
,,,-00.002990000000,  -1.96000,
,,,-00.002980000000,  -1.96000,
,,,-00.002970000000,  -1.96000,
,,,-00.002960000000,  -1.96000,
,,,-00.002950000000,  -1.96000,
,,,-00.002940000000,  -1.96000,
,,,-00.002930000000,  -1.92000,
,,,-00.002920000000,  -1.96000,
,,,-00.002910000000,  -1.96000,
,,,-00.002900000000,  -1.92000,
,,,-00.002890000000,  -1.92000,
,,,-00.002880000000,  -1.92000,
,,,-00.002870000000,  -1.92000,
,,,-00.002860000000,  -1.92000,
,,,-00.002850000000,  -1.92000,
,,,-00.002840000000,  -1.92000,
,,,-00.002830000000,  -1.92000,
,,,-00.002820000000,  -1.92000,
,,,-00.002810000000,  -1.92000,
,,,-00.002800000000,  -1.92000,
,,,-00.002790000000,  -1.88000,
,,,-00.002780000000,  -1.92000,
,,,-00.002770000000,  -1.92000,
,,,-00.002760000000,  -1.88000,
,,,-00.002750000000,  -1.84000,
,,,-00.002740000000,  -1.88000,
,,,-00.002730000000,  -1.88000,
,,,-00.002720000000,  -1.88000,
,,,-00.002710000000,  -1.88000,
,,,-00.002700000000,  -1.88000,
,,,-00.002690000000,  -1.84000,
,,,-00.002680000000,  -1.84000,
,,,-00.002670000000,  -1.88000,
,,,-00.002660000000,  -1.84000,
,,,-00.002650000000,  -1.84000,
,,,-00.002640000000,  -1.88000,
,,,-00.002630000000,  -1.88000,
,,,-00.002620000000,  -1.84000,
,,,-00.002610000000,  -1.84000,
,,,-00.002600000000,  -1.84000,
,,,-00.002590000000,  -1.84000,
,,,-00.002580000000,  -1.84000,
,,,-00.002570000000,  -1.84000,
,,,-00.002560000000,  -1.84000,
,,,-00.002550000000,  -1.84000,
,,,-00.002540000000,  -1.84000,
,,,-00.002530000000,  -1.84000,
,,,-00.002520000000,  -1.84000,
,,,-00.002510000000,  -1.84000,
,,,-00.002500000000,  -1.84000,
,,,-00.002490000000,  -1.80000,
,,,-00.002480000000,  -1.80000,
,,,-00.002470000000,  -1.84000,
,,,-00.002460000000,  -1.80000,
,,,-00.002450000000,  -1.80000,
,,,-00.002440000000,  -1.80000,
,,,-00.002430000000,  -1.80000,
,,,-00.002420000000,  -1.80000,
,,,-00.002410000000,  -1.80000,
,,,-00.002400000000,  -1.80000,
,,,-00.002390000000,  -1.76000,
,,,-00.002380000000,  -1.76000,
,,,-00.002370000000,  -1.80000,
