data-source/28-10-21/waveformsAq/F0033CH3.CSV

Record Length,2.500000e+03,,   1.894900000000,   4.80000,
Sample Interval,1.000000e-05,,   1.894910000000,   4.00000,
Trigger Point,-1.894900000000e+05,,   1.894920000000,   4.80000,
,,,   1.894930000000,   4.80000,
,,,   1.894940000000,   4.80000,
,,,   1.894950000000,   0.00000,
Source,CH3,,   1.894960000000,   0.00000,
Vertical Units,V,,   1.894970000000,   0.00000,
Vertical Scale,2.000000e+01,,   1.894980000000,   0.00000,
Vertical Offset,6.640000e+01,,   1.894990000000,   0.00000,
Horizontal Units,s,,   1.895000000000,   0.00000,
Horizontal Scale,2.500000e-03,,   1.895010000000,   0.00000,
Pt Fmt,Y,,   1.895020000000,   0.00000,
Yzero,0.000000e+00,,   1.895030000000,   0.00000,
Probe Atten,1.000000e+01,,   1.895040000000,   0.00000,
Model Number,TBS1104,,   1.895050000000,   0.00000,
Serial Number,C014641,,   1.895060000000,   0.00000,
Firmware Version,FV:v26.05,,   1.895070000000,   0.00000,
,,,1.895080000000,   0.00000,
,,,1.895090000000,   0.00000,
,,,1.895100000000,   0.00000,
,,,1.895110000000,   0.00000,
,,,1.895120000000,   0.00000,
,,,1.895130000000,   0.00000,
,,,1.895140000000,   0.00000,
,,,1.895150000000,   0.80000,
,,,1.895160000000,   0.00000,
,,,1.895170000000,   0.00000,
,,,1.895180000000,   0.00000,
,,,1.895190000000,   0.00000,
,,,1.895200000000,   0.00000,
,,,1.895210000000,   0.00000,
,,,1.895220000000,   0.00000,
,,,1.895230000000,   0.00000,
,,,1.895240000000,   0.00000,
,,,1.895250000000,   0.00000,
,,,1.895260000000,   0.00000,
,,,1.895270000000,   0.80000,
,,,1.895280000000,   0.00000,
,,,1.895290000000,   0.00000,
,,,1.895300000000,   0.80000,
,,,1.895310000000,   0.00000,
,,,1.895320000000,   0.00000,
,,,1.895330000000,   0.00000,
,,,1.895340000000,   0.80000,
,,,1.895350000000,   0.00000,
,,,1.895360000000,   0.00000,
,,,1.895370000000,   0.00000,
,,,1.895380000000,   0.00000,
,,,1.895390000000,   0.00000,
,,,1.895400000000,   0.00000,
,,,1.895410000000,   0.00000,
,,,1.895420000000,   0.00000,
,,,1.895430000000,   0.00000,
,,,1.895440000000,   0.00000,
,,,1.895450000000,   0.00000,
,,,1.895460000000,   0.00000,
,,,1.895470000000,   0.00000,
,,,1.895480000000,   0.00000,
,,,1.895490000000,   0.00000,
,,,1.895500000000,   0.00000,
,,,1.895510000000,   0.00000,
,,,1.895520000000,   0.00000,
,,,1.895530000000,   0.00000,
,,,1.895540000000,   0.00000,
,,,1.895550000000,   0.00000,
,,,1.895560000000,   0.00000,
,,,1.895570000000,   0.00000,
,,,1.895580000000,   0.00000,
,,,1.895590000000,   0.00000,
,,,1.895600000000,   0.00000,
,,,1.895610000000,   0.00000,
,,,1.895620000000,   0.00000,
,,,1.895630000000,   0.00000,
,,,1.895640000000,   0.00000,
,,,1.895650000000,   0.00000,
,,,1.895660000000,   0.00000,
,,,1.895670000000,   0.00000,
,,,1.895680000000,   0.00000,
,,,1.895690000000,   0.00000,
,,,1.895700000000,   1.60000,
,,,1.895710000000,   4.00000,
,,,1.895720000000,   4.80000,
,,,1.895730000000,   4.80000,
,,,1.895740000000,   4.80000,
,,,1.895750000000,   4.80000,
,,,1.895760000000,   4.80000,
,,,1.895770000000,   4.00000,
,,,1.895780000000,   4.00000,
,,,1.895790000000,   4.80000,
,,,1.895800000000,   4.80000,
,,,1.895810000000,   4.80000,
,,,1.895820000000,   4.80000,
,,,1.895830000000,   0.00000,
,,,1.895840000000,   0.00000,
,,,1.895850000000,   0.00000,
,,,1.895860000000,   0.00000,
,,,1.895870000000,   0.00000,
,,,1.895880000000,   0.00000,
,,,1.895890000000,   0.00000,
,,,1.895900000000,   0.00000,
,,,1.895910000000,   0.00000,
,,,1.895920000000,   0.00000,
,,,1.895930000000,   0.00000,
,,,1.895940000000,   0.00000,
,,,1.895950000000,   0.00000,
,,,1.895960000000,   0.00000,
,,,1.895970000000,   0.00000,
,,,1.895980000000,   4.00000,
,,,1.895990000000,   4.00000,
,,,1.896000000000,   4.80000,
,,,1.896010000000,   4.80000,
,,,1.896020000000,   4.80000,
,,,1.896030000000,   4.80000,
,,,1.896040000000,   4.80000,
,,,1.896050000000,   4.80000,
,,,1.896060000000,   5.60000,
,,,1.896070000000,   4.80000,
,,,1.896080000000,   0.00000,
,,,1.896090000000,   0.00000,
,,,1.896100000000,   0.00000,
,,,1.896110000000,   0.00000,
,,,1.896120000000,   0.00000,
,,,1.896130000000,   0.80000,
,,,1.896140000000,   0.00000,
,,,1.896150000000,   0.80000,
,,,1.896160000000,   0.00000,
,,,1.896170000000,   0.00000,
,,,1.896180000000,   0.80000,
,,,1.896190000000,   0.00000,
,,,1.896200000000,   0.00000,
,,,1.896210000000,   0.00000,
,,,1.896220000000,   0.00000,
,,,1.896230000000,   0.00000,
,,,1.896240000000,   0.00000,
,,,1.896250000000,   0.00000,
,,,1.896260000000,   0.00000,
,,,1.896270000000,   0.00000,
,,,1.896280000000,   0.80000,
,,,1.896290000000,   0.00000,
,,,1.896300000000,   0.00000,
,,,1.896310000000,   0.00000,
,,,1.896320000000,   0.00000,
,,,1.896330000000,   0.00000,
,,,1.896340000000,   0.00000,
,,,1.896350000000,   0.00000,
,,,1.896360000000,   0.00000,
,,,1.896370000000,   0.80000,
,,,1.896380000000,   0.00000,
,,,1.896390000000,   0.00000,
,,,1.896400000000,   0.00000,
,,,1.896410000000,   0.00000,
,,,1.896420000000,   0.00000,
,,,1.896430000000,   0.00000,
,,,1.896440000000,   0.00000,
,,,1.896450000000,   0.00000,
,,,1.896460000000,   0.80000,
,,,1.896470000000,   0.80000,
,,,1.896480000000,   0.00000,
,,,1.896490000000,   0.00000,
,,,1.896500000000,   0.00000,
,,,1.896510000000,   0.00000,
,,,1.896520000000,   0.00000,
,,,1.896530000000,   0.00000,
,,,1.896540000000,   0.80000,
,,,1.896550000000,   0.00000,
,,,1.896560000000,   0.00000,
,,,1.896570000000,   0.00000,
,,,1.896580000000,   0.00000,
,,,1.896590000000,   0.00000,
,,,1.896600000000,   0.00000,
,,,1.896610000000,   0.00000,
,,,1.896620000000,   0.00000,
,,,1.896630000000,   0.00000,
,,,1.896640000000,   0.00000,
,,,1.896650000000,   0.00000,
,,,1.896660000000,   0.00000,
,,,1.896670000000,   0.00000,
,,,1.896680000000,   0.80000,
,,,1.896690000000,   0.00000,
,,,1.896700000000,   0.00000,
,,,1.896710000000,   4.00000,
,,,1.896720000000,   4.00000,
,,,1.896730000000,   4.80000,
,,,1.896740000000,   4.80000,
,,,1.896750000000,   4.80000,
,,,1.896760000000,   4.80000,
,,,1.896770000000,   4.80000,
,,,1.896780000000,   4.80000,
,,,1.896790000000,   4.80000,
,,,1.896800000000,   4.80000,
,,,1.896810000000,   4.80000,
,,,1.896820000000,   0.80000,
,,,1.896830000000,   0.00000,
,,,1.896840000000,   0.00000,
,,,1.896850000000,   0.00000,
,,,1.896860000000,   0.00000,
,,,1.896870000000,   0.00000,
,,,1.896880000000,   0.00000,
,,,1.896890000000,   0.00000,
,,,1.896900000000,   0.00000,
,,,1.896910000000,   0.00000,
,,,1.896920000000,   0.00000,
,,,1.896930000000,   0.00000,
,,,1.896940000000,   0.00000,
,,,1.896950000000,   0.80000,
,,,1.896960000000,   0.00000,
,,,1.896970000000,   0.00000,
,,,1.896980000000,   0.00000,
,,,1.896990000000,   0.00000,
,,,1.897000000000,   0.00000,
,,,1.897010000000,   0.00000,
,,,1.897020000000,   0.00000,
,,,1.897030000000,   0.00000,
,,,1.897040000000,   0.00000,
,,,1.897050000000,   0.00000,
,,,1.897060000000,   0.00000,
,,,1.897070000000,   0.00000,
,,,1.897080000000,   0.80000,
,,,1.897090000000,   0.00000,
,,,1.897100000000,   0.00000,
,,,1.897110000000,   0.00000,
,,,1.897120000000,   0.00000,
,,,1.897130000000,   0.00000,
,,,1.897140000000,   0.00000,
,,,1.897150000000,   0.00000,
,,,1.897160000000,   0.00000,
,,,1.897170000000,   0.00000,
,,,1.897180000000,   0.00000,
,,,1.897190000000,   0.00000,
,,,1.897200000000,   0.00000,
,,,1.897210000000,   0.00000,
,,,1.897220000000,   0.00000,
,,,1.897230000000,   0.80000,
,,,1.897240000000,   0.00000,
,,,1.897250000000,   0.00000,
,,,1.897260000000,   0.00000,
,,,1.897270000000,   0.00000,
,,,1.897280000000,   0.00000,
,,,1.897290000000,   0.00000,
,,,1.897300000000,   0.00000,
,,,1.897310000000,   0.00000,
,,,1.897320000000,   0.00000,
,,,1.897330000000,   0.00000,
,,,1.897340000000,   0.00000,
,,,1.897350000000,   0.00000,
,,,1.897360000000,   0.00000,
,,,1.897370000000,   0.00000,
,,,1.897380000000,   0.00000,
,,,1.897390000000,   0.00000,
,,,1.897400000000,   0.00000,
,,,1.897410000000,   0.80000,
,,,1.897420000000,   0.80000,
,,,1.897430000000,   0.00000,
,,,1.897440000000,   0.00000,
,,,1.897450000000,   0.00000,
,,,1.897460000000,   0.00000,
,,,1.897470000000,   0.00000,
,,,1.897480000000,   0.00000,
,,,1.897490000000,   0.00000,
,,,1.897500000000,   0.00000,
,,,1.897510000000,   0.00000,
,,,1.897520000000,   0.00000,
,,,1.897530000000,   0.80000,
,,,1.897540000000,   0.00000,
,,,1.897550000000,   0.80000,
,,,1.897560000000,   0.00000,
,,,1.897570000000,   0.80000,
,,,1.897580000000,   0.00000,
,,,1.897590000000,   0.00000,
,,,1.897600000000,   0.00000,
,,,1.897610000000,   0.00000,
,,,1.897620000000,   0.00000,
,,,1.897630000000,   0.00000,
,,,1.897640000000,   0.00000,
,,,1.897650000000,   0.00000,
,,,1.897660000000,   0.00000,
,,,1.897670000000,   0.80000,
,,,1.897680000000,   0.00000,
,,,1.897690000000,   0.00000,
,,,1.897700000000,   0.80000,
,,,1.897710000000,   4.00000,
,,,1.897720000000,   4.80000,
,,,1.897730000000,   4.80000,
,,,1.897740000000,   4.80000,
,,,1.897750000000,   4.80000,
,,,1.897760000000,   4.80000,
,,,1.897770000000,   4.80000,
,,,1.897780000000,   4.80000,
,,,1.897790000000,   4.80000,
,,,1.897800000000,   4.80000,
,,,1.897810000000,   4.80000,
,,,1.897820000000,   5.60000,
,,,1.897830000000,   0.00000,
,,,1.897840000000,   0.00000,
,,,1.897850000000,   0.00000,
,,,1.897860000000,   0.00000,
,,,1.897870000000,   0.00000,
,,,1.897880000000,   0.80000,
,,,1.897890000000,   0.00000,
,,,1.897900000000,   0.00000,
,,,1.897910000000,   0.00000,
,,,1.897920000000,   0.00000,
,,,1.897930000000,   0.00000,
,,,1.897940000000,   0.80000,
,,,1.897950000000,   0.00000,
,,,1.897960000000,   0.00000,
,,,1.897970000000,   0.00000,
,,,1.897980000000,   0.00000,
,,,1.897990000000,   4.00000,
,,,1.898000000000,   4.00000,
,,,1.898010000000,   4.80000,
,,,1.898020000000,   4.80000,
,,,1.898030000000,   4.80000,
,,,1.898040000000,   4.80000,
,,,1.898050000000,   4.80000,
,,,1.898060000000,   4.80000,
,,,1.898070000000,   5.60000,
,,,1.898080000000,   0.00000,
,,,1.898090000000,   0.00000,
,,,1.898100000000,   0.00000,
,,,1.898110000000,   0.80000,
,,,1.898120000000,   0.00000,
,,,1.898130000000,   0.00000,
,,,1.898140000000,   0.80000,
,,,1.898150000000,   0.00000,
,,,1.898160000000,   0.80000,
,,,1.898170000000,   0.00000,
,,,1.898180000000,   0.00000,
,,,1.898190000000,   0.80000,
,,,1.898200000000,   0.00000,
,,,1.898210000000,   0.00000,
,,,1.898220000000,   0.00000,
,,,1.898230000000,   0.00000,
,,,1.898240000000,   0.00000,
,,,1.898250000000,   0.00000,
,,,1.898260000000,   0.00000,
,,,1.898270000000,   0.00000,
,,,1.898280000000,   0.00000,
,,,1.898290000000,   0.00000,
,,,1.898300000000,   0.80000,
,,,1.898310000000,   0.00000,
,,,1.898320000000,   0.00000,
,,,1.898330000000,   0.00000,
,,,1.898340000000,   0.00000,
,,,1.898350000000,   0.00000,
,,,1.898360000000,   0.80000,
,,,1.898370000000,   0.00000,
,,,1.898380000000,   0.00000,
,,,1.898390000000,   0.00000,
,,,1.898400000000,   0.00000,
,,,1.898410000000,   0.80000,
,,,1.898420000000,   0.00000,
,,,1.898430000000,   0.00000,
,,,1.898440000000,   0.00000,
,,,1.898450000000,   0.00000,
,,,1.898460000000,   0.00000,
,,,1.898470000000,   0.00000,
,,,1.898480000000,   0.00000,
,,,1.898490000000,   0.00000,
,,,1.898500000000,   0.00000,
,,,1.898510000000,   0.00000,
,,,1.898520000000,   0.00000,
,,,1.898530000000,   0.00000,
,,,1.898540000000,   0.00000,
,,,1.898550000000,   0.00000,
,,,1.898560000000,   0.00000,
,,,1.898570000000,   0.00000,
,,,1.898580000000,   0.00000,
,,,1.898590000000,   0.00000,
,,,1.898600000000,   0.00000,
,,,1.898610000000,   0.00000,
,,,1.898620000000,   0.00000,
,,,1.898630000000,   0.00000,
,,,1.898640000000,   0.00000,
,,,1.898650000000,   0.00000,
,,,1.898660000000,   0.00000,
,,,1.898670000000,   0.00000,
,,,1.898680000000,   0.00000,
,,,1.898690000000,   0.00000,
,,,1.898700000000,   1.60000,
,,,1.898710000000,   4.00000,
,,,1.898720000000,   4.00000,
,,,1.898730000000,   4.80000,
,,,1.898740000000,   4.80000,
,,,1.898750000000,   4.80000,
,,,1.898760000000,   4.80000,
,,,1.898770000000,   4.80000,
,,,1.898780000000,   4.80000,
,,,1.898790000000,   4.80000,
,,,1.898800000000,   4.80000,
,,,1.898810000000,   4.80000,
,,,1.898820000000,   4.80000,
,,,1.898830000000,   4.80000,
,,,1.898840000000,   4.80000,
,,,1.898850000000,   4.80000,
,,,1.898860000000,   4.80000,
,,,1.898870000000,   4.80000,
,,,1.898880000000,   4.80000,
,,,1.898890000000,   4.80000,
,,,1.898900000000,   4.80000,
,,,1.898910000000,   4.80000,
,,,1.898920000000,   4.80000,
,,,1.898930000000,   4.80000,
,,,1.898940000000,   4.80000,
,,,1.898950000000,   4.80000,
,,,1.898960000000,   4.80000,
,,,1.898970000000,   4.80000,
,,,1.898980000000,   4.00000,
,,,1.898990000000,   4.80000,
,,,1.899000000000,   4.80000,
,,,1.899010000000,   4.80000,
,,,1.899020000000,   4.80000,
,,,1.899030000000,   4.80000,
,,,1.899040000000,   4.00000,
,,,1.899050000000,   4.80000,
,,,1.899060000000,   5.60000,
,,,1.899070000000,   4.80000,
,,,1.899080000000,   4.80000,
,,,1.899090000000,   5.60000,
,,,1.899100000000,   4.80000,
,,,1.899110000000,   4.00000,
,,,1.899120000000,   4.80000,
,,,1.899130000000,   4.80000,
,,,1.899140000000,   4.80000,
,,,1.899150000000,   5.60000,
,,,1.899160000000,   4.80000,
,,,1.899170000000,   4.80000,
,,,1.899180000000,   4.80000,
,,,1.899190000000,   4.80000,
,,,1.899200000000,   4.80000,
,,,1.899210000000,   4.80000,
,,,1.899220000000,   4.80000,
,,,1.899230000000,   4.80000,
,,,1.899240000000,   4.80000,
,,,1.899250000000,   4.80000,
,,,1.899260000000,   4.80000,
,,,1.899270000000,   4.80000,
,,,1.899280000000,   4.80000,
,,,1.899290000000,   4.80000,
,,,1.899300000000,   4.80000,
,,,1.899310000000,   4.80000,
,,,1.899320000000,   4.80000,
,,,1.899330000000,   4.80000,
,,,1.899340000000,   4.80000,
,,,1.899350000000,   4.80000,
,,,1.899360000000,   4.80000,
,,,1.899370000000,   5.60000,
,,,1.899380000000,   4.80000,
,,,1.899390000000,   5.60000,
,,,1.899400000000,   0.80000,
,,,1.899410000000,   0.80000,
,,,1.899420000000,   0.00000,
,,,1.899430000000,   0.00000,
,,,1.899440000000,   0.00000,
,,,1.899450000000,   0.00000,
,,,1.899460000000,   0.00000,
,,,1.899470000000,   0.00000,
,,,1.899480000000,   0.00000,
,,,1.899490000000,   0.00000,
,,,1.899500000000,   0.00000,
,,,1.899510000000,   0.00000,
,,,1.899520000000,   0.00000,
,,,1.899530000000,   0.00000,
,,,1.899540000000,   0.00000,
,,,1.899550000000,   0.00000,
,,,1.899560000000,   0.00000,
,,,1.899570000000,   0.00000,
,,,1.899580000000,   3.20000,
,,,1.899590000000,   4.00000,
,,,1.899600000000,   4.80000,
,,,1.899610000000,   4.80000,
,,,1.899620000000,   4.80000,
,,,1.899630000000,   4.80000,
,,,1.899640000000,   4.80000,
,,,1.899650000000,   4.80000,
,,,1.899660000000,   4.80000,
,,,1.899670000000,   4.80000,
,,,1.899680000000,   4.80000,
,,,1.899690000000,   4.80000,
,,,1.899700000000,   4.80000,
,,,1.899710000000,   4.80000,
,,,1.899720000000,   4.80000,
,,,1.899730000000,   4.80000,
,,,1.899740000000,   4.80000,
,,,1.899750000000,   4.80000,
,,,1.899760000000,   4.80000,
,,,1.899770000000,   5.60000,
,,,1.899780000000,   4.80000,
,,,1.899790000000,   4.80000,
,,,1.899800000000,   4.80000,
,,,1.899810000000,   4.80000,
,,,1.899820000000,   4.80000,
,,,1.899830000000,   4.80000,
,,,1.899840000000,   4.80000,
,,,1.899850000000,   4.80000,
,,,1.899860000000,   4.80000,
,,,1.899870000000,   4.80000,
,,,1.899880000000,   4.80000,
,,,1.899890000000,   0.00000,
,,,1.899900000000,   0.00000,
,,,1.899910000000,   0.00000,
,,,1.899920000000,   0.00000,
,,,1.899930000000,   0.00000,
,,,1.899940000000,   0.00000,
,,,1.899950000000,   0.00000,
,,,1.899960000000,   0.00000,
,,,1.899970000000,   2.40000,
,,,1.899980000000,   4.00000,
,,,1.899990000000,   4.80000,
,,,1.900000000000,   4.80000,
,,,1.900010000000,   4.80000,
,,,1.900020000000,   4.80000,
,,,1.900030000000,   4.80000,
,,,1.900040000000,   4.80000,
,,,1.900050000000,   4.80000,
,,,1.900060000000,   0.00000,
,,,1.900070000000,   0.00000,
,,,1.900080000000,   0.00000,
,,,1.900090000000,   0.00000,
,,,1.900100000000,   0.00000,
,,,1.900110000000,   0.00000,
,,,1.900120000000,   0.00000,
,,,1.900130000000,   0.00000,
,,,1.900140000000,   0.00000,
,,,1.900150000000,   0.80000,
,,,1.900160000000,   0.00000,
,,,1.900170000000,   0.00000,
,,,1.900180000000,   0.00000,
,,,1.900190000000,   0.00000,
,,,1.900200000000,   0.80000,
,,,1.900210000000,   0.00000,
,,,1.900220000000,   0.00000,
,,,1.900230000000,   0.00000,
,,,1.900240000000,   0.00000,
,,,1.900250000000,   0.00000,
,,,1.900260000000,   0.00000,
,,,1.900270000000,   0.00000,
,,,1.900280000000,   0.00000,
,,,1.900290000000,   0.00000,
,,,1.900300000000,   0.00000,
,,,1.900310000000,   0.00000,
,,,1.900320000000,   0.80000,
,,,1.900330000000,   0.00000,
,,,1.900340000000,   0.00000,
,,,1.900350000000,   0.00000,
,,,1.900360000000,   0.00000,
,,,1.900370000000,   0.00000,
,,,1.900380000000,   0.00000,
,,,1.900390000000,   0.00000,
,,,1.900400000000,   0.00000,
,,,1.900410000000,   0.00000,
,,,1.900420000000,   0.00000,
,,,1.900430000000,   0.00000,
,,,1.900440000000,   0.00000,
,,,1.900450000000,   0.00000,
,,,1.900460000000,   0.00000,
,,,1.900470000000,   0.00000,
,,,1.900480000000,   0.00000,
,,,1.900490000000,   0.00000,
,,,1.900500000000,   0.00000,
,,,1.900510000000,   0.00000,
,,,1.900520000000,   0.00000,
,,,1.900530000000,   0.00000,
,,,1.900540000000,   0.80000,
,,,1.900550000000,   0.00000,
,,,1.900560000000,   0.00000,
,,,1.900570000000,   0.00000,
,,,1.900580000000,   3.20000,
,,,1.900590000000,   4.00000,
,,,1.900600000000,   4.80000,
,,,1.900610000000,   4.80000,
,,,1.900620000000,   4.80000,
,,,1.900630000000,   4.80000,
,,,1.900640000000,   4.80000,
,,,1.900650000000,   4.80000,
,,,1.900660000000,   4.80000,
,,,1.900670000000,   4.80000,
,,,1.900680000000,   4.80000,
,,,1.900690000000,   5.60000,
,,,1.900700000000,   0.00000,
,,,1.900710000000,   0.00000,
,,,1.900720000000,   0.80000,
,,,1.900730000000,   0.80000,
,,,1.900740000000,   0.00000,
,,,1.900750000000,   0.00000,
,,,1.900760000000,   0.00000,
,,,1.900770000000,   0.00000,
,,,1.900780000000,   0.00000,
,,,1.900790000000,   0.00000,
,,,1.900800000000,   0.00000,
,,,1.900810000000,   0.00000,
,,,1.900820000000,   0.80000,
,,,1.900830000000,   0.00000,
,,,1.900840000000,   0.00000,
,,,1.900850000000,   0.00000,
,,,1.900860000000,   0.00000,
,,,1.900870000000,   0.80000,
,,,1.900880000000,   0.00000,
,,,1.900890000000,   0.00000,
,,,1.900900000000,   0.00000,
,,,1.900910000000,   0.00000,
,,,1.900920000000,   0.00000,
,,,1.900930000000,   0.00000,
,,,1.900940000000,   0.00000,
,,,1.900950000000,   0.00000,
,,,1.900960000000,   0.00000,
,,,1.900970000000,   0.00000,
,,,1.900980000000,   0.00000,
,,,1.900990000000,   0.00000,
,,,1.901000000000,   0.00000,
,,,1.901010000000,   0.00000,
,,,1.901020000000,   0.00000,
,,,1.901030000000,   0.00000,
,,,1.901040000000,   0.00000,
,,,1.901050000000,   0.00000,
,,,1.901060000000,   0.00000,
,,,1.901070000000,   0.00000,
,,,1.901080000000,   0.00000,
,,,1.901090000000,   0.00000,
,,,1.901100000000,   0.00000,
,,,1.901110000000,   0.00000,
,,,1.901120000000,   0.00000,
,,,1.901130000000,   0.00000,
,,,1.901140000000,   0.00000,
,,,1.901150000000,   0.00000,
,,,1.901160000000,   0.00000,
,,,1.901170000000,   0.00000,
,,,1.901180000000,   0.00000,
,,,1.901190000000,   0.00000,
,,,1.901200000000,   0.00000,
,,,1.901210000000,   0.00000,
,,,1.901220000000,   0.00000,
,,,1.901230000000,   0.00000,
,,,1.901240000000,   0.00000,
,,,1.901250000000,   0.00000,
,,,1.901260000000,   0.00000,
,,,1.901270000000,   0.00000,
,,,1.901280000000,   0.00000,
,,,1.901290000000,   0.00000,
,,,1.901300000000,   0.00000,
,,,1.901310000000,   0.80000,
,,,1.901320000000,   0.00000,
,,,1.901330000000,   0.00000,
,,,1.901340000000,   0.00000,
,,,1.901350000000,   0.00000,
,,,1.901360000000,   0.80000,
,,,1.901370000000,   0.80000,
,,,1.901380000000,   0.00000,
,,,1.901390000000,   0.00000,
,,,1.901400000000,   0.00000,
,,,1.901410000000,   0.00000,
,,,1.901420000000,   0.00000,
,,,1.901430000000,   0.00000,
